
Value of objective function: 4840.34750918

Actual values of the variables:
f1s1s2                          0
f1s1s3                          0
f1s1s7                          0
f1s1s11                         0
f1s2s1                          0
f1s3s1                          0
f1s7s1                          0
f1s11s1                         0
f2s1s2                          0
f2s1s3                          0
f2s1s7                          0
f2s1s11                         0
f2s2s1                          0
f2s3s1                          0
f2s7s1                          0
f2s11s1                         0
f3s1s2                          0
f3s1s3                          0
f3s1s7                          0
f3s1s11                         0
f3s2s1                          0
f3s3s1                          0
f3s7s1                          0
f3s11s1                         0
f4s1s2                          0
f4s1s3                          0
f4s1s7                          0
f4s1s11                         0
f4s2s1                          0
f4s3s1                          0
f4s7s1                          0
f4s11s1                         0
f5s1s2                          0
f5s1s3                          0
f5s1s7                          0
f5s1s11                         0
f5s2s1                          0
f5s3s1                          0
f5s7s1                          0
f5s11s1                         0
f6s1s2                          0
f6s1s3                          0
f6s1s7                          0
f6s1s11                         0
f6s2s1                          0
f6s3s1                          0
f6s7s1                          0
f6s11s1                         0
f7s1s2                          0
f7s1s3                          0
f7s1s7                          0
f7s1s11                         0
f7s2s1                          0
f7s3s1                          0
f7s7s1                          0
f7s11s1                         0
f8s1s2                          0
f8s1s3                          0
f8s1s7                          0
f8s1s11                         0
f8s2s1                          0
f8s3s1                          0
f8s7s1                          0
f8s11s1                         0
f9s1s2                          0
f9s1s3                          0
f9s1s7                          0
f9s1s11                         0
f9s2s1                          0
f9s3s1                          0
f9s7s1                          0
f9s11s1                         0
f10s1s2                         0
f10s1s3                         0
f10s1s7                         0
f10s1s11                        0
f10s2s1                         0
f10s3s1                         0
f10s7s1                         0
f10s11s1                        0
f11s1s2                         0
f11s1s3                         0
f11s1s7                         0
f11s1s11                        0
f11s2s1                         0
f11s3s1                         0
f11s7s1                         0
f11s11s1                        0
f1s2st                          0
f2s2st                    878.604
f3s2st                          0
f4s2st                          0
f5s2st                          0
f6s2st                          0
f7s2st                          0
f8s2st                          0
f9s2st                          0
f10s2st                         0
f11s2st                         0
f1s3s10                         0
f1s3s5                          0
f1s3s4                          0
f1s4s3                          0
f1s5s3                          0
f1s10s3                         0
f2s3s10                         0
f2s3s5                          0
f2s3s4                          0
f2s4s3                          0
f2s5s3                          0
f2s10s3                         0
f3s3s10                         0
f3s3s5                          0
f3s3s4                          0
f3s4s3                          0
f3s5s3                          0
f3s10s3                         0
f4s3s10                         0
f4s3s5                          0
f4s3s4                          0
f4s4s3                          0
f4s5s3                          0
f4s10s3                         0
f5s3s10                         0
f5s3s5                          0
f5s3s4                          0
f5s4s3                          0
f5s5s3                          0
f5s10s3                         0
f6s3s10                         0
f6s3s5                          0
f6s3s4                          0
f6s4s3                          0
f6s5s3                          0
f6s10s3                         0
f7s3s10                         0
f7s3s5                          0
f7s3s4                          0
f7s4s3                          0
f7s5s3                          0
f7s10s3                         0
f8s3s10                         0
f8s3s5                          0
f8s3s4                          0
f8s4s3                          0
f8s5s3                          0
f8s10s3                         0
f9s3s10                         0
f9s3s5                          0
f9s3s4                          0
f9s4s3                          0
f9s5s3                          0
f9s10s3                         0
f10s3s10                        0
f10s3s5                         0
f10s3s4                         0
f10s4s3                         0
f10s5s3                         0
f10s10s3                        0
f11s3s10                        0
f11s3s5                         0
f11s3s4                         0
f11s4s3                         0
f11s5s3                         0
f11s10s3                        0
f1s4s9                          0
f1s9s4                          0
f2s4s9                          0
f2s9s4                          0
f3s4s9                          0
f3s9s4                          0
f4s4s9                          0
f4s9s4                          0
f5s4s9                          0
f5s9s4                          0
f6s4s9                          0
f6s9s4                          0
f7s4s9                          0
f7s9s4                          0
f8s4s9                          0
f8s9s4                          0
f9s4s9                          0
f9s9s4                          0
f10s4s9                         0
f10s9s4                         0
f11s4s9                         0
f11s9s4                         0
f1s5s10                         0
f1s5s11                         0
f1s10s5                         0
f1s11s5                         0
f2s5s10                         0
f2s5s11                         0
f2s10s5                         0
f2s11s5                         0
f3s5s10                         0
f3s5s11                         0
f3s10s5                         0
f3s11s5                         0
f4s5s10                         0
f4s5s11                         0
f4s10s5                         0
f4s11s5                         0
f5s5s10                         0
f5s5s11                         0
f5s10s5                         0
f5s11s5                         0
f6s5s10                         0
f6s5s11                         0
f6s10s5                         0
f6s11s5                         0
f7s5s10                         0
f7s5s11                         0
f7s10s5                         0
f7s11s5                         0
f8s5s10                         0
f8s5s11                         0
f8s10s5                         0
f8s11s5                         0
f9s5s10                         0
f9s5s11                         0
f9s10s5                         0
f9s11s5                         0
f10s5s10                        0
f10s5s11                        0
f10s10s5                        0
f10s11s5                        0
f11s5s10                        0
f11s5s11                        0
f11s10s5                        0
f11s11s5                        0
f1s6s7                          0
f1s6st                          0
f1s7s6                          0
f2s6s7                          0
f2s6st                          0
f2s7s6                          0
f3s6s7                          0
f3s6st                          0
f3s7s6                          0
f4s6s7                          0
f4s6st                          0
f4s7s6                          0
f5s6s7                          0
f5s6st                          0
f5s7s6                          0
f6s6s7                          0
f6s6st                    710.162
f6s7s6                          0
f7s6s7                          0
f7s6st                          0
f7s7s6                          0
f8s6s7                          0
f8s6st                          0
f8s7s6                          0
f9s6s7                          0
f9s6st                          0
f9s7s6                          0
f10s6s7                         0
f10s6st                         0
f10s7s6                         0
f11s6s7                         0
f11s6st                         0
f11s7s6                         0
f1s7s10                         0
f1s7s11                         0
f1s10s7                         0
f1s11s7                         0
f2s7s10                         0
f2s7s11                         0
f2s10s7                         0
f2s11s7                         0
f3s7s10                         0
f3s7s11                         0
f3s10s7                         0
f3s11s7                         0
f4s7s10                         0
f4s7s11                         0
f4s10s7                         0
f4s11s7                         0
f5s7s10                         0
f5s7s11                         0
f5s10s7                         0
f5s11s7                         0
f6s7s10                         0
f6s7s11                         0
f6s10s7                         0
f6s11s7                         0
f7s7s10                         0
f7s7s11                         0
f7s10s7                         0
f7s11s7                         0
f8s7s10                         0
f8s7s11                         0
f8s10s7                         0
f8s11s7                         0
f9s7s10                         0
f9s7s11                         0
f9s10s7                         0
f9s11s7                         0
f10s7s10                        0
f10s7s11                        0
f10s10s7                        0
f10s11s7                        0
f11s7s10                        0
f11s7s11                        0
f11s10s7                        0
f11s11s7                        0
f1s8s11                         0
f1s8st                          0
f1s11s8                         0
f2s8s11                         0
f2s8st                          0
f2s11s8                         0
f3s8s11                         0
f3s8st                          0
f3s11s8                         0
f4s8s11                         0
f4s8st                          0
f4s11s8                         0
f5s8s11                         0
f5s8st                          0
f5s11s8                         0
f6s8s11                         0
f6s8st                          0
f6s11s8                         0
f7s8s11                         0
f7s8st                          0
f7s11s8                         0
f8s8s11                         0
f8s8st                    694.417
f8s11s8                         0
f9s8s11                         0
f9s8st                          0
f9s11s8                         0
f10s8s11                        0
f10s8st                         0
f10s11s8                        0
f11s8s11                        0
f11s8st                         0
f11s11s8                        0
f1s9s10                         0
f1s10s9                         0
f2s9s10                         0
f2s10s9                         0
f3s9s10                         0
f3s10s9                         0
f4s9s10                         0
f4s10s9                         0
f5s9s10                         0
f5s10s9                         0
f6s9s10                         0
f6s10s9                         0
f7s9s10                         0
f7s10s9                         0
f8s9s10                         0
f8s10s9                         0
f9s9s10                         0
f9s10s9                         0
f10s9s10                        0
f10s10s9                        0
f11s9s10                        0
f11s10s9                        0

Actual values of the constraints:
R1                              0
R2                              0
R3                              0
R4                              0
R5                              0
R6                              0
R7                              0
R8                              0
R9                              0
R10                             0
R11                             0
R12                             0
R13                             0
R14                             0
R15                             0
R16                             0
R17                             0
R18                             0
R19                             0
R20                             0
R21                             0
R22                             0
R23                             0
R24                             0
R25                             0
R26                             0
R27                             0
R28                             0
R29                             0
R30                             0
R31                             0
R32                             0
R33                             0
R34                             0
R35                             0
R36                             0
R37                             0
R38                             0
R39                             0
R40                             0
R41                             0
R42                             0
R43                             0
R44                             0
R45                             0
R46                             0
R47                             0
R48                             0
R49                             0
R50                             0
R51                             0
R52                             0
R53                             0
R54                             0
R55                             0
R56                             0
R57                             0
R58                             0
R59                             0
R60                             0
R61                             0
R62                             0
R63                             0
R64                             0
R65                             0
R66                             0
R67                             0
R68                             0
R69                             0
R70                             0
R71                             0
R72                             0
R73                             0
R74                             0
R75                             0
R76                             0
R77                             0
R78                             0
R79                             0
R80                             0
R81                             0
R82                             0
R83                             0
R84                             0
R85                             0
R86                             0
R87                             0
R88                             0
R89                             0
R90                             0
R91                             0
R92                             0
R93                             0
R94                             0
R95                             0
R96                             0
R97                             0
R98                             0
R99                             0
R100                            0
R101                            0
R102                            0
R103                            0
R104                            0
R105                            0
R106                            0
R107                            0
R108                            0
R109                            0
R110                            0
R111                            0
R112                            0
R113                            0
R114                            0
R115                            0
R116                            0
R117                            0
R118                            0
R119                            0
R120                            0
R121                            0
sen0                            0
sen1                      1862.64
sen2                            0
sen3                            0
sen4                            0
sen5                      1505.54
sen6                            0
sen7                      1472.16
sen8                            0
sen9                            0
sen10                           0
R133                      2283.18
