19839.8020032;21199.513968;25481.3546304;18029.1401856;17623.8520416;20260.2523968;20076.745622399998;25295.8504608;19033.5244608;20597.1862176;13642.153142399999
46194.1968384;29916.3065184;59146.527023999995;36307.6399296;39118.4438688;30051.062643200003;45176.9000832;39129.2098816;41180.613148799996;47387.3139648;28616.289638399998
80450.89344;39823.221321599995;100186.30929599999;58966.02290879747;64845.840211200004;43056.0278464;72885.6945792;44342.0821472;67226.82393599668;74752.8003936;42328.865088
97259.0194944;19272.8648832;120236.5828224;71191.98466559639;79164.7154784;19572.9323008;86343.6282336;21744.115664000004;79838.97373439527;87204.8832192;51066.5175648
113928.4688832;20212.4187264;144643.1842656;86500.04826239639;95378.660784;19658.462991999997;103950.2351808;21824.078598400003;94365.67305599527;101833.8567264;62467.5985632
128259.81452159889;18137.6249536;165994.80387839914;99996.49445759639;108869.5029888;16333.091740799995;118534.8217248;19018.690729600003;108364.18705919528;113987.03469120001;73101.6068832
145272.8704895989;17968.8988928;185681.26532159914;115223.27587199639;126308.6371872;16691.855967999996;133548.4867392;18035.9530592;124063.03820159528;127554.56899200001;87531.8669568
155323.0095551989;13072.829603199998;201199.48836479915;124955.8643519964;135146.2330368;12275.894335999994;144528.6917376;12796.377728000001;136700.1862847953;137544.5696832;95414.12314560001
166451.2128287989;23966.546339200002;224895.40479359915;136906.86899519304;148552.11432;20430.233721599994;161639.89542719998;18626.101564800003;153454.5495935909;152619.6186144;104714.63956800001
182486.2572575989;32007.603974400005;257666.09336639915;154085.45587198914;165337.86778559998;25404.17206719999;186381.878256;26709.546969600007;179765.5873535858;175100.36984640002;117170.016912
217206.51266879888;51793.7942304;311622.2630783991;180171.14852158813;206450.0185248;45168.902959999985;229154.053104;53022.237001600006;220718.4464735845;211022.65627200002;129484.76356800001
237719.31105599785;30145.3091616;351813.8119679984;201041.89208638814;233926.35390719998;36011.492028799985;259255.0837152;36791.970704000014;245857.05895678452;236121.58653120004;138221.7964704
259724.63635199785;32546.9100704;398108.16429119837;224354.78461438813;268671.07494719996;50164.32373119999;294854.2440768;47492.90840960001;276161.4863999845;264870.378864;147111.1060032
280453.29217919783;23876.595292799997;433624.8312287984;244595.56936318814;295715.44126079994;41121.472492799985;322381.454112;38833.191792000005;299525.3792927845;291079.53936000005;159536.317824
299322.05797439785;18463.187219199997;461378.60357759835;263247.2980127882;318509.8770239999;27900.431651199986;344232.013248;28451.71794240001;318831.7376735845;311365.89155520004;172640.927664
310916.72231999785;12532.431721599996;479799.23132159834;273467.5539263865;332717.77624319994;18188.506223999986;359241.6164256;20194.74864000001;332112.8405951824;325047.95735040004;181181.56654079998
345130.1598239979;37180.610249599995;528952.3549631983;295500.84215038206;363462.9476255999;45504.16609279998;398007.7645536;49415.00756800001;367644.72602877644;355191.1837344;200596.43122559998
402426.2019743979;55389.5438656;605005.2135647984;326415.08295357745;409176.6299135999;64804.61233919998;445095.2558304;69761.4419456;419029.61878077046;405022.972464;221003.76450239998
454244.59488959785;44569.2203456;669992.5878623984;370567.1877983775;454671.84418559994;55275.90947839998;495638.6203584;61232.381177600015;463549.19880957046;454412.6072064;240738.344352
486649.03844159783;27962.3018144;713289.1430591984;398866.7614751775;489589.9845407999;32772.15518719998;527770.4380415999;40392.74616320001;491324.34565437044;487848.4978464;256583.17045439998
514136.09865599783;27778.6501056;753582.3272927984;425519.3532095775;521579.82749759994;31795.343107199984;561346.9336223999;42520.35222400002;519792.0071615704;523842.38697600004;267043.5698976
529525.1977631978;25132.1844544;790334.9108063985;445233.9281759775;549125.7387264;35216.864979199985;592498.2265631999;32302.711011200015;551515.8438719704;556504.8594624001;277682.2290432
543919.6568735978;18180.901014400002;817034.1625151985;460240.4596607745;567829.218384;22815.651081599983;614179.8865727999;22710.965971200014;573273.0102239666;576320.787936;287619.3495648
558197.0654975978;18954.1178272;842117.6378879985;474686.52678717324;586828.7277696;26570.798566399983;638736.9638975998;26140.652739200013;594733.9756031648;595065.1333248001;299073.24861119996
580542.7928831978;28147.0992192;880632.8709119984;491510.7930527713;616476.3683328;44134.88138559998;673977.5978687998;42970.47719040001;622343.6910719622;622500.7760352001;312378.74009279994
608707.1738879977;33026.11470400001;921467.9250143984;515462.0616575713;649369.9619424;46156.752163199984;703605.7343231998;45269.29615680001;649980.9399743623;651016.4298912002;329577.51104639994
630138.3729119977;25262.10566080001;951449.5702655984;541390.5465695701;672794.703072;32080.40824319998;726127.8804863999;29490.37956160001;673227.8966879606;673213.3433856001;339465.47696639993
659079.9272735977;36294.700105600015;991350.5759999984;574588.7326655681;707532.9504191999;47001.89664639998;760581.0043775998;43422.70994880001;704883.2875775581;708456.8884320002;357214.2681599999
684196.9521119976;28997.69710080002;1025647.4143871984;598051.8983807681;735122.0257055999;39767.88114879998;792831.7918367998;41360.280406400016;728898.0467039581;734738.1746112002;369645.4866815999
709041.6617759976;25252.383523200016;1057984.8088607984;615376.5765983667;759181.7582783999;26743.769292799974;824923.6670591998;35497.79728320001;752089.7522591563;760584.4467264002;381545.6781023999
737606.0324447976;31562.290249600013;1094491.1876255984;637829.2861055622;790002.3731904;32922.05719039998;858561.8382431997;36752.101104;780627.7935647503;791335.8503136002;399919.06223999994
756863.7764831976;23719.969596800016;1120662.2352671984;653660.5184639593;811060.3516895999;25855.699350399984;879337.1983679998;30398.360553600003;800519.9299487465;812946.0557952002;412528.5031391999
788533.7558399976;34741.22547840002;1166632.0905311983;678108.2918399561;844878.114432;44011.86826879998;906251.4969983997;53869.053148800005;828905.4857087422;845348.0537088001;431393.5514879999
839122.7274719975;46638.91197120002;1235336.3790047984;712227.1020767561;893734.0336512;56979.25238079998;956693.4154847998;57446.299590400005;874955.4220223422;902697.7461984002;455448.7003679999
895143.5334431975;45156.05146560001;1309761.5845535984;753833.8476287561;939682.4490144;59684.66465919998;1015008.8073407998;64396.008569599995;929780.4722111422;969059.8178496001;475656.4664927999
921599.3050271975;20759.11435520001;1346446.8809567983;777620.101305556;963975.8508192;31239.417827199984;1045109.1002687998;33624.556115199994;955976.3831807422;1001319.1035264;486304.20921599993
938905.6833791975;15412.95174080001;1370259.4155263982;792920.1617567542;981661.3903008001;23393.699366399982;1067552.3495808;25443.65468799999;978281.3423807397;1025535.8128896;494629.6782239999
971503.1523935975;28415.30755200001;1409451.8003423982;820042.6078367521;1011141.7481088;37423.50929279998;1103662.519632;37749.24592319999;1013854.8818591371;1056130.5512448;510246.7479647999
1002459.0876767964;29476.497923200008;1449286.3095263974;850584.2380991521;1042473.6484128;38344.54658879998;1137454.3477728;35713.32746559999;1048536.9489023371;1085868.9639072;531026.3060063999
1024443.6652223964;21354.752819200006;1480922.6882687975;872900.497727948;1064931.7455648;27334.517404799983;1158854.1008255999;21010.16982719999;1072222.6484447317;1108262.8074528;546651.5413247999
1041704.7710975964;21782.697459200004;1512848.8697183975;893420.953833545;1086779.2132224;27389.830963199984;1183584.8526911999;15793.244937599988;1098127.8088991279;1130758.9510176;560168.7875423998
1060855.5475295964;29485.111155200004;1552295.5944479974;916370.8079903449;1116024.274368;37868.57052799998;1218218.492016;24088.474319999987;1130594.901523128;1158828.1837632;574749.6725375998
1092047.1013151964;33324.4002624;1593038.1954527975;943725.4405919417;1146518.4833856;41979.839231999984;1255156.3846944;33391.25197439999;1165081.0438655235;1193167.5979104;594905.0771519998
1131233.7068351964;36073.960159999995;1633915.4024735976;970097.6036735417;1174159.013328;48379.080563199976;1296007.5606912;38235.31613119999;1200967.9871615234;1227751.664976;615456.5928479998
1168291.0403423964;34025.9199456;1670733.9389951976;995616.9118367417;1202422.5949247999;43587.169980799976;1332981.5888736;38199.99214399998;1234520.9108351234;1260688.4473536;639659.4770015997
1198616.9428511963;30989.347705599997;1703162.2018175977;1019421.7133471397;1230432.8637311999;38609.80504319998;1364436.3086784;32322.495836799982;1266026.4414431206;1292419.3393152;662377.9932575998
1216140.8250815964;26386.739551999995;1734887.3708159977;1039354.034803137;1255466.3364863999;32055.789862399975;1390373.9859456;24659.234508799982;1292399.608751917;1322018.5963968;681869.2264703998
1226910.1512671963;18351.428927999994;1758299.1001919978;1052084.6886815333;1271748.6270432;21671.750851199977;1410674.7419712;17867.61326079998;1311381.673286312;1339964.4210623999;693919.5116255998
1241093.2151519964;22577.221654399993;1782997.2711359977;1067381.2096703334;1290926.6538624;25061.80868479998;1434280.7810592002;20496.746777599983;1333927.284911912;1360328.5111391998;710638.5416543998
1251134.0157599964;18694.682723199992;1803474.4068863976;1080478.7291807334;1306145.2507775999;13391.94146559998;1453293.10728;14409.014262399984;1352327.4377567118;1375432.4918015997;723228.2517311998
1261753.7380127963;20893.313753599992;1826679.4817183977;1097913.8650463335;1323982.2079007998;21154.00742719998;1474229.34792;14270.609641599984;1372280.8360607119;1392703.9411391998;735196.5386207998
1279374.0173279962;29283.428204799995;1861296.5268863977;1118349.2599199316;1346628.5515583998;34961.35996479998;1500818.1336864;28521.909958399985;1398106.0706399095;1416426.2843039997;749664.6825887997
1293201.633081596;24820.500335999994;1890309.7071935977;1133504.5574303316;1366920.9003455997;30244.739180799977;1521610.728624;21464.532166399982;1417362.5408831094;1436417.0580383998;763477.0657631997
1306288.294271996;21264.093724799994;1916837.0013023976;1146724.7853311317;1385531.8402463996;26907.411123199978;1542115.0317312;16963.512851199983;1436412.7459871094;1460116.1321279998;774658.8330623996
1323114.962198396;25292.527548799997;1946864.0201183977;1162158.1299647316;1408882.8304223996;30684.704579199977;1566773.2612512;23846.863254399985;1461826.0727135094;1489248.8035487998;792767.0955167996
1341491.946969596;29143.345868799996;1979648.3348351978;1177985.1633695317;1433881.0326239995;35634.05559359997;1593383.2100064;30598.168495999984;1489849.8310655095;1517258.9064671998;807367.4464319996
1373182.836422396;37121.4252768;2020431.6097631978;1198678.0262687302;1465258.2019487994;47962.68388159998;1629256.3324128;44500.09055359998;1529692.1251487073;1551057.7370687998;832326.0409727995
1400951.761084796;31080.1939104;2058621.036422398;1220774.5216223302;1496314.4586047994;41921.971151999984;1659173.6208096;33906.86867519998;1562947.2538559074;1584123.5389247998;850227.3720575995
1429596.433209596;23872.103008000002;2089759.6591487979;1238593.1672159256;1519264.6579295993;29672.296886399985;1680208.1355744;27078.00679679998;1586741.861980701;1609102.5503903998;867064.5743903995
1450930.247942396;26246.124300800002;2122500.723667198;1260117.1819583257;1543498.8330527993;28777.081244799985;1707255.0043776;29683.37954879998;1616067.5917823012;1639571.8009535999;882513.9043199995
1469844.7059455959;26012.0243168;2156050.6518527977;1282591.2344255222;1568822.0191775993;24722.225475199986;1735181.8852608001;31478.832342399983;1645106.6747230967;1667971.8594719998;900639.1521503995
1502539.3241567959;37796.253648;2215143.132911998;1316035.904083122;1611575.5926239993;37558.91391999999;1777360.9381056002;52242.89610239999;1687304.4525214967;1713954.1752576;915685.1713727996
1544323.256409596;36084.875631999996;2272311.427737598;1346721.371855922;1655170.2333503994;40742.44903679999;1816383.7854720003;47085.541996799984;1728537.3605662966;1762530.5229984;933083.3270015996
1572446.685369596;25810.741580799997;2310358.873017598;1368363.962735922;1684377.7415999994;32578.998383999988;1846253.0742624002;31632.708390399985;1760946.6408766967;1794853.546992;942977.3658047996
1591588.550073596;24659.624038399994;2346786.499737598;1386590.581439922;1709951.3141471993;35562.120015999986;1873990.7432928002;31550.094873599985;1792959.1690174968;1823426.7949152;957778.1212607996
1620668.269612796;29125.876771199997;2391120.276911998;1406984.107305518;1735811.8533215993;40173.03619199999;1909068.299424;34641.26279999999;1827163.1175550914;1861043.3782559999;972643.2269183996
1653452.4282047958;31938.038739199994;2438383.5329183983;1428514.0966943179;1764684.8721791992;50141.93422079999;1948216.0382496;41746.981516799984;1863229.9942942914;1899891.3954816;988709.6663423995
1677191.0419583959;21092.32745599999;2470828.1479775985;1445178.3518879178;1785898.8897695993;39642.032108799984;1975571.7525792;27750.24637119998;1888860.1043230915;1926992.7355104;1000200.9447071996
1699859.4160607958;20653.529625599993;2500493.0229215985;1461174.548111918;1807269.7036607992;33801.478297599984;2000595.4554816;21974.39666239998;1912298.0147998915;1951035.07248;1015101.0758015995
1735889.5041983959;42302.767785599994;2560539.1674815984;1497361.480243118;1850443.3305791991;50009.06449279998;2054421.0923328;44655.75596479998;1963595.5578430914;2004719.3225568002;1043645.1237215996
1787990.9924159958;50728.977660799996;2636067.2855327986;1538674.073625518;1900905.8296319991;59599.27391359998;2109090.1982976;59158.51850879998;2014033.2064414914;2059266.4586784001;1074624.8285951996
1807089.2940671958;19250.538057599995;2662662.5456831986;1557035.116300718;1922157.5457023992;21039.653929599976;2128257.5591232;21442.65006719998;2034646.9771390914;2083185.7127136001;1088504.3634911997
1817485.7400575958;16139.395279999993;2685204.1895615985;1571402.9064959134;1940719.4120447992;18666.878956799974;2147544.6755327997;22350.642342399977;2055628.8206494858;2099326.097232;1100044.3196159997
1844162.4939839959;31483.132390399995;2725435.5428447984;1599578.3763359133;1971620.6071391993;39519.12494399997;2186825.0870016;36469.46964159998;2089087.3815262858;2136503.775312;1126192.7118815996
1878701.645318396;45362.729539199994;2778799.0463999985;1639463.9202719133;2013099.3171359992;45141.012348799966;2235251.7887327997;47888.01964479998;2132025.273302286;2187883.1858112;1167600.2585183997
1908234.678355196;28186.254623999997;2812901.0829407983;1665413.0020799134;2041766.4121343992;28805.627283199967;2262993.5451744;28782.10794559998;2159803.0487806858;2219683.2204096;1193031.5666399996
1934645.982105596;27450.171632;2846202.6467231982;1690253.2546271118;2069380.9785311993;31134.556809599966;2292944.5185984;30329.27400639998;2188575.0118654836;2250527.6049984;1217530.8568799996
1971353.837635196;42267.8411712;2892852.547401598;1727416.1644415117;2113460.5186943994;50561.631052799974;2339177.6429568;42061.774534399985;2230427.1766174836;2295524.0698272;1256353.7216831995
2021524.811683196;50804.5839136;2950622.2004831983;1772472.5244287117;2159553.5745695992;61116.20583039997;2391187.4696736;49164.02371519998;2281630.8875326836;2347442.8900416;1303474.8248063994
2054783.384207996;32886.2745632;2988765.568252798;1804090.7894111117;2188433.315087999;38849.62387519998;2420238.7584288;32139.95634559998;2313010.6274302835;2381722.9767648;1333845.3520511994
2075314.669948796;26691.912857599997;3023557.553807998;1826102.3013791118;2212127.101756799;34206.775401599974;2452331.044656;30005.360127999982;2345237.3023774833;2408467.781664;1357620.1629119995
2130541.733807996;55031.754828799996;3100836.666441598;1878337.4893631095;2268813.702758399;65391.63949119997;2518086.9314880003;64113.75992319998;2403960.4077118803;2474582.4923616;1415591.5161887994
2173848.431846396;39582.60628479999;3153485.489241598;1916910.986745508;2307300.560812799;43731.344281599966;2561449.8899232005;45794.35026559997;2438694.0991870784;2523839.5542528;1456765.8418367994
2196934.6632191963;26113.310127999994;3188620.392422398;1941261.6143807056;2333009.123337599;29079.66411519996;2590562.4859584006;29824.31503039997;2463452.9528254755;2559883.9696704;1481911.2844127994
2252798.9190431964;59706.99494399999;3263549.970067198;1994137.3259999056;2396591.828121599;64027.83686399996;2653562.1414240007;66667.88833599997;2516066.4927166756;2626171.704576;1540267.0634303994
2346462.7873631963;91460.12179519999;3383715.202991998;2079786.5567423056;2491896.794198399;95945.85938879996;2745932.833468801;107666.86985279998;2603505.568751876;2734566.2983872;1636218.7263359993
2445637.1555807963;83212.56120319999;3498029.9544383977;2164470.501023906;2586509.761075199;110633.39397759996;2832337.626163201;120866.45011199998;2702621.4646462756;2847077.7098976;1726655.0642495994
2490116.452646396;42094.41004479999;3557310.5519711976;2216035.040630304;2638404.356284799;64953.76227199996;2883639.177043201;65353.76668479998;2755304.7318430734;2908911.4540416;1771910.2508543993
2527215.233702396;31995.68266879999;3608409.6817343975;2261322.8778815013;2682087.488063999;60966.03095999996;2920912.022131201;46975.08499839997;2795128.52863667;2955616.7402304;1806519.4483967994
2559241.184169596;33571.86137919999;3666630.7816415974;2302585.669785497;2725577.724239999;67730.45284799996;2965168.648771201;49458.55864639997;2841801.811228664;3007011.5175744;1843615.4287103994
2601025.646659196;46662.60363839999;3739224.605615997;2351518.2221758966;2780597.272406399;85047.34132159996;3017614.1413536007;70280.14398079997;2892321.4469470643;3070293.948576;1894967.9398655994
2661599.578924796;54088.331913599985;3818440.108915197;2397505.587004693;2847606.7076351987;87786.44267839997;3080256.392419201;87497.79866239996;2960008.25186866;3144930.4182816;1955684.8211903994
2753377.296623996;74794.11448639998;3930133.615084797;2473005.0519646932;2936459.1131423987;110317.47073599997;3166843.7368224007;100221.72331839996;3052316.9398174603;3246428.2354272;2037569.7123647993
2826253.918425596;57787.324012799974;4034904.031987197;2545134.073228691;3012400.5420095986;90448.39869119997;3243825.7183872005;81502.41061439997;3138660.339523057;3336014.695248;2107646.0060543995
2899275.7919327957;53356.30159039998;4131585.2623679973;2613828.184473491;3086318.7461375985;74927.56744959997;3313491.6360096005;77627.41149759997;3219328.525075057;3420131.5680767996;2172225.7842047997
2979950.449363196;57919.09504959997;4229498.368396797;2695396.9042654894;3163038.3781631985;88614.23209279997;3388792.3307712004;79427.62359999998;3302123.925455855;3508258.3011935996;2239832.8662047996
3061705.100054396;59968.16291839997;4327856.433043197;2783318.505724687;3242475.5800607987;100542.04560959997;3462516.0814176;92376.27349759998;3380020.1460286523;3593398.9743647994;2309279.7702816
3157435.2117599957;66098.00921599998;4445250.403766396;2861073.6407998833;3330637.4469599985;103981.65617279998;3552724.3735296;113973.91012159997;3472495.137993447;3687456.6764351996;2391192.9775008
3263046.1639775955;71782.75059839999;4566938.199609596;2933499.8195710834;3425532.5219327984;110735.41972479997;3656884.4527968;117371.99399679997;3571090.850159847;3793453.5100608;2478392.71128
3366618.9584255954;78086.59979519997;4690525.537295996;3031289.3121694834;3522675.2932511983;121269.13962559996;3766499.1267552;129778.50063039997;3671520.885302247;3912674.6431008;2569873.1124096
3473334.4822847955;84663.35478399997;4820685.485500796;3138618.2030206793;3628281.637843198;127467.61707199996;3879872.0646336;130896.88475839997;3773819.7225502413;4032559.6019424;2664218.545488
3581886.2609375953;91086.21889919997;4954173.040195196;3252624.2590174763;3741983.1319391984;131525.51799999998;3983219.815248;133255.82507199998;3878002.6046782373;4154503.6634688;2758959.8561088
3654562.8575807954;57213.97327359998;5042033.893209596;3317705.8914814764;3820344.7049855986;95222.20164159998;4050586.2176064;94753.32820159997;3946288.2707230374;4239519.0111936;2816679.6868896
3749242.8520223955;72742.64768639999;5156770.118371196;3424504.4472094732;3920225.4688895987;123972.45324479998;4141912.7237472003;116577.53836479996;4034645.4118174333;4349881.6379424;2895687.8560224
3842414.4443327957;67378.07309119997;5261681.159999996;3524526.7384606693;4011237.4093055986;114230.14052159997;4231084.4176896;114128.12977919995;4117810.920422228;4451955.5813472;2970655.9248671997
3957243.4535039957;87714.57414719996;5388454.290412797;3627995.4664414693;4122252.1014335984;140418.69725439997;4343486.0330304;131210.20647999994;4224124.539993428;4579863.0369696;3066205.252608
4065004.052409596;92070.72418559996;5518027.819094397;3746463.4943998693;4243446.127151999;134294.91111359998;4452647.2110144;146704.90796479993;4334654.123078228;4707118.8353664;3163514.7004992
4146543.291830396;64598.20855999997;5618071.696694397;3834696.1420798674;4330291.6940255985;108193.74666239998;4533695.818444801;109712.00958719994;4418734.498041425;4800492.6461856;3229174.830816
4241463.723561596;81645.97142079998;5732882.501558397;3923381.332915063;4433247.449567999;116159.78377599997;4632071.977324801;118233.87721599994;4527758.803823819;4914075.7141344;3311856.161424
4352619.534537596;94775.19317759997;5883599.406758397;4009299.773875063;4550575.9025663985;132472.64045439998;4749108.972192001;122129.31927359993;4647523.34681262;5047127.0097408;3411231.3105408
4457823.270163196;91592.52707839996;6035800.560796797;4106309.834620663;4667434.458623999;128516.48702719998;4868715.128515201;127063.01807679994;4762847.04047982;5182385.4438048;3509591.2321824
4559414.575046396;83458.85175999996;6166757.285222397;4224384.231695861;4778321.536396799;117439.02477119998;4979834.1260064;125544.32466239994;4868286.7693246165;5305870.1641248;3599020.0975392
4634201.116886396;58542.87525119996;6263624.103494397;4289713.793884661;4857966.165081599;90778.819712;5058470.469024;89574.34703039995;4945578.144364617;5401445.9496192;3661794.2163456
4731846.292195195;79723.26975359998;6389272.007395197;4377787.847798261;4957935.728831999;114614.9573312;5166605.8547136;114056.59052159995;5057760.516422217;5529115.3544928;3746526.8671584
4835852.613590395;79247.33097919996;6513697.892419197;4491710.584127856;5064065.754451199;114634.0355744;5273775.943056;124657.74449279996;5168284.14058541;5651071.1030016;3830000.7557663997
4930761.656505595;78368.53010879995;6638342.882659197;4611706.424323054;5176216.959782399;105376.02506559998;5378088.9113568;113924.16735039995;5269265.285644607;5765066.4929184;3918447.7364447997
5076073.984492795;118899.11898559994;6827794.948713597;4765803.349363054;5336959.138559999;158261.9643168;5529659.35896;164132.68541119996;5408056.6524286065;5925596.2833024;4048085.7903743996
5239560.463660794;122090.53606399994;7019641.263830397;4914078.889334252;5507542.750982399;167148.85032;5678898.5854368;179194.97142079996;5554763.404012604;6089488.6102272;4178101.3366175997
5379188.131814394;101641.53908479994;7185784.9750847975;5054274.854092647;5659083.833990399;149747.2258688;5812748.016681599;160172.94777599996;5703803.028863797;6246853.4731392;4293260.118431999
5515316.483932794;100527.92386559994;7337245.515235198;5193867.002428647;5800982.296233599;146437.57525439997;5948107.029590399;148921.47030719995;5842487.817186997;6391656.7077024;4399874.7283008
5672082.337631994;118424.51059519994;7521577.2056447975;5345140.793990245;5959937.539065599;173009.09127999996;6106187.736719999;149736.04041919994;6004519.328130995;6541334.737056;4520076.1090848
5767986.495743994;74780.37215359995;7648120.906214397;5447416.3274302455;6063402.553056;117882.23504959996;6202731.714047999;105555.19015999995;6100252.601730995;6659812.8721728;4593984.929568
5880155.904950393;96502.73339839996;7811453.523916798;5571128.348870246;6198596.1095328;154507.17474559994;6344114.7481056;147921.26557759993;6240422.943359795;6808703.0996736;4691158.7776704
6012073.925625593;104826.77999039995;7990132.160908798;5691281.555519844;6350396.1643584;166090.69314879994;6496806.0763872;168291.32052799992;6386524.286514993;6959054.2532832;4796870.9244192
6261259.198031994;203755.15350079996;8284840.739510397;5894498.246198244;6602572.5613056;272060.06720959995;6748162.9505856;273556.7993215999;6644193.576335792;7224318.1288511995;4992702.1519104
6491237.868115193;197366.88326079995;8592294.695500797;6128916.4302910445;6854050.5057504;262331.87375999993;6996924.9254592;269571.3115679999;6887814.612537392;7492195.3922208;5183300.8334016
6628055.619225593;107368.69834239993;8775550.209974397;6270200.028143845;6999377.8097088;163038.16640639992;7130602.667462399;166315.96530239988;7026108.701874993;7636874.3716608;5279876.9843616
6728171.395449594;81363.00403519993;8927261.676028797;6377529.559305444;7110624.34656;149430.84128639993;7243749.946598399;139629.21094719987;7144243.029705393;7750680.8417568;5351779.1003904
6852973.075199993;104840.28397759995;9095289.720047997;6498917.508182244;7246420.994304;183194.1661567999;7385136.6207743995;175858.55140479986;7284441.6923037935;7893730.219824;5449384.0930464
6958076.257468794;95069.86439999995;9240750.557625597;6612097.277260644;7371486.5063040005;151086.88547519993;7511335.454620799;150599.86965439987;7413719.900687793;8030466.706896001;5538087.7985376
7128581.446771193;149963.61202239996;9458508.325017598;6788997.453887842;7556335.4228832;193992.4434655999;7683965.713094399;209271.69991039988;7592536.00388139;8235008.5232736;5676584.0148
7363099.874735993;186979.69743999996;9734082.398726398;7013840.143363042;7799822.7036768;242026.44503359988;7907350.2709824;256432.78570239988;7824227.71389099;8503751.5173216;5854842.9362304
7662221.447644793;233065.10014399997;10076204.712931199;7293111.541948642;8108985.1354272;326435.96003199986;8187881.45328;317979.82293439994;8124345.51318699;8823054.9256416;6080252.7858911995
7947057.835065593;216526.36072959998;10408258.560211198;7579080.08939504;8404512.6753504;326167.0545951998;8453237.7575808;312157.8519807999;8409440.077113388;9132316.9694208;6290179.335647999
8143619.772931193;136432.6181952;10653508.929599999;7769040.60873584;8631608.7708288;235030.70962559982;8626015.391472;221686.5769471999;8603503.155820588;9342702.5220288;6432458.930323199
8356621.720492793;155211.4914304;10897216.858713599;7978887.21879344;8870221.0526688;260607.72039999982;8836263.9946368;250699.50960959992;8817259.533234987;9589726.815696001;6610998.5387424
8569340.279942393;159558.4914208;11156754.188591998;8182230.026860639;9118504.8897696;235131.86674559984;9053162.3604096;249662.83693119994;9052752.356985388;9834966.3177792;6782594.5189728
8887242.968438393;251818.5351232;11520330.228115197;8440071.50142704;9451410.556032;339275.7153247998;9350293.717872001;351773.19460479997;9370562.687769389;10189185.1172928;7021472.714784
9337385.41807679;351517.589696;12002735.016115196;8812640.43449264;9914229.8873856;496127.2545343998;9765168.606115201;458052.25493119995;9812590.19686059;10685289.276316801;7348459.8645792
9646074.614131192;224508.47691839997;12344724.539740795;9077269.50990704;10207601.477049598;328217.2823231998;10044577.803715201;297080.7747199999;10092822.723906988;10987942.542537602;7547197.2944832
9911217.322425593;175273.92263999998;12626687.746569596;9310376.799158242;10458434.565503998;274390.6808703998;10274599.169913601;263086.6300927999;10340254.196668588;11260862.005795201;7710590.2519584
10117331.141702393;132935.41667199996;12849943.811068796;9473138.799206242;10656623.753366398;209990.65884799982;10456181.855625601;220000.5584351999;10534243.395858988;11479294.887408001;7838609.0129856
10325667.374179194;127166.70328639996;13071175.191878395;9647878.682591842;10841160.218687998;204311.09290879982;10626042.765571201;207679.0035135999;10716834.974457389;11685604.773513602;7987108.445856
10572527.952633593;154258.51764799998;13342088.092982395;9850573.733270241;11045982.994041597;241650.59057279982;10819669.344652802;245958.39282239988;10933964.992713384;11919232.848355202;8195741.6242464
10958360.106844794;274327.8425472;13730819.307263995;10145090.927750241;11375333.261164797;378209.03099839983;11139625.490716802;384905.95947839983;11280225.957378983;12299964.044371203;8468379.7291872
11376420.662188794;310030.78550079995;14162047.674047995;10483202.925561441;11777460.636988798;439762.60184639983;11502931.450233601;435386.82271679986;11680824.857068583;12732736.373193603;8761537.1672064
11837408.393375995;320698.3784288;14640841.438329596;10827812.497737437;12226938.723417599;463909.10057919985;11919660.032937601;449647.65300479985;12115356.70374698;13223344.355539203;9086490.966787199
12381242.550019195;370086.0472768;15192516.265891196;11229489.169862233;12754025.864294399;588366.6125279998;12402726.839683201;555689.3727903998;12639291.185778975;13772388.110774403;9480533.486889599
13019456.769983996;421333.4548384;15852949.048425596;11734292.351231834;13387770.9764352;661844.2659295998;12971340.90072;620016.1922911998;13237111.472457375;14432155.476278404;9948039.704611199
13724827.762233596;482748.30483840004;16572469.274899196;12307080.876566233;14104385.9334432;735504.9714047998;13615157.8962144;711612.7779103997;13928537.674137376;15146733.884112004;10483940.120947199
14427455.470329596;501537.78004800004;17342997.433430396;12876502.983580634;14774615.8240032;722752.9919455998;14244325.139519999;697991.9864703997;14592953.551190177;15848284.207968004;11009771.608204799
14746616.873337597;199047.56730560004;17661239.164339196;13127645.104703832;15056179.2020448;306741.74694719975;14503514.131382398;294721.2504927997;14870951.876879776;16158768.702451205;11213790.112569598
14944796.426044798;117120.40957120004;17881484.284223996;13298268.048825432;15225624.4019328;201251.55275839975;14664539.721167998;191260.65385919967;15047835.645542176;16365022.033881605;11332767.332966398
15268963.403721597;224123.08931200003;18251670.420115195;13548192.13653103;15512890.2432192;329694.81127999973;14948668.723881599;310277.1047391997;15349271.109206177;16678955.930947205;11544877.666310398
15563071.677628797;196411.71666560002;18593308.365033597;13782692.749593431;15780505.0242528;295060.72234239976;15208859.414707199;286918.8278047997;15624658.656719778;16980035.283100806;11739065.429548798
15853910.281171197;188905.73083200003;18925373.858255997;14018323.343414228;16054510.2655104;291218.7474175998;15466325.371631999;280553.23226879974;15897911.925945373;17268589.460880008;11926173.213820798
16129513.223193597;172090.90687360003;19236331.629820798;14243926.004438229;16311206.9919168;268644.9788287998;15691404.967401598;265112.6571039997;16147391.172623774;17556007.501036808;12101166.545817599
16362152.457206396;131682.40374080004;19503074.873404797;14435342.430047829;16513853.1090048;242242.8527775998;15885025.912166398;222840.02338239967;16350893.402082974;17799809.181840006;12244975.462828798
16628152.572057595;173810.52454400007;19804700.942985598;14651037.75893743;16752509.330256;285506.3640415998;16116427.675958399;268376.1582783996;16590552.713510174;18069186.207686406;12416696.768764798
16905171.803961594;205458.92654720007;20116249.296047997;14833605.67577263;17010716.8009248;281553.6615359998;16366995.5967648;278130.2868223996;16851550.815964576;18346005.568656005;12595096.692403197
17259327.846057594;258435.08653120007;20488207.716863997;15080601.27211183;17340019.2359712;352213.8813439998;16686846.6528672;345960.8767039996;17182064.293458976;18711868.489257604;12829317.413097598
17701338.789503995;314500.6500064001;20936957.944636796;15397405.98612463;17751011.570697602;433415.4766559998;17082614.7073728;429197.7882783996;17590582.935618974;19170623.350598402;13137041.264284797
18241695.688463997;380614.0029824001;21519778.817375995;15797247.474556629;18265205.412806403;533616.5343615998;17576477.3307168;532021.0152543996;18108862.005945373;19751483.335507203;13529619.061171196
18918306.847756796;453293.6141536002;22182450.363532797;16348259.200262228;18905554.890403204;626675.3100287998;18182172.2131872;671882.2233023996;18734458.917254172;20438217.032227203;14019872.353459196
19664842.625107195;567695.3059168002;22937539.291603196;16999020.662803028;19608828.184915204;745430.0556639999;18855410.9440032;748144.4436159997;19434321.60114217;21215904.916665602;14580134.217561597
20273811.068620794;515807.1472064002;23547894.928761598;17543100.741926223;20193488.880163204;624053.8881151999;19399981.285756797;620439.7000127997;19996944.67321897;21832165.4281632;15023100.895430397
20869797.102479994;516402.8766816002;24155233.481635198;18043405.40301102;20757023.614195205;559898.3340319998;19930200.131923195;630114.7368895997;20546562.366201367;22421818.7084448;15454561.885660797
21366200.381241594;375735.70212800015;24661576.973692797;18480429.10768302;21211741.655078404;476249.5165343998;20383836.497337595;477090.28708479967;21014781.91096297;22906532.6590464;15809137.552511998
22022194.659609593;469838.63293120015;25335699.865343995;19037057.495212622;21850539.407510404;668916.5609087999;20973360.191356793;654107.1527871997;21627897.429887768;23550029.2065312;16289889.520607997
22721755.439865593;495158.4984544001;26074238.385427196;19637642.716502223;22533325.127424;710900.1461599998;21609069.017644793;707899.3672351998;22288432.384223767;24229147.3471872;16816096.725868795
23371196.721811194;478985.34359360015;26758866.308601595;20206554.485414222;23109802.584912002;666534.4058879998;22200810.967209592;649635.3659295997;22903118.036697365;24875467.2317952;17293050.362563197
24028978.150137596;481076.1583296002;27416869.411161594;20773489.63288302;23707326.402950402;653660.3590367999;22798915.67836799;642060.7612959997;23524663.01359656;25519629.5106336;17764807.991731197
24590104.826831996;428012.9053792001;27963329.578732792;21267699.69058542;24231808.839484803;541249.9831455998;23290287.40673279;578545.3918271997;24036272.79145896;26054728.652332798;18170597.9772576
24871513.256409597;196036.4968576001;28230665.773679994;21450874.55886702;24486036.840547204;249758.10906559983;23517342.89697599;266360.9265247997;24272398.94742696;26304832.610582396;18347400.066211198
25355096.178911995;363083.1007104001;28740326.674175993;21841164.161999818;24918021.362505604;471967.6279391998;23956132.12188479;470294.16061759973;24714791.93085096;26759973.313439995;18688056.9229728
25943637.362198394;419339.07495040004;29361838.470364794;22353816.003782216;25474707.173203204;598263.3861183998;24477566.21634239;602124.1078463998;25244077.84113576;27336048.463756796;19110221.1853344
26633207.645222396;486607.9584800001;30080409.509116795;22944732.757747017;26145132.113318402;687260.7637599998;25102058.49328319;716607.8286815998;25890501.818994958;27999373.270118397;19613245.2899616
27378308.938751996;554821.9200384;30788915.145551994;23595391.582617417;26833600.859414402;738045.0404991998;25761489.23998079;754006.4651647998;26569919.539641358;28738504.441756796;20198852.123961598
28286516.090591997;717299.5693984;31638472.744377594;24373470.547324613;27706276.6851744;910339.2039231998;26575376.906995192;910521.4167807999;27415480.352831755;29639428.871932797;21033779.782031998
29283247.649952;811478.8050496;32627577.326457594;25256115.813340608;28635193.1610144;970747.1153471998;27461906.81982719;984546.0467007998;28300694.27097575;30617686.7815968;21985022.822256
30143834.215343997;676615.0226368;33470835.364771195;26082670.76786861;29439926.8025472;831102.4982623998;28221837.701011192;833238.2541183998;29049193.70285735;31441763.030975997;22795335.9076032
30495608.1137952;252578.32931519995;33816318.149519995;26444072.44848941;29792961.7627392;357704.0879839998;28526264.59809599;353140.2734271998;29367499.045074947;31790107.589702398;23132867.3968608
30886177.918608;264419.53489599994;34211075.50010879;26816927.99307821;30140214.8280192;374345.5944383998;28864042.08327359;358734.41686079977;29701806.316415746;32165792.351711996;23469353.0316576
31390143.7841856;355877.60139519995;34728332.88957119;27158506.80341741;30590092.00944;486394.2983231998;29284473.82510079;481947.5692895998;30157900.409577347;32636909.734588794;23908516.457904
31858043.1055776;329582.6230335999;35212493.10395519;27500614.320585407;31014468.4266432;445478.2870591998;29673696.71482559;431579.22698239976;30570053.398703743;33070340.771395195;24307567.54272
32486868.527587198;473038.3990911999;35836034.311987184;28032096.037190206;31607580.2177088;650342.3341919999;30241578.89286719;635079.8656607999;31178105.106940538;33724141.9139808;24900585.153465603
33210426.343651198;580000.6743647999;36606989.155017585;28736204.310806204;32255925.7637088;754174.0169535999;30922925.21288639;776453.1138847999;31870156.40830053;34455993.099033594;25605856.921536002
34017284.0275776;641661.1954047999;37450580.406163186;29501195.353228603;32946223.7092608;795702.7409951999;31653540.635327987;832828.8131231999;32646991.32912933;35247996.575539194;26364100.270406403
34943093.1524736;751218.7424223999;38413082.79889919;30361036.3351774;33800655.2086368;890579.1950431999;32517449.71764479;908822.1977631998;33521638.010601327;36168755.020819195;27272146.6620864
35848753.7515776;722437.6862687998;39323779.38097919;31215827.4683326;34569541.164528;884122.4802912;33369884.85265919;874626.8301151998;34335651.71905892;37067628.23464319;28142118.4408704
36750437.0606016;735929.3591295998;40226152.53265919;32065946.0632222;35336171.9616192;896535.9079712;34230424.230086386;895878.2842911998;35137821.332850926;37929661.10769599;29011635.1266624
37147047.2977248;280507.3995391998;40648397.412527986;32356152.8540638;35659034.3724768;375446.84516799997;34579927.91799358;387837.42783039977;35488486.85097572;38315177.44597439;29388442.8282624
37748107.402704;425191.06382079975;41226991.308604784;32909624.8176958;36146520.6701184;574293.1232704;35115224.15900158;573395.4827199997;36064340.69780132;38899381.32921599;29939026.1666976
38531873.801894404;617580.6381503998;42009219.79030079;33555222.1257118;36798271.8269472;798343.2967168001;35846361.67106878;787287.1444159996;36842070.35957732;39655861.36346879;30662569.3663008
39361380.4150848;661908.6128959998;42850340.741548784;34284274.4089438;37507301.4079296;836908.6327104002;36610776.62974078;838730.8345663997;37633955.40691172;40437602.95014719;31395016.704096
40002286.548441604;485004.6810399998;43504947.662284784;34885363.1815294;38049878.344608;604193.0927872002;37201076.620243184;616440.8297023997;38224583.324812524;41079623.85976319;31973452.0759584
40685129.556048006;524125.1216735999;44179072.77623039;35545066.7260318;38630710.603152;636541.5986432002;37848503.88527039;670862.8092639997;38872151.392118126;41749731.50434559;32611949.6136192
41114952.81155521;304671.59132479987;44607587.16487679;35941394.037455805;38966378.6580768;385797.87653760024;38224349.55457918;397159.0842591997;39248236.27494693;42179741.180553585;33002934.951024
41443392.52497601;226804.58178879984;44947821.96325439;36234722.169043005;39177594.612057604;303495.96680960024;38518159.73595838;309079.5554207997;39559109.830790125;42527180.119708784;33305471.6676192
41815743.976713605;257592.03963199983;45321036.731740795;36549968.5088926;39416788.73517121;346290.5408416003;38839979.945692785;352518.9698367997;39923482.37351012;42886191.15535679;33643506.7966464
42216238.06058881;278706.6329503999;45738036.9790272;36891262.5696286;39672519.53523841;363946.6541088003;39194153.840879984;368994.49178879976;40299966.693388514;43281904.93113599;33986359.7407872
42738399.77402881;384281.2592415999;46278328.2079392;37296590.1821854;40025722.49375041;501467.7043264003;39669976.81866238;515677.53902399977;40779558.959298916;43818937.85931839;34444509.205968
43210496.84771521;340910.59226239985;46743522.6383136;37716491.9817502;40344306.04707841;476082.1312000003;40072269.379017584;459720.7825503998;41235053.35291172;44291692.83237119;34860679.5765024
43668489.493958406;321157.55774719984;47189391.1312032;38149038.8223838;40653907.666531205;494560.9061152003;40450856.676451184;460659.33050879976;41667104.18652452;44724014.61551999;35233847.8153056
43834068.99472321;93725.95556159985;47347679.316268794;38303991.1730878;40736720.76508801;182151.4716320003;40587322.58343358;164850.68370239978;41809606.12287332;44899306.317388795;35353317.047759995
44042484.39033601;135278.65992959985;47545031.868307196;38511932.806483;40861378.16634241;201636.4184960003;40764136.96209598;217148.44687039976;42011129.61184292;45114020.90121599;35528813.2359648
44222577.58437121;112172.41514879985;47724965.98966079;38659590.378403;40976901.557884805;148138.7005760003;40909956.39725758;192369.34271039974;42180097.26985893;45289148.13956159;35695569.069187194
44503417.54048321;197669.98986879986;48010819.74710399;38872319.8720318;41160234.667852804;230059.39303680032;41145961.55339518;280639.57252799976;42441815.18471013;45546805.99650239;35984005.364707194
44965273.20390721;363951.6644511999;48490475.463878386;39267559.423785396;41481724.14918721;419535.4487072003;41542944.156028785;467205.1812351998;42885917.511782125;45969551.68187519;36460309.49856
45476977.605408005;400136.38773119985;49004201.53699198;39751374.6522142;41859618.46626241;532571.2385216004;41997413.78567998;531711.3387423998;43380575.01123813;46482684.99353279;36979147.737763196
45930282.426633604;321223.1159775998;49442974.62540478;40142905.6707646;42207353.99890561;448526.4893280004;42385508.637868784;432030.12738879985;43797280.67314533;46913351.03775359;37420424.1306144
46463762.2072608;383443.6004063998;49944517.828329585;40640779.2188446;42629846.012841605;546961.1026336004;42854601.83670718;535552.7156415998;44277490.34161893;47444706.99017279;37903933.0456416
46646451.178617604;104782.83094719982;50118090.39051838;40817793.9554782;42754338.1470528;185598.04103040035;43032223.05321598;174217.76410879986;44439257.656482935;47621323.16663039;38081218.379472
46856306.73919681;126931.58813119981;50330446.18030078;40963307.3663326;42897131.700249605;214210.28524800032;43220444.25104638;194686.78698239988;44638968.795465335;47836108.80979199;38300635.617494404
47135078.46169921;205093.59520319977;50621718.585887976;41184744.2189566;43097558.92614721;288814.37980160036;43466087.21667838;278272.8352959999;44897495.93110053;48103545.53856959;38574517.6167552
47803208.28482881;548705.0719743998;51294317.938041575;41807663.0405278;43645887.394099206;669445.2497248003;44111837.89143358;682777.7954527999;45522479.14191333;48739744.774799995;39182061.089952
48502895.52574081;542119.1474047998;52014087.26720638;42416793.23495019;44227644.671433605;703259.4205152002;44792121.67047358;672083.5787615998;46187528.04429092;49444001.595849596;39820541.0458176
48990153.92774401;355072.5661311998;52501590.33526078;42823289.89514859;44627675.25335041;512056.48072960024;45282648.27369598;496871.7960287999;46656210.82705892;49963690.255824;40284105.970118396
49593477.77294401;449024.85789439984;53112034.229759976;43342309.81523499;45119259.35300161;585563.8136256002;45830643.438787185;610434.5910528;47212821.753234915;50578358.9193792;40850747.487273596
50098983.83637121;379293.2183743998;53621363.848463975;43799057.35634858;45537624.26832961;525037.3185792002;46320995.62261438;526398.5847007999;47705988.17600611;51084446.319849595;41313699.178070396
50523982.996262416;305178.5448127998;54081465.603983976;44162189.61730538;45876877.414531216;420098.99877440016;46718175.732278384;420225.71033919987;48124607.2770237;51478531.3973088;41692201.3052352
50902032.292905614;271240.7587455998;54468858.26246398;44487968.102466986;46171572.700233616;365172.6051488002;47063024.564543985;343248.19834559987;48488346.794764504;51787655.9897472;42085994.837472
51336812.698732816;296295.3801535998;54899136.02534398;44824521.095394984;46492907.28883202;394736.7641440002;47438972.031455986;382451.4570527999;48877320.9489981;52105747.314844795;42528081.8062656
51846507.120009616;368238.1341823998;55398377.76995518;45294811.51769258;46898964.001353614;487642.34685760015;47889944.96869439;484116.6469215999;49360966.219036505;52488950.13725759;43026966.3731904
52404109.16762882;433866.7117471998;56012809.10878078;45778298.30490218;47378119.71795841;591666.8443392002;48406404.55705919;571273.8807552;49927910.65148131;52920323.38137599;43580744.939491205
53019605.664403215;477421.29066879983;56650860.62899198;46404544.55325098;47917491.88181762;659657.3988128002;48973232.223791994;595726.4469472;50536808.45487331;53532937.95983999;44184751.848489605
53440360.62508801;307639.9471295998;57063358.02251518;46786598.30119658;48297300.44152322;421344.5659392002;49348712.990649596;439138.9016928;50955376.03781731;53917293.99000959;44600497.707225606
53943344.98070402;375063.8938623998;57575958.22491838;47219789.99306858;48743631.01630082;538745.5979840002;49809636.4297824;511554.9934528;51449580.010626905;54396904.97301119;45073106.70860161
54553639.989686415;467203.47631679976;58214735.53796158;47792969.97148778;49305068.92644482;631551.6663584001;50397118.8402528;587022.8145024;52069075.6872669;54994350.30546239;45633490.69789441
55242383.10252482;534276.2782879998;58888419.93449278;48287614.05190058;49929217.06112642;697474.9626400002;51021293.550451204;700344.0148351999;52750610.2841181;55646368.50957119;46281805.28962561
55852348.258425616;465473.31358399976;59489311.367923185;48862312.65953258;50486521.82284802;588056.7591872002;51566764.1574816;649578.7771519999;53357329.97711969;56277086.52712319;46851747.73424641
56472647.068339214;468494.3107967998;60166026.61035839;49459192.05288938;51084291.34114562;637991.4737504002;52131783.0048768;588684.0772863999;53984018.80514849;56928273.17011199;47437016.32615681
57124513.14831361;498650.6343615998;60867118.30461118;50038154.208230175;51737043.607776016;583674.1166496002;52731140.0766912;663205.6747167999;54606199.74246689;57557838.609417595;48060079.15976641
57581932.02511681;329957.7673887998;61320279.575174384;50463265.58089898;52190949.551299214;363476.61646080023;53154471.490473606;486984.8920159998;55043661.66050849;57977408.02870079;48514903.91665921
58040063.84257921;334614.9740319998;61761130.99476478;50866032.86207978;52642822.889116816;442665.2415648002;53564691.52774081;460151.76860799984;55517447.323871695;58464038.79907199;48976967.86776001
58368517.09099201;223346.5110815998;62099681.17907518;51154271.03272298;52952111.77150082;311412.1437984002;53853841.5502464;307419.5498559999;55828736.71004129;58799040.21120959;49317861.61621441
58709743.91507521;246625.06615679982;62448949.746921584;51473855.68764458;53273005.727097616;323599.71988800017;54163380.205872;317653.2668159999;56155984.67119649;59125381.797484785;49650698.84175361
59006573.14564801;216109.37071039982;62742888.160415985;51754465.53791978;53551622.37922562;289840.6139008002;54412317.0161568;281415.97395199985;56436526.90180769;59411439.21778558;49932745.27433281
59312782.81990081;216808.41573759983;63040025.237212785;52003249.77461738;53835553.31978882;301438.64778560016;54666163.503504;296972.2660767999;56724552.54745889;59722465.27083838;50199012.954777606
59604073.75535041;202114.39548479984;63328930.58295359;52224072.421650976;54106387.65728642;302974.36460160016;54915502.5387936;282309.32553919987;56993919.75852448;59988604.67035198;50454991.07527681
59960939.86918081;257690.32557439985;63706377.641270384;52488229.55529577;54444926.87735042;367237.8425888002;55223951.0148576;357982.88582719985;57335430.26180128;60342163.68913918;50776776.65174401
60445231.15573441;352859.6208287999;64199196.05529598;52889063.99028457;54902039.16237122;486196.7680608002;55641301.39296;481433.8361663998;57790830.84773728;60821565.92161918;51196139.399980806
61038588.619238414;429443.51354879985;64750703.14002238;53415243.83836777;55474530.619881615;600417.6115552003;56147066.0230752;565376.0543519999;58346985.799727686;61352670.700598374;51671109.44560321
61650450.39173762;457086.25484159985;65371914.74597758;53977261.495449364;56072118.06011522;624619.1283072004;56703185.1614016;597862.2849471999;58956039.33324449;61893540.20341437;52217252.33112001
62220968.37336962;414636.1455647999;65942846.06158078;54508209.575414166;56631697.12056962;583433.0607200004;57194445.1732704;571406.9615999999;59519964.63597089;62445260.139724776;52731285.743894406
62744015.78038082;368611.41517439985;66484828.349481575;54961979.04331177;57134217.023481615;526494.8787936004;57635953.460179195;525442.6854047999;60013674.25925729;62943079.05181438;53214405.7573152
63236721.84166082;324193.6687327998;66964955.27327997;55350465.363532566;57583697.912985615;468511.2132032004;58044673.9300608;464431.7283999999;60477127.46351968;63371822.47329598;53677288.4763744
63782839.06793282;394457.88031679986;67514856.45684478;55815456.559593365;58116769.25402881;520736.5012576004;58511275.18986239;563601.8648863999;61031115.73005088;63920678.93976958;54194635.2220128
64518905.53419842;559178.3093279998;68264846.55613437;56553828.52311336;58851580.05924481;794922.3096064003;59214597.35186879;756199.0908447999;61781661.89205088;64695857.970038384;54878847.7162752
65218695.58134722;534389.7783615999;68922664.08402237;57207648.644495755;59527978.904534414;762220.9475200004;59889056.869583994;697560.8429471999;62455434.65962527;65427037.50680638;55533001.7835936
65859604.04534402;462908.77226559987;69488048.41093437;57731176.608911745;60001096.63265281;598346.3948192004;60448533.8772096;623460.5632448;63021762.71213726;66015335.506751984;56085097.5124704
66440501.80027202;422485.32037119986;70036323.18448317;58285766.426543735;60387086.95502401;557735.6316672004;60994091.8844928;596649.3468736;63603192.554121256;66615489.76190399;56571912.012528
66906540.32313602;324929.3247071999;70510875.04563837;58723842.98735973;60686222.92139521;435786.6205632003;61418919.0244032;475988.3059744;64067878.077436455;67064039.758799985;56969921.848953605
67322998.93340161;290856.03976959985;70931685.56636156;59121876.75641253;61014348.57332161;426630.2116064003;61804966.4344512;428102.7547136;64468028.35627165;67523702.65986238;57332365.4945664
67767577.89514561;314893.1593983999;71364069.21199676;59537177.81645733;61366961.01081601;472635.0505568003;62216531.605152;456687.5326016;64919330.89516765;67957008.29423998;57721237.726521604
68177440.6843104;283675.99437119986;71758828.35503997;59936570.04389733;61691618.21008321;425654.9906816003;62592747.8851872;425509.7110816;65328378.50404765;68403372.66887039;58053974.461084805
68470437.957552;190087.95414399987;72015324.15142077;60225160.44902373;61905141.18688321;293787.5426048003;62844710.1652224;283902.2032352;65607985.65813085;68711725.47006719;58301145.85654081
68702743.0613376;164277.97049599988;72237060.14469117;60429318.036047734;62069459.40342721;214669.5112000003;63047266.3937376;236255.46395840004;65833764.31284445;68965193.18923199;58524675.29971201
68990351.56986241;213557.28904959987;72512480.80941117;60641454.60924453;62276336.33592961;250739.09299520028;63292984.155503996;292333.9716192001;66108222.39214045;69259422.1810464;58809665.81652481
69230842.9603776;180610.61455999987;72743012.31913917;60825921.358146936;62452569.43431361;216366.14335680025;63499625.7513408;246823.9179424001;66345443.38264285;69510472.69579199;59045312.63263681
69332611.309056;65291.60017919987;72859405.71703677;60920056.17143974;62512730.40162241;113681.10060480026;63585091.8196992;105616.7958176001;66449990.09344285;69611844.4790112;59138007.30273601
69509468.1089952;129718.38468159985;73035499.18982397;61068864.51334054;62632381.14000001;201607.26736960025;63734463.6305184;178059.8591808001;66622439.06216605;69782382.4374144;59287235.305507205
69716317.660128;161287.05530879987;73242658.31198397;61244889.87778534;62767508.70346561;213435.24144960023;63893646.0678528;220761.5686400001;66821555.52878364;69977909.10283199;59468786.34825601
69908180.94342719;151830.96996799987;73425130.95657597;61416958.66127974;62879717.08753921;194910.32864640022;64052502.537168;200445.8269888001;67000335.49310364;70165218.4819776;59643936.663523205
70029546.38856;95805.91858239989;73541778.79763517;61523290.33698213;62945433.67083841;127300.05375360022;64157985.5994144;123119.5257120001;67120701.71446043;70287381.2575872;59750593.2385632
70192334.7093312;127096.3052127999;73700734.94732156;61654346.59265253;63043724.81298241;164844.85773440023;64297607.792140804;164019.42310080014;67284270.18230364;70448567.73531839;59914961.826998405
70376775.5379744;142292.6662655999;73888003.22201276;61796166.14560292;63158133.01112641;191219.28590080023;64463215.35312001;193332.92863680012;67466651.65303643;70632902.7432288;60109058.3423328
70574782.33872001;148297.05982079988;74087230.98375356;61950877.10671652;63279295.9813152;212100.9733760002;64636492.226688005;207140.83387520013;67647809.31235163;70832928.2130144;60313445.9707392
70993795.2179328;343401.7000351999;74487691.01229116;62295200.82371492;63599847.366528004;421838.9508832003;65034018.8296416;432638.17720640014;68040983.19873562;71257302.23970239;60742616.0163264
71431446.54257281;347425.5398271999;74931473.85117117;62694772.60124132;63946608.22543681;451871.1946240003;65445480.50376961;479393.6572800001;68463094.00273882;71694546.40416959;61152368.2864128
71869066.7878368;328388.2720639999;75360703.81144316;63046239.05246372;64283339.048227206;412627.5533600003;65817951.07829761;440592.1860960001;68861633.22743002;72130842.733248;61535474.2019808
72228062.7094464;266349.9102527999;75711719.15444157;63384446.19525092;64556346.250080004;323796.1318176003;66118929.57668161;366690.2672064001;69194492.00536281;72487116.4046112;61840207.2868416
72592028.82432;269430.5894623999;76081130.93067837;63744309.19019492;64832359.0877856;368062.49557440024;66428795.01533761;364611.8585952001;69560838.06387801;72876580.19784;62152301.3909472
72902503.1251584;224788.9621023999;76408005.23015037;64007874.74252132;65050831.6633728;321341.24924480024;66692517.36111361;311338.9075712001;69856863.88970841;73224661.2124608;62421247.3281408
73270362.1288032;261140.12265919993;76783241.44016637;64335814.607750125;65283032.0717856;374823.3328224002;67023646.30710721;352823.4511104001;70210981.69185561;73622905.1312832;62745503.212540805
73618522.748928;240369.66627839993;77129026.91971196;64647799.02316772;65492698.2764832;357988.8179040002;67331712.82095361;345355.5172192001;70524562.442486;73981893.76392959;63056173.76242561
73887109.4913408;186211.97131519992;77420637.73111676;64862672.352306925;65650936.273344;286129.38937600027;67566262.02071041;273034.49243840005;70782293.7782204;74270983.99556158;63305627.40567361
74240496.4083264;256715.98116479992;77753869.45378555;65168507.075010926;65867946.4264608;370790.2495008003;67870062.71781121;342547.44830080005;71109021.9832412;74644125.63638398;63628363.60522561
74736575.41752;383614.8254784;78186148.65305275;65611350.29687013;66198292.075065605;543114.5017312003;68323420.48469761;478955.6133984001;71577709.1409596;75160013.13803518;64096827.39872641
75085140.645216;253916.22658239998;78516669.12315835;65958234.698102124;66417292.08360001;390135.0763872003;68630929.97281921;265688.9311200001;71895128.796086;75525685.69049278;64412913.58053121
75338286.7843584;178036.40639359996;78754974.28712635;66194561.72050533;66565407.19561921;282633.6855264003;68857384.3335936;213791.80994880007;72140874.0289052;75795792.47933757;64658408.90264641
75660314.60638079;234657.04506879995;79071953.29585914;66457157.63129252;66760699.74537601;345562.3344608003;69149860.58597761;314203.31121600006;72439413.8322524;76135158.22296958;64947429.11736001
75954824.05656959;202473.52052799996;79370393.61911035;66651048.94852772;66947818.493203215;301956.0872608003;69396419.86577281;287504.84511680005;72712290.3716444;76423556.58664317;65197274.25015361
76153062.4165728;129175.94418239997;79562483.14340155;66817556.78515172;67125378.91435201;192800.01110080027;69549117.22416961;205301.57947520004;72886034.9619356;76600095.85837437;65374248.48445441
76366744.30543679;154980.83341119997;79769046.42480955;67012669.86033572;67349202.14024642;223145.04918080027;69736500.07416001;209974.09712960004;73084271.70072919;76814136.96180478;65578339.54062721
76526367.06525119;112865.10934079997;79915120.45588794;67151378.38982372;67528310.42586242;172619.13613440027;69863784.9216192;161981.29502080005;73231461.6663452;76975562.26114558;65697123.92728321
76646329.79083198;83449.54605759998;80036850.11218554;67272338.78259812;67658706.11240642;138334.30971520027;69957141.2751456;113740.66453760005;73347654.0269084;77093252.95253758;65802542.114966415
76714009.59337918;44765.27925759998;80102397.91317114;67331943.54671012;67717266.74712002;87368.45411520028;70007382.76152961;66657.31110720006;73414808.6599292;77163949.02366719;65873240.41996802
76829266.08365758;91374.28291519998;80223166.03743355;67415323.32429092;67811528.21365443;141092.8465184003;70108284.59406722;122029.84320960006;73523712.2681084;77271789.70180799;65997491.60877122
77026649.34925438;155102.19096319997;80421756.88697276;67581934.16906852;67963613.47176963;199879.9213472003;70272827.40853442;193431.02428480005;73707767.8816604;77471391.2238144;66201088.69497602
77273212.47203518;195077.70978239996;80674813.50240956;67788946.85990371;68140614.37438083;245711.74786560028;70477870.53983042;255691.80326080008;73933740.0004892;77704615.3555008;66449494.09523521
77522154.44152318;205942.82253119996;80939769.35152316;68005606.08499171;68315499.31256643;260109.9475008003;70714114.13067842;252702.3682592001;74181880.73309721;77942924.6269248;66708995.153529614
77771359.38504958;204710.64663999996;81176141.13551997;68214960.35112931;68475475.66291203;248282.0521088003;70932570.75898561;243066.02137280008;74422277.12093721;78199339.6944288;66958895.341008015
77942372.45178238;131201.39118399998;81352997.91610557;68353637.1344061;68570523.85829763;141984.0697056003;71075203.12434241;167132.3035424001;74583119.8344092;78369799.820256;67127873.30395201
78120932.33750397;132766.14230719997;81527163.14350078;68508733.47503011;68670767.81721602;161760.1212672003;71229430.8231264;179169.85954560008;74754210.4747772;78553128.6142848;67269883.05457921
78330853.88919356;160434.9206848;81751433.97409917;68700871.23825571;68801577.46827842;192557.27182080032;71414556.9527232;211381.07417600008;74963407.6613948;78765368.9193216;67459551.79481281
78493578.56651516;121911.65504639999;81919128.72597118;68860204.69864291;68900044.90176003;147013.85589760033;71555811.0264;169712.1819808001;75133482.7211708;78931696.3984512;67610366.66905922
78655170.92595837;128461.0313504;82087677.01367998;69034301.8253853;68999800.65143043;155401.28874560032;71702368.4559744;184678.86334400007;75293094.0934652;79092592.6965984;67759009.32142082
78769502.13047037;89894.6953504;82202530.60244158;69156112.8386013;69064983.85400642;110342.95882240032;71800841.6396352;126331.17068160007;75383214.7694972;79191794.95698239;67853097.44994242
78869664.53184956;78166.030768;82302404.95365117;69266746.0235805;69124423.10561283;102207.17880640032;71886593.8914912;109515.91162880008;75460152.3182204;79288259.64900479;67942619.91414723
78946653.62119676;55870.376409599994;82384785.00754558;69356236.6956093;69170220.97338243;82970.36820160031;71953837.66166401;79279.69937920007;75533761.01327;79368341.04247679;68015102.05065602
79041494.09767677;71364.91745919999;82495591.19781117;69465274.5917661;69235479.95938563;105107.33966080031;72040181.127552;92620.61137280008;75633441.5796476;79459875.43453439;68117587.45038722
79146440.87469117;67775.6538496;82599869.29947837;69545414.8175901;69296189.16623044;101295.46361600031;72118332.2511936;97719.69881920006;75726662.165078;79553565.90411839;68204110.57868162
79275781.26057598;97487.48043519999;82739555.69068797;69645559.6365693;69387310.18500485;121602.56042240032;72232987.6097568;139516.13321280005;75852277.2150332;79684609.35116158;68317828.46052481
79392644.16194879;85806.44889599999;82856419.40802237;69735964.6131837;69466120.36992005;98750.91933760032;72335866.0502592;111225.05710400004;75960979.6534268;79800985.17365758;68443269.77269441
79496812.24496639;81578.37688639999;82963741.63933438;69839897.7672573;69538721.11323844;102755.11580480034;72429919.9412256;105011.97539840004;76062420.7475036;79907261.23212478;68564626.16751361
79624404.66182399;96147.3073664;83087258.34476158;69956106.6582141;69623298.23947203;130161.79123200034;72531137.06326081;131081.18805440006;76183863.60098839;80034804.27095038;68690416.93873921
79713370.8759168;66133.1630816;83174034.77383678;70043717.60726371;69689849.96949123;93918.89016320034;72599126.79021122;98004.58354560006;76270553.47229719;80123660.33532478;68776037.8028928
79774253.13980159;54532.579856000004;83244325.45487037;70111810.50644131;69756447.72124803;76697.13961280035;72656036.40386881;72679.90900800006;76341098.93880919;80192029.58343358;68843600.28408961
79823062.63224;41296.301526400006;83301231.98715837;70159158.48585571;69805414.08990723;56289.938816000344;72699226.3205568;50735.51555840007;76396706.37011479;80246113.41519359;68893804.43513282
79883316.58461119;44442.1244736;83368839.12497278;70204686.93578851;69860808.71472962;72521.16211520034;72756706.08729601;59341.91492800007;76456600.32755479;80309696.79683518;68945950.45615682
80049699.3282912;136653.1012448;83534066.63758078;70331628.59493092;70013509.88198403;182374.02024640032;72914937.69539522;175679.6813952001;76616828.7563804;80476228.03273918;69097955.59589761
80210226.62257919;130059.96455359999;83706970.56805438;70485826.67881891;70162888.38629763;175070.42968320032;73061326.25176321;175949.6662464001;76784889.4119068;80638864.23447357;69250478.64721921
80340325.9498656;109892.60338239999;83856358.44521278;70604256.78434852;70297632.21081603;151286.76306880033;73185929.87325121;156775.43564160008;76919711.16654679;80783463.70379516;69384692.82193922
80467058.777616;100684.9616704;83990745.14880958;70715523.31139491;70416587.98785603;136572.56015680032;73297192.26009601;134831.78698880007;77038473.0995708;80914518.02972156;69499773.51966721
80602793.8673472;102227.74943359998;84139286.14431359;70809627.92330852;70539752.10594243;133315.1846400003;73413487.72670402;143175.72826880007;77168059.70567;81051317.84911676;69605119.6364448
80741128.4263584;103919.80569919999;84281241.17669758;70919355.64847012;70667340.75083522;128508.3484448003;73530670.04481602;145437.50015680006;77308280.152646;81183081.39099836;69736680.6115392
80872188.3563616;96422.62344319999;84418415.49654718;71045436.17393252;70790798.00070722;119445.1800704003;73644767.57085122;126193.85692800005;77432612.39035161;81298017.18218876;69871061.608848
81010928.19902399;101991.21759359998;84546741.91985278;71149963.24428453;70924100.99160962;121655.0156096003;73760830.48546562;130743.87518080005;77564351.53753881;81428393.81701437;70014942.00864
81163083.9223872;120561.49144319998;84696371.19446398;71279075.46435812;71073374.40604801;136565.37607680028;73896281.98905602;161700.38539200003;77712776.2627484;81583266.35053436;70186837.4129952
81257129.1035424;62225.896204799974;84781030.50524159;71362084.08568293;71157113.31784321;74652.30593920028;73974150.69485763;94698.60012480002;77796865.54192281;81676957.86763197;70274102.17469761
81328347.79721281;55808.56852479998;84858797.7121248;71419451.99068773;71235527.61502081;68695.09048000028;74040805.37393282;86789.0131872;77873408.5366652;81755450.36726397;70346245.30326721
81405086.48294401;61113.36018559998;84941050.78463039;71472571.47714213;71319645.97807682;75401.02138880026;74109812.63256003;93339.9213376;77958911.9557436;81836160.03639357;70415097.5996928
81462140.28696962;43683.43091199998;85003076.72453758;71512743.07696292;71376872.80968001;58756.95145920026;74159967.80309764;66568.48669120001;78016697.5367516;81894061.66970877;70464994.1819424
81562059.18446402;82493.90393279999;85108622.48000638;71585642.14384292;71483821.29083522;111383.14045120025;74254401.42819844;106879.20589120002;78120822.362486;81985840.99876797;70562768.5442592
81630294.01948802;62008.7881696;85185264.48137279;71657636.97173733;71560424.46628802;80818.15872320025;74322857.49145924;74840.98386240003;78195890.9446844;82058352.73358397;70631196.26996161
81682619.29899842;49277.261007999994;85251092.85927358;71698512.38794532;71622253.38283202;63618.57575360025;74379909.43676163;60254.56920000003;78256407.3851804;82116296.81340477;70687844.70963842
81713466.07168321;28731.28360639999;85291714.81987198;71721538.78101093;71660827.09293123;41986.06335680025;74410814.15861763;40402.68979840003;78293684.5303964;82152249.06585597;70724070.07983361
81747712.19733122;35019.19087999999;85336281.33756478;71747989.29385893;71702858.78167683;44428.33928640026;74441258.11074243;48096.26786240004;78334224.8319356;82190887.30483197;70763577.92971201
81789473.41718403;45204.382838399986;85390329.74852158;71791989.16112614;71752875.87309124;54138.191676800256;74476053.90973443;57573.91423040004;78383444.1065276;82236105.21666236;70815545.85035521
81820633.54556163;35351.470428799985;85441864.87169278;71824581.17156133;71793839.19317764;41637.16316160026;74506710.11659203;40396.73460800004;78423286.24318999;82274096.17068475;70859922.1821216
81855705.95484483;32133.406297599984;85487600.17212477;71853441.21901414;71828190.19062725;20900.57321920027;74538124.82498884;34410.91866240004;78458686.87976599;82306732.41247675;70901006.8504032
81876286.60107844;19708.686796799982;85511925.92710078;71868619.33087654;71847835.88777284;16967.20902080027;74558832.54782404;19293.346886400042;78480718.81643479;82325234.53399675;70924390.9759296
81915687.22942084;42383.62335039998;85564540.91635197;71892027.94924775;71890528.13277124;47067.88818880028;74602612.30608004;50190.33340800005;78521774.80466838;82364740.57422714;70979986.279872
81957142.72235525;45900.174550399985;85614789.98433597;71924056.71946535;71940576.83345284;58296.974944000285;74648248.80534725;52687.82338560005;78570035.98257558;82408879.89601915;71036582.1754752
82022637.07465924;68255.34953279998;85682676.04208638;71990008.69809574;72013238.94781443;89090.15886720028;74710379.62967046;75041.95170240005;78632291.34541398;82477568.98828794;71112911.6328768
82095429.38163844;69682.96177599998;85759727.45356798;72061608.87074853;72099100.54578243;90818.45659520029;74778953.76311046;81327.69100800005;78713922.43762518;82554470.95057914;71199607.5798336
82165832.68800963;57467.850761599984;85835902.61085118;72127946.55064294;72172891.47130564;72731.64913600028;74834926.38924485;74949.80975360006;78786611.68098198;82625683.99023354;71276902.80589439
82258601.37638403;76832.71771199998;85930017.77177279;72213642.87828454;72265396.49850243;91587.46202240029;74911763.24654405;97104.66277440004;78878831.34669077;82723720.01365434;71365084.4775744
82312486.87366083;43336.04872319999;85995885.33820799;72278165.30713895;72325969.13424963;49361.07370560029;74958027.04454404;49145.112387200046;78919239.03312917;82783481.93297273;71413365.03301439
82351200.12917763;27005.937142399987;86038042.6212768;72313780.65445416;72362658.07526402;32134.61304000029;74985184.81759684;26351.66264000005;78939446.56424597;82820092.62038393;71443722.54988798
82398873.66189124;36015.46129919999;86087735.7693696;72356506.76591976;72409175.82498242;41876.18429120029;75023611.58557443;32605.14553280005;78968045.43944597;82859743.89892793;71482702.58994238
82430797.59918724;26909.960924799987;86124410.286336;72378588.79566696;72441202.64316481;31327.580838400292;75052052.66983683;23191.48843200005;78988862.70840918;82886090.69998072;71516944.80555838
82470987.19094405;36149.646879999986;86176392.30434881;72403050.67617576;72482337.74710082;46060.39220160029;75090745.22140804;32911.83317760005;79018361.09254037;82923374.75901112;71569022.05313279
82548271.49846405;68460.74290879999;86262743.38406402;72455144.13861096;72561792.41285762;88751.29994560027;75161849.66784003;67370.88712320005;79082853.28588757;82998104.23710711;71650244.90646718
82635337.22592965;63454.02923199999;86348181.47126402;72528744.40888296;72650230.92288002;90491.81288000026;75232307.14718403;67277.74627840005;79150689.36694036;83079786.55371831;71722975.00605118
82698587.29650244;43937.90942399999;86422760.95014723;72583943.55387816;72708705.15811202;67141.75260160027;75279699.51200643;43647.856960000056;79196192.94490516;83140014.52172151;71771465.74106878
82750147.39342085;34236.09461439999;86489225.41703042;72638992.97061096;72756309.81585602;58400.12929600027;75318074.35539843;33827.65924480005;79229816.01578836;83187687.09228471;71817244.17972478
82793490.51216964;33848.23970879999;86542626.73389122;72675499.16715816;72799326.07355523;51916.69607680027;75356678.62319043;32304.040297600055;79261796.13865876;83229994.00192311;71861437.38876478
82856826.90964805;51382.89955519999;86609829.24495362;72723783.98462376;72857517.52858563;67102.14965120028;75404066.20827843;44503.11516160005;79306652.93529557;83288938.08208312;71928972.30568318
82895714.31395525;31196.15543679999;86654488.72161601;72751560.93109415;72892272.75560643;47346.29899200027;75438846.52724163;28591.62861440005;79336619.38226837;83328836.70680632;71979293.46107519
82924272.43704005;27037.64458559999;86695895.37824641;72784017.88027175;72923838.51401283;39820.23714240027;75468895.84607044;23425.633744000053;79361433.52266197;83359361.85911992;72020719.2350016
82945166.89800964;24747.71823679999;86731844.84066881;72812357.26499495;72950182.27318083;33002.13835200028;75497272.13102403;21338.325379200058;79383582.08058196;83388484.65640312;72062474.961888
82974007.30034885;25168.39871679999;86763153.8822976;72837946.08575974;72974494.60894082;30794.88964800028;75523407.14995204;22278.772892800058;79406221.38704596;83415248.82915832;72098282.5632864
82997201.52722885;22666.219126399992;86789106.1059552;72858876.01133734;72993577.32558723;25800.68697280028;75543956.87829123;19549.32159680006;79425452.73070036;83433745.60087672;72129246.1239744
83014558.31859845;25930.051116799994;86816974.222656;72878464.53501093;73016711.73342723;29671.677840000277;75568539.14449923;22658.516464000062;79447031.99366356;83456004.19576313;72161921.263392
83042077.74770884;37809.253286399995;86856468.5313216;72899691.50473893;73046383.30402562;42551.265904000276;75602937.30174723;32076.784214400064;79476694.48966996;83486552.12665913;72212430.8412864
83071033.44471364;34745.44743359999;86894628.4642176;72922255.65201573;73077189.19637762;41051.005923200275;75635543.17454404;28221.874614400065;79504543.63025236;83511334.81235513;72260775.4012416
83092957.19925123;24752.427638399993;86928470.94306241;72938801.45583333;73099107.16781762;27191.748777600274;75656895.80235843;18359.990080000065;79524461.97823636;83530457.22375353;72294866.1454752
83114211.35810883;33421.436083199995;86970523.17591362;72963476.36081253;73125769.22570883;36458.968713600276;75683152.57201923;20962.775046400064;79548392.18537237;83553997.08458872;72344185.6752576
83135764.62936004;32625.81708159999;87009212.31986882;72988458.71500774;73147318.88362563;28824.788035200276;75709712.84457603;23199.258659200063;79572440.37792917;83578340.31361912;72388778.66893439
83163372.24055684;39830.1323936;87056595.09627841;73013304.66174693;73178414.44381443;39435.63222400028;75747265.24628162;32967.78447040006;79605953.46964757;83610823.21104953;72429495.53405759
83176495.66080004;22836.900751999998;87083187.68666881;73024597.38902374;73195523.42823362;25385.21726080028;75769015.41483842;17964.259942400055;79624554.03351317;83627232.79057913;72455611.31559359
83189453.58460803;19564.198073599997;87104530.82327041;73037622.44597733;73210836.70166403;21000.49923840028;75788745.69957122;16046.121891200055;79640891.91711317;83642643.95123513;72486450.94913279
83202267.16883524;19148.9461952;87123412.101168;73049871.34650213;73225102.47730564;14744.45127040028;75804188.18869442;15403.226576000054;79655992.43996117;83656074.86078393;72514754.10910079
