11875.3474464;17223.6303072;25632.8977248;15699.6635616;15742.120176;20097.6100992;15124.3008192;19055.5240608;15492.239798399998;14571.6691392;10767.5553312
11083.5863264;16044.765792000002;39455.9629184;25752.3720544;24215.0019552;17373.701222400003;13909.992767999998;18368.694624;27666.3396736;19764.438947199997;10447.243056
17884.2495232;25432.760339200006;62002.5257856;43007.7443296;39695.0943328;30403.5207392;25149.383587199998;26762.2141472;47992.8610336;36371.6455808;15630.126364799999
14840.391903999998;19603.754176000006;62500;54651.50225599999;49672.0550112;23259.9704576;19967.036288;23674.9048256;61948.4870048;39818.878358400005;10966.186179199996
20994.4213024;25900.055132800007;62500;62500;62500;25344.9915904;26197.2701568;33673.925507199994;62500;52738.11104640001;17322.427673599996
21167.5322688;21969.698316800008;62500;62500;62500;21866.458608;28133.7510336;31546.678687999993;62500;59768.11843520001;14182.899491199994
32179.805548800003;29980.14375040001;62500;62500;62500;34343.178416;40720.011571200004;48298.119715199995;62500;62500;17079.287193599994
28499.316217600004;20562.553932800012;62500;62500;62500;24128.066780800007;36906.684416000004;47823.76988159999;62500;62500;14536.535423999994
38928.49827520001;30264.811904000013;62500;62500;62500;33754.40679040001;49726.314944;62500;62500;62500;18048.900729599995
44260.95430720001;31725.760905600015;62500;62500;62500;41856.64179200001;60900.30136319999;62500;62500;62500;13690.724323199993
37246.20293120001;21637.861216000016;62500;62500;62500;26568.590864000013;53483.27303039999;62500;62500;62500;12790.867897599992
42587.23918080001;29410.632758400014;62500;62500;62500;33594.46308800002;61252.011907199994;62500;62500;62500;15968.398963199992
44035.41366400001;26311.99404800002;62500;62500;62500;26989.879689600017;61137.99079679999;62500;62500;62500;21937.56263999999
43109.894940800004;21156.30939840002;62500;62500;62500;21434.657004800014;62500;53439.2153664;62500;62500;17738.49141439999
44682.3284384;18190.30528320002;62500;62500;62500;17916.338710400014;62500;46957.5078304;62500;62500;15072.954563199988
40013.523199999996;14418.850534400022;62500;62500;62500;15238.468140800016;62500;40279.250208;62500;62500;9737.327615999988
44264.990243199994;18323.74668800002;62500;62500;62500;19985.295478400018;62500;43513.373724799996;62500;62500;11567.009382399989
51210.33115839999;26602.09217600002;62500;62500;62500;28282.39957440002;62500;53603.990032;62500;62500;13319.970617599987
56967.94270079999;34899.015753600026;62500;62500;62500;31836.08656000002;62500;62500;62500;62500;21408.76240639999
52223.65989119999;26456.201107200024;62500;62500;62500;24476.598614400024;62500;58177.7159296;62500;62500;18268.18893119999
44932.23651199999;23950.309721600024;62500;62500;62500;20612.380950400024;62500;57619.3845536;62500;62500;9457.911724799991
43099.30559359999;22272.890675200022;62500;62500;62500;20035.33475200002;62500;62500;62500;62500;13017.128799999991
38205.36251839998;16189.85699200002;62500;62500;62500;14648.188540800022;62500;61343.2090784;62500;62500;8594.379705599991
44676.06268479998;25886.80997760002;62500;62500;62500;16754.297331200018;62500;62500;62500;62500;11007.201507199992
41513.40139519998;42254.06061440002;62500;62500;62500;26274.71814720002;62500;62500;62500;62500;11288.344761599992
26486.69115199998;26635.21394240002;62500;62500;62500;20775.72689600002;62500;62500;62500;62500;16921.335894399992
16611.182252799983;23835.38411840002;62500;62500;62500;13979.829596800017;62500;62500;62500;62500;6654.886857599992
13541.205852799982;30918.78956160002;62500;62500;62500;19064.566819200016;62500;62500;62500;62500;8890.995251199993
13523.870569599982;34149.73301120002;62500;62500;62500;16332.066803200018;62500;62500;62500;62500;11425.411932799992
8290.245574399982;39605.383801600015;62500;62500;62500;19313.503296000017;62500;62500;62500;62500;7572.496819199992
8896.251753599981;41733.98477760002;62500;62500;62500;15014.537062400019;62500;62500;62500;62500;7170.005449599993
10810.724425599983;46673.49170560002;62500;62500;62500;18891.888592000018;62500;62500;62500;62500;8504.000467199992
14288.545558399983;53962.99391360002;62500;62500;62500;22462.531456000015;62500;62500;62500;62500;11178.237030399992
16380.799023999984;57012.02012160001;62500;62500;62500;23343.600476800017;62500;62500;62500;62500;15434.935913599993
14822.687292799983;53365.03704000001;62500;62500;62500;21896.225468800018;62500;62500;62500;62500;13861.218931199994
15788.090671999984;51616.34976320001;62500;62500;62500;18469.712428800016;62500;62500;62500;62500;15781.861334399991
19562.803692799986;54422.88272640001;62500;62500;62500;22653.427753600015;62500;62500;62500;62500;18334.777548799993
19545.031187199984;52939.591779200004;62500;62500;62500;21880.769779200014;62500;62500;62500;62500;18763.784710399996
21802.222393599986;56595.8389248;62500;62500;62500;26594.565168000016;62500;62500;62500;62500;22297.534419199998
21717.463667199987;51242.860729600005;62500;62500;62500;21807.326464000016;62500;62500;62500;62500;18539.861158399995
14072.206505599988;40223.2331168;62500;62500;62500;12725.999190400016;62500;55699.697792;62500;62500;12178.991644799995
20375.831603199986;45325.2485472;62500;62500;62500;22121.977964800015;62500;62500;62500;62500;17201.425446399997
27305.400393599986;43254.492287999994;62500;62500;62500;26927.736419200013;62500;62500;62500;62500;20586.770569599994
17607.292665599984;24165.195359999994;62500;62500;62500;17483.974201600013;62500;53147.9265728;62500;62500;11842.888639999994
18167.605094399983;21132.539110399994;62500;62500;62500;18300.901225600013;62500;58460.05297920001;62500;62500;10702.177532799995
20385.59207679998;24812.445455999994;62500;62500;62500;15152.036099200013;62500;62500;62500;62500;11489.334620799993
19504.847727999982;25504.52193599999;62500;62500;62500;18037.525635200014;62500;62500;62500;62500;9489.982006399994
20358.107606399983;30951.05211839999;62500;62500;62500;28495.525913600013;62500;62500;62500;62500;11195.563324799994
20496.080854399985;27052.44131839999;62500;62500;62500;26439.010582400013;62500;62500;62500;62500;12348.481580799995
26614.899513599983;29168.20577279999;62500;62500;62500;23765.420086400012;62500;62500;62500;62500;16138.144582399995
34835.38379519999;25705.779996799985;62500;62500;62500;27306.63329600001;62500;62500;62500;62500;14091.313305599995
47145.09508799999;28080.539868799984;62500;62500;62500;30367.207788800013;62500;62500;62500;62500;18597.6701568
42134.10781119999;17386.303401599984;62500;62500;62500;16291.845286400012;59821.026016;55603.929231999995;62500;62500;12874.980377599999
44313.63977919999;16883.282767999983;62500;62500;62500;15882.217788800013;62500;54989.8659936;62500;62500;10623.563673599998
54243.043759999986;27775.784524799983;62500;62500;62500;25586.727456000015;62500;62500;62500;62500;15279.035145599997
48150.61704639999;17468.666054399982;62500;62500;62500;15633.353097600013;61401.879296;55802.3879552;62500;62500;9364.557292799997
50344.513990399995;21437.18456639998;62500;62500;62500;20790.356758400012;62500;60962.082928;62500;62500;11499.673651199997
46699.47513279999;20464.57218559998;62500;62500;62500;17558.77448320001;62500;60936.179913600005;62500;62500;9103.694979199996
45320.94993919999;34379.711027199985;62500;62500;62500;30813.472540800012;62500;62500;62500;62500;11470.799718399996
35515.839769599996;31701.39946239999;62500;62500;62500;25570.60645120001;62500;62500;62500;62500;8417.942732799997
37652.8867424;45846.03039359999;62500;62500;62500;33106.73806080001;62500;62500;62500;62500;17604.630687999994
33366.703408;46629.13148159999;62500;62500;62500;33576.068982400015;62500;62500;62500;62500;13170.199033599994
23250.929337600006;37224.49087999999;62500;62500;62500;25099.676150400017;62500;62500;62500;62500;11017.618428799993
22826.307129600005;34440.20919039999;62500;62500;62500;19583.187520000014;62500;62500;62500;62500;15040.774076799993
19487.634438400008;29131.26988159999;62500;62500;62500;19293.469276800013;62500;62239.8884704;62500;62500;13118.404547199993
26618.25625280001;33228.55171839999;62500;62500;62500;24909.176886400015;62500;62500;62500;62500;10953.329209599991
42077.24915840001;42418.777004799995;62500;62500;62500;38481.741920000015;62500;62500;62500;62500;21709.673315199987
44657.260051200006;33322.48751679999;62500;62500;62500;31599.80036800002;62500;62500;62500;62500;22274.779347199987
48361.909939200006;30396.615164799994;62500;62500;62500;29613.61574720002;62500;62500;62500;62500;16085.489670399988
62500;27742.051628799993;62500;62500;62500;29836.00736000002;62500;62500;62500;62500;10514.105721599986
62500;44650.45089919999;62500;62500;62500;40129.78932160002;62500;62500;62500;62500;20982.25392959998
61066.084873600004;21522.75033919999;62500;62500;62500;19662.96136960002;54748.3658016;62500;62500;62500;9392.276572799983
62500;32088.90800639999;62500;62500;62500;29675.836243200018;62500;62500;62500;62500;21942.83004479998
62500;35395.747948799995;62500;62500;62500;28593.781961600016;62500;62500;62500;62500;19730.473148799978
62500;29819.8903648;62500;62500;62500;26521.772304000016;62500;62500;62500;62500;18880.179254399976
62500;37534.705126400004;62500;62500;62500;32081.70865920002;62500;62500;62500;62500;25945.446086399978
62500;30210.46548480001;62500;62500;62500;25650.197961600017;62500;62500;62500;62500;18495.186140799975
62500;45373.92314560001;62500;62500;62500;37389.02426560002;62500;62500;62500;62500;26693.221299199977
62500;62500;62500;62500;62500;57413.74969600002;62500;62500;62500;62500;35843.658927999975
62500;50230.821168;62500;62500;62500;57101.36447680002;62500;62500;62500;62500;33375.403782399975
62500;39463.205270399994;62500;62500;62500;46453.76238400002;62500;62500;62500;62500;24980.007206399972
62500;28632.308630399995;62500;62500;62500;32152.73146240002;60836.1046048;59211.883232;62500;62500;15934.653539199971
62500;51623.3836992;62500;62500;62500;62500;62500;62500;62500;62500;24242.80581439997
62500;61617.8271168;62500;62500;62500;62500;62500;62500;62500;62500;38169.036371199974
62500;46883.823827199994;62500;62500;62500;59468.2779456;62500;62500;62500;62500;34900.81749759998
59857.0108416;31095.044102399992;62500;62500;62500;40340.0070496;57880.5196832;51761.440220799996;62500;62500;25189.651427199977
62500;49348.79159999998;62500;62500;62500;57784.7199968;62500;62500;62500;62500;31448.778492799975
62500;49584.732835199975;62500;62500;62500;58212.9989952;62500;62500;62500;62500;31061.781337599976
62500;48899.56038079997;62500;62500;62500;57636.3334208;62500;62500;62500;62500;37360.296057599975
62500;39664.481625599976;62500;62500;62500;40266.5703392;62500;52103.5883264;62500;62500;28929.116422399973
62500;37922.51246399998;62500;62500;62500;42320.7409568;62500;53232.349184;62500;62500;28541.885766399977
62500;42996.14086399998;62500;62500;62500;51967.7815424;62500;62500;62500;62500;36424.942899199974
62500;51285.51261759998;62500;62500;62500;62500;62500;62500;62500;62500;25757.22244479997
62500;59519.51574079999;62500;62500;62500;62500;62500;62500;62500;62500;49259.51364479997
62500;44286.40381119999;62500;62500;62500;57912.2143776;62500;59219.011871999995;62500;62500;48704.89093439997
50853.8221984;25070.486783999986;62298.639456000004;62500;62500;35787.550240000004;50618.225699200004;37248.928307199996;62500;62500;29300.746511999976
62500;35367.183622399985;62500;62500;62500;46269.26030080001;59095.50278720001;49150.779923199996;62500;62500;27956.265148799976
62500;62500;62500;62500;62500;55307.5976032;62500;62500;62500;62500;51600.04366719998
62500;62500;62500;62500;62500;62500;62500;62500;62500;62500;62500
62500;56574.3093408;62500;62500;62500;62500;62500;62500;62500;62500;62500
62500;62500;62500;62500;62500;62500;62500;62500;62500;62500;62500
62500;62500;62500;62500;62500;62500;62500;62500;62500;62500;62500
62500;62500;62500;62500;62500;62500;62500;62500;62500;62500;62500
62500;52904.51184959999;62500;62500;62500;62500;62500;62500;62500;62500;62500
62500;52850.75404159999;62500;62500;62500;62500;62500;62500;62500;62500;62500
62500;62500;62500;62500;62500;62500;62500;62500;62500;62500;62500
62500;62500;62500;62500;62500;62500;62500;62500;62500;62500;62500
62500;62500;62500;62500;62500;62500;62500;62500;62500;62500;62500
62500;62500;62500;62500;62500;62500;62500;62500;62500;62500;62500
62500;62500;62500;62500;62500;62500;62500;62500;62500;62500;62500
62500;62500;62500;62500;62500;62500;62500;62500;62500;62500;62500
62500;62500;62500;62500;62500;62500;62500;62500;62500;62500;62500
62500;56322.358214399996;62500;62500;62500;62500;62500;62500;62500;62500;62500
62500;62500;62500;62500;62500;62500;62500;62500;62500;62500;62500
62500;62500;62500;62500;62500;62500;62500;62500;62500;62500;62500
62500;62500;62500;62500;62500;62500;62500;62500;62500;62500;62500
62500;62500;62500;62500;62500;62500;62500;62500;62500;62500;62500
62500;62500;62500;62500;62500;62500;62500;62500;62500;62500;62500
62500;62500;62500;62500;62500;62500;62500;62500;62500;62500;62500
62500;62500;62500;62500;62500;62500;62500;62500;62500;62500;62500
62500;62500;62500;62500;62500;62500;62500;62500;62500;62500;62500
62500;62500;62500;62500;62500;62500;62500;62500;62500;62500;62500
62500;62500;62500;62500;62500;62500;62500;62500;62500;62500;62500
62500;62500;62500;62500;62500;62500;62500;62500;62500;62500;62500
62500;62500;62500;62500;62500;62500;62500;62500;62500;62500;62500
62500;62500;62500;62500;62500;62500;62500;62500;62500;62500;62500
62500;62500;62500;62500;62500;62500;62500;62500;62500;62500;62500
62500;62500;62500;62500;62500;62500;62500;62500;62500;62500;62500
62500;62500;62500;62500;62500;62500;62500;62500;62500;62500;62500
62500;62500;62500;62500;62500;62500;62500;62500;62500;62500;62500
62500;62500;62500;62500;62500;62500;62500;62500;62500;62500;62500
62500;62500;62500;62500;62500;62500;62500;62500;62500;62500;62500
62500;62500;62500;62500;62500;62500;62500;62500;62500;62500;62500
62500;62500;62500;62500;62500;62500;62500;62500;62500;62500;62500
62500;62500;62500;62500;62500;62500;62500;62500;62500;62500;62500
62500;62500;62500;62500;62500;62500;62500;62500;62500;62500;62500
62500;62500;62500;62500;62500;62500;62500;62500;62500;62500;62500
62500;62500;62500;62500;62500;62500;62500;62500;62500;62500;62500
62500;62500;62500;62500;62500;62500;62500;62500;62500;62500;62500
62500;62500;62500;62500;62500;62500;62500;62500;62500;62500;62500
62500;62500;62500;62500;62500;62500;62500;62500;62500;62500;62500
62500;62500;62500;62500;62500;62500;62500;62500;62500;62500;62500
62500;62500;62500;62500;62500;62500;62500;62500;62500;62500;62500
62500;62500;62500;62500;62500;62500;62500;62500;62500;62500;62500
62500;62500;62500;62500;62500;62500;62500;62500;62500;62500;62500
62500;62500;62500;62500;62500;62500;62500;62500;62500;62500;62500
62500;62500;62500;62500;62500;62500;62500;62500;62500;62500;62500
62500;62500;62500;62500;62500;62500;62500;62500;62500;62500;62500
62500;62500;62500;62500;62500;62500;62500;62500;62500;62500;62500
62500;62500;62500;62500;62500;62500;62500;62500;62500;62500;62500
62500;62500;62500;62500;62500;62500;62500;62500;62500;62500;62500
62500;62500;62500;62500;62500;62500;62500;62500;62500;62500;62500
62500;62500;62500;62500;62500;62500;62500;62500;62500;62500;62500
62500;62500;62500;62500;62500;62500;62500;62500;62500;62500;62500
62500;62500;62500;62500;62500;62500;62500;62500;62500;62500;62500
62500;62500;62500;62500;62500;62500;62500;62500;62500;62500;62500
62500;62500;62500;62500;62500;62500;62500;62500;62500;62500;62500
62500;62500;62500;62500;62500;62500;62500;62500;62500;62500;62500
62500;62500;62500;62500;62500;62500;62500;62500;62500;62500;62500
62500;62500;62500;62500;62500;62500;62500;62500;62500;62500;62500
62500;62500;62500;62500;62500;62500;62500;62500;62500;62500;62500
62500;62500;62500;62500;62500;62500;62500;62500;62500;62500;62500
62500;62500;62500;62500;62500;62500;62500;62500;62500;62500;62500
62500;62500;62500;62500;62500;62500;62500;62500;62500;62500;62500
62500;62500;62500;62500;62500;62500;62500;62500;62500;62500;62500
62500;62500;62500;62500;62500;62500;62500;62500;62500;62500;62500
62500;62500;62500;62500;62500;62500;62500;62500;62500;62500;62500
62500;62500;62500;62500;62500;62500;62500;62500;62500;62500;62500
62500;62500;62500;62500;62500;62500;62500;62500;62500;62500;62500
62500;62500;62500;62500;62500;62500;62500;62500;62500;62500;62500
62500;62500;62500;62500;62500;62500;62500;62500;62500;62500;62500
62500;62500;62500;62500;62500;62500;62500;62500;62500;62500;62500
62500;62500;62500;62500;62500;62500;62500;62500;62500;62500;62500
62500;62500;62500;62500;62500;62500;62500;62500;62500;62500;62500
62500;62500;62500;62500;62500;62500;62500;62500;62500;62500;62500
62500;62500;62500;62500;62500;62500;62500;62500;62500;62500;62500
62500;62500;62500;62500;62500;62500;62500;62500;62500;62500;62500
62500;62500;62500;62500;62500;62500;62500;62500;62500;62500;62500
62500;62500;62500;62500;62500;62500;62500;62500;62500;62500;62500
62500;62500;62500;62500;62500;62500;62500;62500;62500;62500;62500
62500;62500;62500;62500;62500;62500;62500;62500;62500;62500;62500
62500;62500;62500;62500;62500;62500;62500;62500;62500;62500;62500
62500;62500;62500;62500;62500;62500;62500;62500;62500;62500;62500
62500;62500;62500;62500;62500;62500;62500;62500;62500;62500;62500
62500;62500;62500;62500;62500;62500;62500;62500;62500;62500;62500
62500;62500;62500;62500;62500;62500;62500;62500;62500;62500;62500
62500;62500;62500;62500;62500;62500;62500;62500;62500;62500;62500
62500;62500;62500;62500;62500;62500;62500;62500;62500;62500;62500
62500;62500;62500;62500;62500;62500;62500;62500;62500;62500;62500
62500;62500;62500;62500;62500;62500;62500;62500;62500;62500;62500
62500;62500;62500;62500;62500;62500;62500;62500;62500;62500;62500
62500;62500;62500;62500;62500;62500;62500;62500;62500;62500;62500
62500;62500;62500;62500;62500;62500;62500;62500;62500;62500;62500
62500;62500;62500;62500;62500;62500;62500;62500;62500;62500;62500
62500;62500;62500;62500;62500;62500;62500;62500;62500;62500;62500
62500;62500;62500;62500;62500;62500;62500;62500;62500;62500;62500
62500;62500;62500;62500;62500;62500;62500;62500;62500;62500;62500
62500;62500;62500;62500;62500;62500;62500;62500;62500;62500;62500
62500;62500;62500;62500;62500;62500;62500;62500;62500;62500;62500
62500;62500;62500;62500;62500;62500;62500;62500;62500;62500;62500
62500;62500;62500;62500;62500;62500;62500;62500;62500;62500;62500
62500;62500;62500;62500;62500;62500;62500;62500;62500;62500;62500
62500;62500;62500;62500;62500;62500;62500;62500;62500;62500;62500
62500;62500;62500;62500;62500;62500;62500;62500;62500;62500;62500
62500;62500;62500;62500;62500;62500;62500;62500;62500;62500;62500
62500;62500;62500;62500;62500;62500;62500;62500;62500;62500;62500
62500;62500;62500;62500;62500;62500;62500;62500;62500;62500;62500
62500;62500;62500;62500;62500;62500;62500;62500;62500;62500;62500
62500;62500;62500;62500;62500;62500;62500;62500;62500;62500;62500
62500;62500;62500;62500;62500;62500;62500;62500;62500;62500;62500
62500;62500;62500;62500;62500;62500;62500;62500;62500;62500;62500
62500;62500;62500;62500;62500;62500;62500;62500;62500;62500;62500
62500;62500;62500;62500;62500;62500;62500;62500;62500;62500;62500
62500;62500;62500;62500;62500;62500;62500;62500;62500;62500;62500
62500;62500;62500;62500;62500;62500;62500;62500;62500;62500;62500
62500;62500;62500;62500;62500;62500;62500;62500;62500;62500;62500
62500;62500;62500;62500;62500;62500;62500;62500;62500;62500;62500
62500;62500;62500;62500;62500;62500;62500;62500;62500;62500;62500
62500;62500;62500;62500;62500;62500;62500;62500;62500;62500;62500
62500;62500;62500;62500;62500;62500;62500;62500;62500;62500;62500
62500;62500;62500;62500;62500;62500;62500;62500;62500;62500;62500
62500;62500;62500;62500;62500;62500;62500;62500;62500;62500;62500
62500;62500;62500;62500;62500;62500;62500;62500;62500;62500;62500
62500;62500;62500;62500;62500;62500;62500;62500;62500;62500;62500
62500;62500;62500;62500;62500;62500;62500;62500;62500;62500;62500
62500;62500;62500;62500;62500;62500;62500;62500;62500;62500;62500
62500;62500;62500;62500;62500;62500;62500;62500;62500;62500;62500
62500;62500;62500;62500;62500;62500;62500;62500;62500;62500;62500
62500;62500;62500;62500;62500;62500;62500;62500;62500;62500;62500
62500;62500;62500;62500;62500;62500;62500;62500;62500;62500;62500
62500;62500;62500;62500;62500;62500;62500;62500;62500;62500;62500
62500;62500;62500;62500;62500;62500;62500;62500;62500;62500;62500
62500;62500;62500;62500;62500;62500;62500;62500;62500;62500;62500
62500;62500;62500;62500;62500;62500;62500;62500;62500;62500;62500
62500;62500;62500;62500;62500;62500;62500;62500;62500;62500;62500
62500;62500;62500;62500;62500;62500;62500;62500;62500;62500;62500
62500;62500;62500;62500;62500;62500;62500;62500;62500;62500;62500
62500;62500;62500;62500;62500;62500;62500;62500;62500;62500;62500
62500;62500;62500;62500;62500;62500;62500;62500;62500;62500;62500
62500;62500;62500;62500;62500;62500;62500;62500;62500;62500;62500
62500;62500;62500;62500;62500;62500;62500;62500;62500;62500;62500
62500;62500;62500;62500;62500;62500;62500;62500;62500;62500;62500
62500;62500;62500;62500;62500;62500;62500;62500;62500;62500;62500
62500;62500;62500;62500;62500;62500;62500;62500;62500;62500;62500
62500;62500;62500;62500;62500;62500;62500;62500;62500;62500;62500
62500;62500;62500;62500;62500;62500;62500;62500;62500;62500;62500
62500;62500;62500;62500;62500;62500;62500;62500;62500;62500;62500
62500;62500;62500;62500;62500;62500;62500;62500;62500;62500;62500
62500;62500;62500;62500;62500;62500;62500;62500;62500;62500;62500
62500;62500;62500;62500;62500;62500;62500;62500;62500;62500;62500
62500;62500;62500;62500;62500;62500;62500;62500;62500;62500;62500
62500;62500;62500;62500;62500;62500;62500;62500;62500;62500;62500
62500;62500;62500;62500;62500;62500;62500;62500;62500;62500;62500
62500;62500;62500;62500;62500;62500;62500;62500;62500;62500;62500
62500;62500;62500;62500;62500;62500;62500;62500;62500;62500;62500
62500;62500;62500;62500;62500;62500;62500;62500;62500;62500;62500
62500;62500;62500;62500;62500;62500;62500;62500;62500;62500;62500
62500;62500;62500;62500;62500;62500;62500;62500;62500;62500;62500
62500;62500;62500;62500;62500;62500;62500;62500;62500;62500;62500
62500;62500;62500;62500;62500;62500;62500;62500;62500;62500;62500
62500;62500;62500;62500;62500;62500;62500;62500;62500;62500;62500
62500;62500;62500;62500;62500;62500;62500;62500;62500;62500;62500
62500;62500;62500;62500;62500;62500;62500;62500;62500;62500;62500
62500;62500;62500;62500;62500;62500;62500;62500;62500;62500;62500
62500;62500;62500;62500;62500;62500;62500;62500;62500;62500;62500
62500;62500;62500;62500;62500;62500;62500;62500;62500;62500;62500
62500;62500;62500;62500;62500;62500;62500;62500;62500;62500;62500
62500;62500;62500;62500;62500;62500;62500;62500;62500;62500;62500
62500;62500;62500;62500;62500;62500;62500;62500;62500;62500;62500
62500;62500;62500;62500;62500;62500;62500;62500;62500;62500;62500
62500;62500;62500;62500;62500;62500;62500;62500;62500;62500;62500
62500;62500;62500;62500;62500;62500;62500;62500;62500;62500;62500
62500;62500;62500;62500;62500;62500;62500;62500;62500;62500;62500
62500;62500;62500;62500;62500;62500;62500;62500;62500;62500;62500
62500;62500;62500;62500;62500;62500;62500;62500;62500;62500;62500
62500;62500;62500;62500;62500;62500;62500;62500;62500;62500;62500
62500;62500;62500;62500;62500;62500;62500;62500;62500;62500;62500
62500;62500;62500;62500;62500;62500;62500;62500;62500;62500;62500
62500;62500;62500;62500;62500;62500;62500;62500;62500;62500;62500
62500;62500;62500;62500;62500;62500;62500;62500;62500;62500;62500
62500;62500;62500;62500;62500;62500;62500;62500;62500;62500;62500
62500;62500;62500;62500;62500;62500;62500;62500;62500;62500;62500
62500;62500;62500;62500;62500;62500;62500;62500;62500;62500;62500
62500;62500;62500;62500;62500;62500;62500;62500;62500;62500;62500
62500;62500;62500;62500;62500;62500;62500;62500;62500;62500;62500
62500;62500;62500;62500;62500;62500;62500;62500;62500;62500;62500
62500;62500;62500;62500;62500;62500;62500;62500;62500;62500;62500
62500;62500;62500;62500;62500;62500;62500;62500;62500;62500;62500
62500;62500;62500;62500;62500;62500;62500;62500;62500;62500;62500
62500;62500;62500;62500;62500;62500;62500;62500;62500;62500;62500
62500;62500;62500;62500;62500;62500;62500;62500;62500;62500;62500
62500;62500;62500;62500;62500;62500;62500;62500;62500;62500;62500
62500;62500;62500;62500;62500;62500;62500;62500;62500;62500;62500
62500;62500;62500;62500;62500;62500;62500;62500;62500;62500;62500
62500;62500;62500;62500;62500;62500;62500;62500;62500;62500;62500
62500;62500;62500;62500;62500;62500;62500;62500;62500;62500;62500
62500;62500;62500;62500;62500;62500;62500;62500;62500;62500;62500
62500;62500;62500;62500;62500;62500;62500;62500;62500;62500;62500
62500;62500;62500;62500;62500;62500;62500;62500;62500;62500;62500
62500;62500;62500;62500;62500;62500;62500;62500;62500;62500;62500
62500;62500;62500;62500;62500;62500;62500;62500;62500;62500;62500
62500;62500;62500;62500;62500;62500;62500;62500;62500;62500;62500
62500;62500;62500;62500;62500;62500;62500;62500;62500;62500;62500
62500;62500;62500;62500;62500;62500;62500;62500;62500;62500;62500
62500;60526.6726752;62500;62500;62500;62500;62500;62500;62500;62500;62500
62500;62500;62500;62500;62500;62500;62500;62500;62500;62500;62500
62500;62500;62500;62500;62500;62500;62500;62500;62500;62500;62500
62500;62500;62500;62500;62500;62500;62500;62500;62500;62500;62500
62500;62500;62500;62500;62500;62500;62500;62500;62500;62500;62500
62500;62500;62500;62500;62500;62500;62500;62500;62500;62500;62500
62500;62500;62500;62500;62500;62500;62500;62500;62500;62500;62500
54356.1983456;35515.1694528;62500;62500;62500;57404.3814432;62500;62004.585456;62500;62500;59453.922054400005
62500;41769.254572800004;62500;62500;62500;62272.156511999994;62500;58874.546448;62500;62500;61236.03309440001
62500;46227.9687168;62500;62500;62500;62500;62500;47541.4699328;62500;62500;62500
48983.626988799995;28477.696860800002;62500;62500;62500;34252.565472;45475.25696;25024.4548416;62500;62500;58551.5041888
62500;39477.488198399995;62500;62500;62500;44918.8551968;60607.596886399995;47731.98571200001;62500;62500;62500
62500;62500;62500;62500;62500;62500;62500;62500;62500;62500;62500
62500;62500;62500;62500;62500;62500;62500;62500;62500;62500;62500
62500;55627.1679168;62500;62500;62500;62500;62500;62500;62500;62500;62500
62500;62500;62500;62500;62500;62500;62500;62500;62500;62500;62500
62500;45152.548848000006;62500;62500;62500;62500;62500;58784.9428512;62500;62500;59067.279376000006
42245.633504;26412.525305600007;62500;62500;62500;32500.177776;48529.87219839999;32180.401696;62500;62500;38675.629824
48821.6554816;33273.85347840001;62500;62500;62500;32491.870224000002;62496.22211839999;43788.9920512;62500;62500;44881.842083200005
62500;45450.450652800006;62500;62500;62500;50341.971344000005;62500;56879.2920096;62500;62500;38805.596288
62500;40245.1291456;62500;62500;62500;45738.523008000004;62500;51562.96129279999;62500;62500;32639.568108800002
62298.555932799994;35503.070544;62500;62500;62500;39851.49363520001;62500;48226.78096959999;62500;62500;29995.357440000007
56186.15402239999;27228.7492768;62500;62500;62500;28183.243104000005;61120.512672;34861.00323839999;62500;62500;21305.218182400007
57196.98852799999;26964.8005824;62500;62500;62500;24163.976323200004;62500;31723.82535039999;62500;62500;20925.87777600001
54577.166150399986;22181.4447616;62500;62500;62500;18395.134211200006;62500;25874.160985599992;62500;62500;16319.043974400007
59651.93013119999;25275.560723199997;62500;62500;62500;22683.691436800007;62500;33942.466495999994;62500;62500;17241.243116800008
62500;24330.714111999998;62500;62500;62500;26027.21115840001;62500;43641.778812799996;62500;62500;13189.623382400006
62500;24329.283062399998;62500;62500;62500;26091.32041280001;62500;54405.390745599994;62500;62500;16222.029030400006
62500;25353.4006336;62500;62500;62500;23526.12377600001;62500;60162.9347712;62500;62500;19158.28701120001
62500;30399.319555199996;62500;62500;62500;29033.842105600015;62500;62500;62500;62500;22018.051209600013
62500;38856.005712;62500;62500;62500;40040.25500160002;62500;62500;62500;62500;24605.702752000012
59312.9056832;28305.536496;62500;62500;62500;29427.47834560001;60857.607276799994;62500;62500;62500;18840.523955200013
62500;29577.6378496;62500;62500;62500;30932.269836800013;62500;62500;62500;62500;20089.122531200013
62500;28065.609654400003;62500;62500;62500;29955.11888640001;62500;62500;62500;62500;19547.537913600016
62500;31837.548073600006;62500;62500;62500;34059.422643200014;62500;62500;62500;62500;21969.607174400015
58697.816159999995;24324.243011200004;62500;62500;62500;28045.711216000014;62500;57735.6614592;62500;62500;15149.838848000016
56786.34484799999;19780.893516800003;62500;62500;62500;23253.765622400017;62500;57539.782169599996;62500;62500;12533.221638400017
62176.731641599996;24940.6500352;62500;62500;62500;32010.160358400015;62500;62500;62500;62500;15933.513753600017
60270.585676799994;22701.478064;62500;62500;62500;28671.815996800015;59825.4719072;62500;62500;62500;15115.965222400017
62500;33201.832444800006;62500;62500;62500;40749.576521600015;62500;62500;62500;62500;25334.693264000016
51154.8252992;22078.728534400005;62500;62500;62500;30480.652880000012;51658.2594976;48981.347219200004;62500;61455.2633696;13714.463206400014
55621.06577279999;35402.406588800004;62500;62500;62500;48185.322822400005;59807.798144;62500;62500;62500;22352.083241600016
49792.657439999995;36513.485100800004;62500;62500;62500;49683.2991968;53356.6560704;62500;62500;62500;15514.007504000017
44334.0110592;32371.649702400002;62500;62500;62500;43851.78282559999;43401.799375999995;62500;62500;62500;15722.576310400016
62500;53203.04953280001;62500;62500;62500;62500;62500;62500;62500;62500;21367.262921600017
62500;46035.77676160001;62500;62500;62500;62500;62500;62500;62500;62500;30893.578144000017
62500;36683.08612160001;62500;62500;62500;58650.1989408;62500;62500;62500;62500;39425.67423680003
62500;25193.747120000015;62500;62500;62500;39410.1105472;62237.1546752;61637.581619200006;62500;62500;23515.44746240003
62500;19301.309456000014;62500;62500;62500;24263.2001728;60110.882288;55487.00387200001;62500;62500;11152.543392000027
62500;17247.458342400016;62500;62500;62500;17516.382623999998;62152.4438144;58003.644537600005;62500;62500;10578.026841600027
62500;25101.226672000015;62500;62500;62500;25635.255744;62500;62500;62500;62500;18678.23043840003
62500;35872.25501120001;62500;62500;62500;44088.217987200005;62500;62500;62500;62500;18436.65747520003
53878.27310400001;18006.41070400001;62500;62500;62500;21447.57486400001;51897.0595008;59239.195283199995;62500;62500;7775.096326400029
59784.22032960001;19223.42335680001;62500;62500;62500;20639.17403200001;58392.057430400004;62500;62500;62500;11087.99068160003
62500;21590.303788800007;62500;62500;62500;21549.08624640001;62500;62500;62500;62500;9006.060656000029
61793.3151008;17438.01210880001;62500;62500;62500;17604.90960320001;62500;62500;62500;62500;11575.644300800028
62500;21440.86469120001;62500;62500;62500;19748.92407680001;62500;62500;62500;62500;16650.319628800025
62500;22928.93208000001;62500;62500;62500;25954.44816960001;62500;62500;62500;62500;16588.606825600025
60464.3516832;23959.144163200006;62500;62500;62500;27383.82547840001;62500;62500;62500;62500;13200.963897600026
62500;31555.71433280001;62500;62500;62500;34050.700243200015;62500;62500;62500;62500;20356.839401600024
62500;37766.331552;62500;62500;62500;37605.63048320002;62500;62500;62500;62500;25119.695724800025
