709041.662208;837063.484128;1057984.809984;615376.577376;759181.758624;992930.4699840001;824923.668096;1054796.097888;752089.751136;760584.445344;381545.67888
1450930.247424;837946.025856;2122500.72384;1260117.18144;1543498.833312;1035105.7815040002;1707255.0066240001;926696.2815360001;1616067.5912640002;1639571.800608;882513.9060480001
2559241.184256;1129497.161984;3666630.7817280004;2302585.670304;2725577.724672;1416027.8541440004;2965168.6511040004;1361271.7611520002;2841801.8097600006;3007011.517056;1843615.42992
5515316.485056;2328522.8243839997;7337245.514112;5193867.002687995;5800982.298048;3490580.3768960005;5948107.03296;3514905.473504;5842487.8151999945;6391656.70848;4399874.73072
13724827.76448;6018743.205184;16572469.275072;12307080.87647999;14104385.934048;8973584.77296;13615157.89872;8765812.780416;13928537.671199989;15146733.884544;10483940.123712
29283247.653408;11394415.705568;32627577.32784;25256115.81187199;28635193.161792003;15443869.91552;27461906.821728;15487743.049120001;28300694.268383987;30617686.78272;21985022.82528
45476977.607999995;12194755.28704;49004201.539584;39751374.65126399;41859618.467904;15777911.038176;41997413.788704;15974659.341248;43380575.00899198;46482684.994656;36979147.74096
59604073.756992;10454264.294016;63328930.586496;52224072.42009599;54106387.65936001;14032704.16512;54915502.5432;13972767.327872;56993919.75705598;59988604.670784;50454991.077696
71431446.544992;8653239.939136;74931473.854368;62694772.60003199;63946608.227424;11919954.994624;65445480.508608;11951509.660736;68463094.00031999;71694546.403392;61152368.287968
78869664.533664;5506375.229472;82302404.956416;69266746.02124798;69124423.108896;7599524.477856001;71886593.896416;7329645.215776;75460152.31631999;79288259.64883201;67942619.915616
81789473.41804801;2290409.7827520003;85390329.75033599;71791989.15974398;71752875.877152;3000744.490208001;74476053.915264;3117143.718464;78383444.10479999;82236105.21744001;70815545.852256
83114211.36009601;1199927.6371200003;86970523.177728;72963476.35891198;73125769.228992;1507354.767936001;75683152.576512;1216006.9805760002;79548392.18304;83553997.08614402;72344185.677504
