125209.5056352;156154.9437504;201667.08300480002;140462.060256;140739.6834144;172689.478416;139550.511744;167130.21971520002;147381.22445759998;142279.4642976;96395.6869344
165870.99502719997;181069.9095712;366358.46832;304714.460672;298784.8594816;208327.2567456;198898.9735584;252680.3702624;330995.20218559995;243152.10201600002;114711.4915008
144746.03616639995;162840.4098944;454774.6377248;417695.511056;406822.0714528;158347.8805184;197377.8010624;246341.12393280002;452929.3349791999;300622.6935968;98832.7416384
123815.80567999995;185605.59008;579807.6803647999;548578.3696384;510406.05819839996;131532.466128;229986.576048;288971.51442880003;586723.590688;371071.74636799993;76374.20499199998
87012.88729279995;164593.3376448;675276.4714303999;660312.9644160001;598665.6889344;137254.8250368;288716.23807039997;329586.29052160005;702106.9843872;442044.9187615999;75146.23867199999
132863.63186239995;209015.84897919997;809267.1560255999;791902.529376;704942.0413247999;146253.5777056;362928.38906879997;423318.22205760004;828812.8746239999;533318.2781663999;123098.34535999999
139446.08111359994;194106.74192319997;930434.0065951999;938008.2297248;793113.4064927999;150836.2102368;444021.99860159995;442757.2110016;962586.3763807999;625093.9625119999;87655.58123519999
157684.31730559992;168054.2666592;1054053.5909696;1100434.7000992;935526.7704991999;154833.4530976;503238.5346463999;508028.95464320004;1120855.473328;738753.7446367999;96969.25686079999
170241.12951039991;234822.8914848;1205516.2096288;1228920.3738848;1057551.3800095997;186516.2764096;570664.0612255998;563939.1340448001;1276026.1442048;845391.1449952;82284.50825599997
211098.65543679992;224929.5521472;1367722.8044224;1413883.1527743998;1246047.2412287998;193317.30735999998;651834.3572575998;677990.4068768001;1501056.7311648;992268.7423264;109696.59528959998
344764.1383135999;231222.56583039998;1568171.4204768;1688246.8483679998;1512249.2089183999;202316.39822079998;752373.4146879998;825289.6385920001;1799105.5172672;1149089.2122528;135368.25553599995
594500.8877727999;342933.7426464;1844862.756464;2124953.7181471996;1892114.7031007998;372577.0150976;997270.4667999997;1063461.4123328002;2217040.633072;1413470.22224;199239.10585279996
671533.1895904;303398.62790719996;1986818.762368;2425457.4938783995;2199117.4911328;356029.655968;1068340.6689343997;1121718.8365536002;2584843.9630496;1544738.1444832;217432.45542079996
783116.3654080001;326193.5279839999;2160920.1391328;2751484.6609951993;2489258.4664096003;386361.6776192;1137259.1272959998;1232556.9235552002;2966688.9295743997;1724417.1084128;254935.21314879996
1203519.195008;512762.2868895999;2602559.6419776;3407005.4377311994;3122686.0405568006;688427.3295424001;1569737.2077759998;1631663.2668480002;3632876.3975903997;2168854.1578079998;534761.2118592
1674121.7184735998;770823.4371392;3075512.1988864;4402128.048803199;3989665.4240192007;957615.2304032001;2108477.2532928;1985681.514416;4555878.8155776;2734602.5552415997;746069.5555264
1787470.5814143997;734293.3244672001;3371328.9452959998;5212356.176147199;4741477.537622401;968530.0639136002;2424567.04904;1831531.0238272003;5334582.1626528;3147173.0591744;743790.2831392
2531021.3696127995;1132104.5994304002;4043078.9366719997;6574860.1749567995;6029609.837315201;1422866.9508544002;3168823.2355744;2349728.15864;6600486.2861856;4041544.7740255995;1114610.0455647998
3139617.7286687996;1265479.3836992;5138464.2564864;8126243.8650368;7416846.800121601;1684060.8356416;3763455.4431648003;2642925.6899776002;8043122.20552;4774727.1619967995;1407346.0650175996
3686561.947136;1451441.5029984;6425566.0852576;9827254.400499199;8933208.5003264;1879612.7823744;4422843.2137408005;2703026.4252736;9672686.56;5691653.689955199;1649252.7929279997
4040338.1155808;1488899.4040064;7591600.0459712;11452296.788006399;10340857.7668992;1805739.8388544;4849552.941280001;2451038.7871455997;11235875.991632;6434174.690700799;1593560.1207071997
5406400.1491072;2157795.5488352003;9787767.9584384;14021412.127935998;12676676.5532864;2630189.6011776;6244576.384320001;3247774.8885536;13560798.0510528;7981256.123167999;2511788.549910399
6690691.131260799;2580875.4089280004;12307142.4777984;17107632.664620798;15404925.5556832;3587738.4584928;7718835.930262402;3624149.8252064;16507509.7509472;9818138.492966399;3312854.5758751994
6966578.5878655985;2506098.4175456003;14098319.3107584;19725813.602435198;18013683.5991328;3080131.2570944;8091741.272448001;3247098.9850592003;19007905.0220832;11040750.444028798;3554123.4958047997
7672599.089763198;2417121.83856;16069816.2422112;22408913.566569597;20470568.145039998;2984374.7229919997;8867807.085955203;3297686.4697536;21566621.7656;12431765.723644799;4007178.4441472
8769162.028140798;2708124.1971520004;18427080.2145184;24764956.995558396;23194980.526918396;3183707.8462975994;10061296.749264002;3607735.2242112;24527331.2053824;14142502.136847999;4707454.0750752
10342802.658220798;2902624.276649601;21440130.8116896;27363141.546883196;26499948.426067196;4007166.9932351992;11758841.868723202;4522166.9518176;28114195.9174496;16376413.3037472;5830488.944032
9166693.658710398;1239294.2739488008;21697944.0925856;28206965.946678396;27516489.086156797;1675253.3879071993;10611323.069420803;1991304.4608672;29334877.6371552;16186899.070073599;4112672.3832064
10533269.326083198;2319811.1970048007;24333178.1296704;30346348.989916798;30096716.002595197;2961079.638470399;12260224.093104003;3173731.8654016;31994169.514784;18086038.6627584;5245732.8126528
11724975.230975999;2647433.9990496;26798028.020812802;32864244.773484796;33076781.076726396;3454015.063302399;13481006.753395204;3737302.8856095998;35009084.4909184;19896274.390598398;6136323.7215008
12488105.503155198;2496300.8179648;29052675.913772803;35157184.5394272;35862003.7288128;3383415.9689727994;14273840.741120003;3789935.8311103997;37870596.8312096;21552886.885676797;6477334.5261152
13507924.431123197;2968201.9862944;31983251.490528002;38147317.5075712;39208629.037024;4117906.078236799;15715155.098115204;4473199.9968736;41342935.1936928;23923498.041561596;7310277.989894399
12497256.515641596;1539108.8440864;32647432.032182403;39269260.7247328;40576219.8427136;2083402.9951679993;14614128.347264003;2244667.2936896;42772752.93344641;23969564.953891195;5803471.271984
12186930.160291197;1192208.507744;33580639.5045728;40101823.004272;41733367.4476576;1664857.0638975992;14376333.149756802;1646005.8694144003;44076282.80280001;24343188.774185594;5379262.9783296
12789568.922940796;1572111.1080736;35261763.2074016;41376349.7041984;43485698.5508224;1948679.2971071992;14563913.653830402;2131457.2786048003;45793895.89721281;25309664.875049595;5830809.3377696
12652137.349023996;1155933.1706624;36220489.4186464;42286678.366163194;44464483.0551264;1450158.2721215992;14365204.415651202;1617302.9244992004;47027494.77803521;25667716.612163194;5464345.095187199
13525549.559135996;1588285.3354688;38040417.5290016;43993311.451276794;46183879.9732384;1914525.5351391993;15054067.069555202;2289289.3939328007;48927540.35512641;26710087.37465599;5989971.2184064
14787905.499695996;2160361.8222367996;40574762.5881888;46435824.139276795;48647103.5019968;2689663.5139999995;16371472.894012801;3188738.9335968005;51519470.87170881;28418520.39761279;6713349.7371168
14650462.827827197;1510765.4435071996;41811349.73591679;47890230.5500896;50098541.4324448;1759156.7703807997;16355148.4770784;2268252.7778336005;53143410.26982081;28944114.177635193;6079482.995638399
14380442.647977596;941260.2628159996;42590850.2852416;48670271.6630528;50905574.795184;1238311.1393983995;16341036.267632;1446982.9210240005;54126707.21128001;29279116.60891839;5332551.674521599
14837032.845167996;1147942.5799263995;43945308.8077888;49805829.9442272;52192874.1669856;1517200.6576159995;16982241.2675488;1763325.6788864005;55524995.68733121;30178394.33304639;5459086.156700799
14619217.928649597;801837.2426911995;44630102.7138208;50450767.27058239;52900897.8335968;998021.9283519994;16945761.124502398;1237497.6140160006;56306477.62951361;30359469.44587839;4961177.251151999
14653983.724175997;729056.2799167995;45513179.5380992;51133421.00421439;53552975.3677664;930881.6918559994;17178876.1061312;1109436.5916672007;57143647.758544005;30773956.31546239;4851650.448515199
14637263.700841596;705335.1575711995;46312050.6659072;51754678.64507199;54224619.289664;900364.5773151994;17336357.672576;1016061.8780768007;57903407.8272192;31179200.119491193;4702997.513433599
14552052.343894396;563177.8723743994;46964397.007555194;52281068.54179839;54782248.3617824;737977.0840543994;17400585.016032;783749.1138336007;58525446.3685728;31418828.411865592;4552018.746646399
14423693.796611195;399355.8139743994;47344275.92865279;52582251.34017279;55129869.929769605;531626.7388191994;17362138.9144384;513523.45712320064;58898385.7960032;31595179.444863994;4364372.700550399
14259468.315964796;230847.3333439994;47440186.90153919;52710226.65399039;55298294.4085056;239165.99551359937;17207807.7555168;271641.8163264006;59063801.793907195;31628674.390051194;4176349.6150463987
14236951.071430396;196850.1250783994;47587268.310972795;52831235.16333759;55413300.7523872;196829.83973439937;17228981.2829472;248535.7682816006;59198089.40454719;31704526.818511993;4112431.9949407987
14228981.073702397;181228.0664735994;47733154.7632928;52927152.32668479;55496641.14713921;206928.1771263994;17275963.911721602;214389.2396224006;59335986.185865596;31765413.234569594;4050433.6361215985
14325508.721644796;258806.8650847994;48030336.851068795;53105221.212467186;55711372.609872006;363316.85058879945;17401353.442534402;340327.8137152006;59571586.655318394;31952794.508313596;4043053.4486975987
14325798.100470396;177405.39911359941;48285518.015696;53276465.913462386;55907616.35719681;231010.82562559948;17381940.777200002;288961.66695680056;59782500.36854399;32071046.611155197;3931496.0667071985
14284119.604787195;158136.70274239942;48377669.305091195;53369561.77135999;55980606.35866561;166930.8508319995;17382491.542112004;180223.16497920055;59899563.34305279;32107567.417983998;3812885.4696959984
