145272.8704896;166530.7988064;185681.2652352;115223.27604479999;126308.6371008;165623.75605439997;133548.4868256;189390.0530592;124063.03828800001;127554.56864639999;87531.8669568
156635.2921792;207409.29512000002;358039.5313152;217242.8698816;261935.94134720002;230576.27240639998;204990.4543712;287898.39153280004;272172.679552;215494.2392736;72004.41765120001
239858.09882880002;223876.15001920002;586148.1271200001;364928.45372800005;454562.1278432;276241.442848;271990.93379519996;469251.65170560003;459201.1075936;336564.0870624;107507.2698112
205537.9272736;184997.40036480004;714483.3759136001;474396.4334432;600913.8506783999;253977.7967328;264815.0043775999;534220.0091712;604690.9880096;409819.5885184;90170.9680736
285490.5333568;236068.95189760003;937595.3848128001;619154.9483200001;798576.7490144;285965.16474559996;326077.80725439993;702957.0078783999;795101.5729024;569995.517936;118442.16632
262246.5472704;166686.5115008;1064780.3947072001;739949.4085952002;933176.0741087999;222994.17044159997;316929.4919295999;704330.6738016;954173.5022144001;644414.8836768;99093.37253760001
298283.21515199996;201728.422;1207454.0713952002;859104.4104480001;1076223.0540351998;251345.50851199994;366169.7807999999;754237.3463456;1125650.4856896;757887.2112256;135888.84182720003
224922.94688319997;169392.2459552;1298033.1349216;931323.2638016001;1180792.3327968;192977.65550719993;341613.21009279985;700735.8679776;1243187.932016;808745.6065535999;96728.74695040003
292308.25658239995;218213.1758048;1508012.8280832001;1070138.0724608;1372160.133696;251357.34903679995;424397.7857311999;817220.5412192;1451954.0616896;971333.8230847999;125715.92743360004
308250.5046304;195582.9677856;1689029.5678272;1181980.8806752;1528635.9305792;281908.8644063999;479491.0925055999;857042.9552736001;1648214.9591392002;1106311.622816;110561.72441280005
333516.982192;218601.1719776;1868785.046896;1336546.7549728;1709247.6783584;243906.0566367999;503687.5187711999;925319.673056;1834868.5131616003;1246211.9049983998;173885.45731200004
408053.663392;273378.5107328;2096588.7928544;1546078.8148128;1914416.223424;322936.86376959994;630537.4861311999;971400.4138208;2068270.1541216003;1440954.2698431998;264380.8852768
558217.6470912;388703.8042432;2492182.0059615998;1900240.3224351997;2276003.47232;549304.2413215999;833568.1411807998;1135371.9426848;2441043.5483296;1796353.2484895997;413056.54090240004
716029.2120192;424011.10973439994;2954881.804112;2321741.2410592;2733424.1471328;656617.4562592;974645.3731839998;1199671.3089983999;2933162.7390304003;2170189.9761759997;496224.57845120004
935797.4443327999;522953.77343679994;3487322.5600864;2882424.3386335997;3311254.1097376;824423.1404352;1177608.4172575998;1358989.8289151997;3475708.5214592004;2650698.8810015996;579462.5257312001
1084331.5749599999;595855.8519327999;4045375.6851359997;3456701.8317823997;3952758.2370016;877496.0246848;1323378.1256608;1438682.024144;4100604.3701888006;3157590.4638655996;628363.6985760002
1284047.1319008;638513.4390848;4685885.3750848;4149615.4540927997;4696543.534768;900562.0259552;1520336.0161632001;1514491.9476031999;4799143.6298144;3720055.7729664;694239.7192096002
1737212.8684608;896185.8831744001;5690176.0958464;5078703.0302912;5730970.2064416;1292318.6737600002;2060615.9252000002;1827140.311568;5837601.213747201;4563178.6923936;890040.4340064002
1999949.4477312;958650.9999712001;6619642.1132768;6042257.142035199;6785263.8362912;1409202.7603776;2313056.4529344;1999388.8226751997;6873491.114656;5339594.2256416;896952.3864960001
3020603.6141312;1495573.3767456003;8300171.9400864;7613634.1099072;8671099.1777408;2220561.0823232;3135762.803456;2868342.7745471997;8629187.3254624;6916491.842796801;1466944.8954336
3682797.3934624;1494695.2780832003;9662818.838675201;9026374.097824;10352633.424022399;2212225.900752;3385955.0328512;3012398.6530047995;10313918.305043202;8218423.6556256;1539298.5680832
5566582.4036352;2315990.9892256;12328805.8205472;11404835.736617599;13296666.9437376;3546153.6113664;4805663.723968;4251748.1049983995;13205914.710588802;10729193.23112;2458385.2674336005
5102186.8462304;1326796.9861856;13066823.1169504;12394961.8722848;14581512.9364896;2016445.6812576002;3953931.6526944004;2785009.8773087994;14496424.894841602;11263585.7891712;1284435.0138752006
7843779.381500799;3124046.6019551996;16406750.3737792;15493184.7076832;18151630.3555968;3999334.3162752;6166311.4973376;5077630.2878624;18027537.512432;14624807.959046401;2979815.1528576007
8851985.1792576;2912187.0003647995;18665920.0743488;18195452.7619136;21056970.0631104;3962991.4279392003;6900387.121712;4905602.161481599;21069080.53232;16658668.613180801;2878914.5234912005
11114797.114227198;3918738.229228799;21985201.5497792;22162646.0480576;25260494.463084802;5093462.887638401;8628519.598182399;6059875.273859199;25086072.6464576;19932092.889788803;4444814.9972928
11592132.152732797;3395797.6424223995;24158366.1988992;25202560.934832;27967897.909328002;4397018.994265601;9072794.7181632;4493950.198022399;28363162.6117248;21887140.3210784;4139284.262432
13400075.548268797;3928557.5809535994;27265491.062803198;29008651.7813568;31378146.045472004;4969841.891664001;10625911.620848;4974195.830134399;32347871.925936002;24813269.1595904;5613149.6765632
12937405.847369596;2317090.492435199;28263156.0390048;31028843.5817504;32730622.747942403;3013625.9301632014;9957234.3793632;3074009.783068799;34547404.954208;25784428.1322848;4956157.1769344
12979876.604889596;1624094.2877311993;29166174.938028798;32572419.252214402;33677895.1673856;2208648.0377440015;9735098.786025599;2314583.339433599;36201619.6122752;26617760.293360002;4866965.338108799
14379124.524876796;2232304.0474911993;31183052.668415997;34878489.8349504;35634892.3725568;3056811.2198240017;10954816.6707328;2969625.579107199;38649224.6455008;28586068.895676803;6027438.6462496
15537356.119231995;2424348.034182399;33233263.171251196;37273735.117692806;37823438.7022176;3290309.1459936015;11847129.9691264;3263743.647353599;41339889.82016;30296937.436739203;7115543.973708799
17167387.257820796;3060942.213756799;35873866.7692192;40316394.259619206;40875168.5235392;4128497.5584096014;13159129.158;4054643.7773247985;44811411.5782432;32634743.826864004;8602065.334937599
17346272.144870397;2317801.270969599;37311133.5614528;42551262.13809281;43277111.0798304;2952657.413382401;13035212.016848;3105519.9738655984;47233323.502672;33952786.517872006;8787442.8753696
18344267.372505598;2330639.045564799;39158081.4625312;44815379.17550081;45740427.8212608;3266315.859856001;13728070.174048;3153342.9615135984;49827134.2369216;35633597.439897604;9343853.345017599
20248350.7992352;3066224.220198399;41838078.5856064;48081428.02663041;48984309.655888006;4228963.431148801;15163376.8855296;4227350.346787198;53398854.1548992;38390347.0619904;10933109.6134784
19749170.568566397;1782281.1887039987;42452946.210448004;49763554.209590405;50192204.036793604;2519907.8923040014;14421039.1562816;2598779.9717055983;55230321.9930912;39172989.4812192;10131243.4173024
19125063.7076896;911641.7046943987;42526450.348444805;50373043.19325761;50538659.5139328;1232141.6568704015;13617102.7927456;1238848.4232735983;56002966.783513606;39247385.0351456;9349099.4278624
20629665.8226784;1845585.9886847986;44360432.33206081;52265270.790800005;52117929.7886496;2381518.2949696016;14864827.015856;2484397.8591135982;58081799.6651744;41128983.49792641;10696268.9914656
21346817.6432288;1806754.6255455986;45711830.52445441;54086868.29836161;53224280.784550406;2644319.8757824018;15377261.973423999;2369741.931551998;60023762.397296004;42693948.990492806;11164301.1810496
21103126.788672;1095642.9447615985;46130211.51374081;55002254.382857606;54066976.813443206;1657050.109110402;14762233.275750399;1506499.6649695982;61077569.6281184;43159716.2527104;10887269.715744
21272129.449536;1028177.8899743984;46758350.31783361;55834576.735011205;54729818.55942081;1324429.368841602;14662275.125292799;1300710.604060798;62064059.4357056;43748254.120256;11145130.9046432
21309691.6192096;767502.5751999984;47199998.40927361;56623617.2963872;55097086.67433281;952251.667164802;14593060.662873598;1060068.999897598;62801141.6145664;44156656.342390396;11108229.6514336
21340828.8741888;566292.9619583985;47540209.17530561;57148601.20830081;55384348.670787215;753591.489040002;14572639.791161599;775177.8840639981;63375437.0737664;44462936.635152;11095637.4036704
21540133.7758016;617561.9604607985;48018493.55027841;57697937.91260481;55971869.689238414;850812.259206402;14733070.261305599;825993.987420798;64020887.7007808;44915368.3297216;11260152.120531201
21794300.795744;643157.0671423984;48515925.11333441;58267746.59215681;56656689.316489615;782836.089788802;14862372.3748832;888739.813705598;64721703.1377024;45385679.6670912;11517130.9039584
21601154.1960352;362327.38941119844;48619498.73851521;58460973.89506881;56920435.483404815;476392.33885440195;14718589.111606399;490381.76838079805;65047209.4328864;45447206.6044;11284324.5306624
21524380.073103998;288937.54806399846;48751197.44303681;58625299.29939201;57140812.64945602;328098.55817600194;14648320.6302752;329594.65239359805;65267581.9465376;45519192.287856005;11280279.2341728
21682048.597545598;337250.45980159845;49040017.68737281;58958543.09722241;57493469.14472001;409836.6801472019;14759472.6702688;384675.28903679806;65568817.009792;45774799.9994624;11452295.4068544
21808597.907747198;331469.8984319985;49342617.64599041;59237579.88617921;57837321.230313614;469863.9490464019;14818310.2087104;321843.415766398;65820448.8368512;45994828.381305605;11596308.9069792
21696640.7458944;194555.3523359985;49407824.93244481;59347830.90620801;57960530.50584001;248987.0654720019;14663093.30192;169919.28481919802;65924833.8913984;46011010.42614081;11673700.442496
21681685.582793597;207776.5969503985;49556791.62439361;59449901.347619206;58089123.40373761;219347.89889280192;14663149.699744001;157722.522409598;66053170.8191872;46068006.650544;11841036.550255999
