19839.8020032;21199.513968;25481.3546304;18029.1401856;17623.8520416;20260.2523968;20076.745622399998;25295.8504608;19033.5244608;20597.1862176;13642.153142399999
29858.9968384;29916.3065184;48907.727024;32165.229929600002;32804.7238688;30051.062643200003;31013.0000832;44686.6098816;37038.2031488;37148.513964800004;14974.089638399999
41898.99344;39823.221321599995;62500;49189.71290880001;52441.200211200005;43056.0278464;36962.0945792;62500;57450.513936;50588.700393600004;13712.565087999998
29570.619494399998;19272.8648832;62500;54154.16466560001;59498.5654784;19572.9323008;18050.7282336;59844.8335168;62500;41358.283219200006;8737.617564799997
32133.7688832;20212.4187264;62500;62500;62500;19658.462991999997;21348.9351808;62500;62500;47041.39672640001;11401.078563199995
31265.314521599998;18137.6249536;62500;62500;62500;16333.091740799995;21947.7217248;62500;62500;49667.44469120001;10633.986883199996
34906.8704896;17968.8988928;62500;62500;62500;16691.855967999996;25618.5867392;62500;62500;54853.81899200001;14430.246956799996
30403.809555199994;13072.829603199998;62500;62500;62500;12275.894335999994;25338.291737599997;55434.8246688;62500;55721.94968320001;7882.303145599995
31680.54282879999;23966.546339200002;62500;62500;62500;20430.233721599994;33850.2254272;62500;62500;62500;9300.519567999996
29689.98725759999;32007.603974400005;62500;62500;62500;25404.17206719999;42673.408255999995;62500;62500;62500;12455.376911999994
40132.64266879999;51793.7942304;62500;62500;62500;45168.902959999985;62500;62500;62500;62500;12314.723567999994
20941.941055999992;30145.3091616;62500;62500;62500;36011.492028799985;59522.430611200005;62500;62500;62500;8737.056470399993
22005.36635199999;33578.210070400004;62500;62500;62500;50164.32373119999;62500;62500;62500;62500;8889.306003199994
20728.62217919999;25365.495292800002;62500;62500;62500;41121.472492799985;49946.810035200004;62500;62500;58712.660496;12425.207823999994
18868.78797439999;18463.1872192;62500;62500;62500;27900.431651199986;39406.569171200004;62500;62500;59432.8126912;13104.617663999994
12833.852319999993;12532.4317216;62500;62500;62500;18188.506223999986;33095.172348800006;62500;62500;62064.7784864;8540.656540799993
35407.989824;37180.610249599995;62500;62500;62500;45504.16609279998;58016.6204768;62500;62500;62500;19414.86122559999
62436.2319744;55389.5438656;62500;62500;62500;62500;62500;62500;62500;62500;20407.29450239999
62500;44569.2203456;62500;62500;62500;55275.8971392;62500;62500;62500;62500;19734.57435199999
59454.543552;27962.3018144;62500;62500;62500;32772.142848;52586.0176832;62500;62500;62500;15844.80045439999
62500;27778.6501056;62500;62500;62500;31795.430768000002;61863.013264;62500;62500;62500;10460.399897599991
57127.0991072;25132.1844544;62500;62500;62500;35216.85264;62500;62500;62500;62500;10638.65904319999
50476.958217600004;18180.901014400002;62500;62500;62500;22815.638742399995;56818.760009599995;62500;62500;62500;9937.07956479999
49654.86684160001;18954.1178272;62500;62500;62500;26570.886227199997;62500;62500;62500;62500;11453.898611199991
55108.994227200004;28147.0992192;62500;62500;62500;44134.869046399996;62500;62500;62500;62500;13305.490092799992
57900.675232;33026.11470400001;62500;62500;62500;46156.739824;57462.536454400004;62500;62500;62500;17198.76104639999
50759.174256;25262.10566080001;62500;62500;62500;32080.495904;44491.482617600006;62500;62500;62500;9887.926966399993
59769.9286176;36294.700105600015;62500;62500;62500;47001.8843072;54302.406508800006;62500;62500;62500;17748.788159999996
54931.653456;28997.69710080002;62500;62500;62500;39767.8688096;50730.793968000005;62500;62500;62500;12431.206681599997
55705.26312;25252.383523200016;62500;62500;62500;26743.756953599994;52038.2691904;62500;62500;62500;11900.198102399996
62500;31562.290249600013;62500;62500;62500;32922.0448512;62500;62500;62500;62500;18373.38224
57194.2440384;23719.969596800016;62500;62500;62500;25855.787011200002;59520.560124799995;62500;62500;62500;12609.423139199998
62500;34741.22547840002;62500;62500;62500;44011.8559296;62500;62500;62500;62500;18865.071487999998
62500;46638.91197120002;62500;62500;62500;56979.2400416;62500;62500;62500;62500;24055.120367999996
62500;45156.05146560001;62500;62500;62500;59684.75232000001;62500;62500;62500;62500;20207.786492799998
51884.671584;20759.11435520001;62500;62500;62500;31239.405488000004;46750.692928000004;62081.6475456;62500;62500;10647.729216
50619.349936;15412.95174080001;62500;62500;62500;23393.6870272;44885.64224000001;62500;62500;62500;8325.498223999999
62500;28415.30755200001;62500;62500;62500;37423.4969536;62500;62500;62500;62500;15617.067964799999
62500;29476.497923200008;62500;62500;62500;38344.5342496;62500;62500;62500;62500;20779.5260064
58218.5775456;21354.752819200006;62500;62500;62500;27334.505065600002;55357.8530528;52928.042361600004;62500;62500;15625.2613248
56413.3834208;21782.697459200004;62500;62500;62500;27389.818624000003;59869.70491839999;45980.417472;62500;62500;13517.2075424
56979.5598528;29485.111155200004;62500;62500;62500;37868.5581888;62500;49615.7468544;62500;62500;14580.892537599999
62500;33324.4002624;62500;62500;62500;41979.8268928;62500;59361.0245088;62500;62500;20155.397151999998
62500;36073.960159999995;62500;62500;62500;48379.068223999995;62500;62500;62500;62500;20551.512848
62500;34025.9199456;62500;62500;62500;43587.157641599995;62500;62500;62500;62500;24202.8970016
62500;30989.347705599997;62500;62500;62500;38609.792704;61632.319804800005;59354.9036928;62500;62500;22718.5132576
52655.9822304;26386.739551999995;62500;62500;62500;32055.777523199995;59174.097072000004;51081.7423648;62500;62500;19491.2464704
40321.508416;18351.428927999994;62500;62500;62500;21671.738511999996;56041.5530976;40835.62111679999;62500;62500;12050.331625600002
39067.1723008;22577.221654399993;62500;62500;62500;25061.8963456;62500;43520.654633599996;62500;62500;16719.0616544
30028.772908799998;18694.682723199992;62500;62500;62500;13391.929126399997;62500;34090.122118399995;62500;62500;12589.671731200002
26896.6951616;20893.313753599992;62500;62500;62500;21153.995087999996;62500;30828.117497599997;62500;62500;11968.258620800001
28503.874476800003;29283.428204799995;62500;62500;62500;34961.34762559999;62500;41405.6178144;62500;62500;14468.1025888
18996.7902304;24820.500335999994;62500;62500;62500;30244.82684159999;57039.8949376;39693.3400224;62500;62500;13812.3857632
13086.651420800003;21264.093724799994;62500;62500;62500;26907.39878399999;54919.89804480001;35223.9207072;62500;62500;11181.7530624
16826.6193472;27103.627548799996;62500;62500;62500;30684.69223999999;59037.1275648;41522.6711104;62500;62500;18108.2155168
18377.004118400004;31257.145868799995;62500;62500;62500;35634.04325439999;62500;45849.476352;62500;62500;14600.366431999997
31690.893571200006;41466.1252768;62500;62500;62500;47962.7715424;62500;62500;62500;62500;24958.560972799998
27768.9182336;31080.1939104;62500;62500;62500;41921.958812799996;57110.188396800004;58792.6781216;62500;62500;17901.2920576
29464.8903584;23872.103008000002;62500;62500;62500;29672.284547199997;46280.103161600004;57912.01624320001;62500;62500;16837.1943904
29933.8050912;26246.124300800002;62500;62500;62500;28777.068905599997;51441.5719648;62500;62500;62500;15449.32432
27956.363094399996;26012.0243168;62500;62500;62500;24722.213136;58388.35284800001;62500;62500;62500;18125.2721504
40237.281305599994;37796.253648;62500;62500;62500;37558.9015808;62500;62500;62500;62500;15045.9913728
54226.81355839999;36084.875631999996;62500;62500;62500;40742.436697599995;62500;62500;62500;62500;17398.1470016
54416.74251839999;25810.741580799997;62500;62500;62500;32578.986044799993;62051.788790399994;62500;62500;62500;9894.0858048
53315.60722239999;24659.624038399994;62500;62500;62500;35562.10767679999;62500;62500;62500;62500;14800.751260799998
60154.62676159998;29125.876771199997;62500;62500;62500;40173.0238528;62500;62500;62500;62500;14865.0569184
62500;31938.038739199994;62500;62500;62500;50141.92188159999;62500;62500;62500;62500;16066.3963424
57142.7137536;21092.32745599999;62500;62500;62500;39642.01976959999;50572.5143296;62500;62500;62500;11491.2747072
58399.487856;20653.529625599993;62500;62500;62500;33801.46595839999;43945.117232000004;62500;62500;62500;14900.1058016
62500;42302.767785599994;62500;62500;62500;50009.05215359999;62500;62500;62500;62500;28544.053721599998
62500;50728.977660799996;62500;62500;62500;59599.261574399985;62500;62500;62500;62500;30979.6585952
39707.0016512;19250.538057599995;62500;62500;62500;21039.64159039998;37702.1608256;37328.9315584;62500;60162.0540352;13879.493491199997
34044.6476416;16139.395279999993;62500;62500;62500;18666.96661759998;41942.8772352;39806.9238336;62500;62500;11539.949615999996
46981.901568;31483.132390399995;62500;62500;62500;39519.11260479998;62500;59608.751132800004;62500;62500;26148.4418816
52720.3529024;45362.729539199994;62500;62500;62500;45141.00000959998;62500;62500;62500;62500;41407.58851839999
43147.7859392;28186.254623999997;62500;62500;62500;28805.61494399998;59695.156441600004;35280.0883008;62500;62500;25431.296639999997
45124.3896896;27450.171632;62500;62500;62500;31134.54447039998;62500;31058.854361600002;62500;62500;24499.286879999996
57904.4452192;42267.8411712;62500;62500;62500;50561.718713599985;62500;42061.7548896;62500;62500;41193.351683199995
62500;50804.5839136;62500;62500;62500;61116.193491199985;62500;49164.0040704;62500;62500;59690.154806399994
52761.4725248;32886.2745632;62500;62500;62500;38849.61153599999;46481.888755199994;32139.936700799997;62500;62500;56943.4820512
45565.958265600006;26691.912857599997;62500;62500;62500;34206.76306239999;50072.3749824;30005.440483199996;62500;62500;58926.09291200001
62500;55031.754828799996;62500;62500;62500;62500;62500;62500;62500;62500;62500
57752.198038400005;39582.60628479999;62500;62500;62500;43731.3047904;61297.15843519999;45794.390342399995;62500;62500;59108.525647999995
46376.529411200005;26113.310127999994;62500;62500;62500;29079.624623999993;59539.854470399994;29824.355107199994;62500;62500;51320.968224
62500;59706.99494399999;62500;62500;62500;62500;62500;62500;62500;62500;62500
62500;62500;62500;62500;62500;62500;62500;62500;62500;62500;62500
62500;62500;62500;62500;62500;62500;62500;62500;62500;62500;62500
56931.397065599995;42094.4488416;62500;62500;62500;62500;62500;62500;62500;62500;62500
49428.9781216;31995.721465600003;62500;62500;62500;60966.068688;53918.245088;46975.118313599996;62500;62500;51254.5975424
44102.62858879999;33571.900176;62500;62500;62500;62500;51148.871728000006;49458.591961599996;62500;62500;55315.577855999996
47041.79107839999;46662.6424352;62500;62500;62500;62500;55591.66431040001;62500;62500;62500;62500
61795.123343999985;54088.3707104;62500;62500;62500;62500;62500;62500;62500;62500;62500
62500;62500;62500;62500;62500;62500;62500;62500;62500;62500;62500
62500;57787.3095264;62500;62500;62500;62500;62500;62500;62500;62500;62500
62500;53356.287104;62500;62500;62500;62500;62500;62500;62500;62500;62500
62500;57919.0805632;62500;62500;62500;62500;62500;62500;62500;62500;62500
62500;59968.148431999995;62500;62500;62500;62500;62500;62500;62500;62500;62500
62500;62500;62500;62500;62500;62500;62500;62500;62500;62500;62500
62500;62500;62500;62500;62500;62500;62500;62500;62500;62500;62500
62500;62500;62500;62500;62500;62500;62500;62500;62500;62500;62500
62500;62500;62500;62500;62500;62500;62500;62500;62500;62500;62500
62500;62500;62500;62500;62500;62500;62500;62500;62500;62500;62500
62500;57213.954374400004;62500;62500;62500;62500;62500;62500;62500;62500;62500
62500;62500;62500;62500;62500;62500;62500;62500;62500;62500;62500
62500;62500;62500;62500;62500;62500;62500;62500;62500;62500;62500
62500;62500;62500;62500;62500;62500;62500;62500;62500;62500;62500
62500;62500;62500;62500;62500;62500;62500;62500;62500;62500;62500
62500;62500;62500;62500;62500;62500;62500;62500;62500;62500;62500
62500;62500;62500;62500;62500;62500;62500;62500;62500;62500;62500
62500;62500;62500;62500;62500;62500;62500;62500;62500;62500;62500
62500;62500;62500;62500;62500;62500;62500;62500;62500;62500;62500
62500;62500;62500;62500;62500;62500;62500;62500;62500;62500;62500
62500;58542.923491199996;62500;62500;62500;62500;62500;62500;62500;62500;62500
62500;62500;62500;62500;62500;62500;62500;62500;62500;62500;62500
62500;62500;62500;62500;62500;62500;62500;62500;62500;62500;62500
62500;62500;62500;62500;62500;62500;62500;62500;62500;62500;62500
62500;62500;62500;62500;62500;62500;62500;62500;62500;62500;62500
62500;62500;62500;62500;62500;62500;62500;62500;62500;62500;62500
62500;62500;62500;62500;62500;62500;62500;62500;62500;62500;62500
62500;62500;62500;62500;62500;62500;62500;62500;62500;62500;62500
62500;62500;62500;62500;62500;62500;62500;62500;62500;62500;62500
62500;62500;62500;62500;62500;62500;62500;62500;62500;62500;62500
62500;62500;62500;62500;62500;62500;62500;62500;62500;62500;62500
62500;62500;62500;62500;62500;62500;62500;62500;62500;62500;62500
62500;62500;62500;62500;62500;62500;62500;62500;62500;62500;62500
62500;62500;62500;62500;62500;62500;62500;62500;62500;62500;62500
62500;62500;62500;62500;62500;62500;62500;62500;62500;62500;62500
62500;62500;62500;62500;62500;62500;62500;62500;62500;62500;62500
62500;62500;62500;62500;62500;62500;62500;62500;62500;62500;62500
62500;62500;62500;62500;62500;62500;62500;62500;62500;62500;62500
62500;62500;62500;62500;62500;62500;62500;62500;62500;62500;62500
62500;62500;62500;62500;62500;62500;62500;62500;62500;62500;62500
62500;62500;62500;62500;62500;62500;62500;62500;62500;62500;62500
62500;62500;62500;62500;62500;62500;62500;62500;62500;62500;62500
62500;62500;62500;62500;62500;62500;62500;62500;62500;62500;62500
62500;62500;62500;62500;62500;62500;62500;62500;62500;62500;62500
62500;62500;62500;62500;62500;62500;62500;62500;62500;62500;62500
62500;62500;62500;62500;62500;62500;62500;62500;62500;62500;62500
62500;62500;62500;62500;62500;62500;62500;62500;62500;62500;62500
62500;62500;62500;62500;62500;62500;62500;62500;62500;62500;62500
62500;62500;62500;62500;62500;62500;62500;62500;62500;62500;62500
62500;62500;62500;62500;62500;62500;62500;62500;62500;62500;62500
62500;62500;62500;62500;62500;62500;62500;62500;62500;62500;62500
62500;62500;62500;62500;62500;62500;62500;62500;62500;62500;62500
62500;62500;62500;62500;62500;62500;62500;62500;62500;62500;62500
62500;62500;62500;62500;62500;62500;62500;62500;62500;62500;62500
62500;62500;62500;62500;62500;62500;62500;62500;62500;62500;62500
62500;62500;62500;62500;62500;62500;62500;62500;62500;62500;62500
62500;62500;62500;62500;62500;62500;62500;62500;62500;62500;62500
62500;62500;62500;62500;62500;62500;62500;62500;62500;62500;62500
62500;62500;62500;62500;62500;62500;62500;62500;62500;62500;62500
62500;62500;62500;62500;62500;62500;62500;62500;62500;62500;62500
62500;62500;62500;62500;62500;62500;62500;62500;62500;62500;62500
62500;62500;62500;62500;62500;62500;62500;62500;62500;62500;62500
62500;62500;62500;62500;62500;62500;62500;62500;62500;62500;62500
62500;62500;62500;62500;62500;62500;62500;62500;62500;62500;62500
62500;62500;62500;62500;62500;62500;62500;62500;62500;62500;62500
62500;62500;62500;62500;62500;62500;62500;62500;62500;62500;62500
62500;62500;62500;62500;62500;62500;62500;62500;62500;62500;62500
62500;62500;62500;62500;62500;62500;62500;62500;62500;62500;62500
62500;62500;62500;62500;62500;62500;62500;62500;62500;62500;62500
62500;62500;62500;62500;62500;62500;62500;62500;62500;62500;62500
62500;62500;62500;62500;62500;62500;62500;62500;62500;62500;62500
62500;62500;62500;62500;62500;62500;62500;62500;62500;62500;62500
62500;62500;62500;62500;62500;62500;62500;62500;62500;62500;62500
62500;62500;62500;62500;62500;62500;62500;62500;62500;62500;62500
62500;62500;62500;62500;62500;62500;62500;62500;62500;62500;62500
62500;62500;62500;62500;62500;62500;62500;62500;62500;62500;62500
62500;62500;62500;62500;62500;62500;62500;62500;62500;62500;62500
62500;62500;62500;62500;62500;62500;62500;62500;62500;62500;62500
62500;62500;62500;62500;62500;62500;62500;62500;62500;62500;62500
62500;62500;62500;62500;62500;62500;62500;62500;62500;62500;62500
62500;62500;62500;62500;62500;62500;62500;62500;62500;62500;62500
62500;62500;62500;62500;62500;62500;62500;62500;62500;62500;62500
62500;62500;62500;62500;62500;62500;62500;62500;62500;62500;62500
62500;62500;62500;62500;62500;62500;62500;62500;62500;62500;62500
62500;62500;62500;62500;62500;62500;62500;62500;62500;62500;62500
62500;62500;62500;62500;62500;62500;62500;62500;62500;62500;62500
62500;62500;62500;62500;62500;62500;62500;62500;62500;62500;62500
62500;62500;62500;62500;62500;62500;62500;62500;62500;62500;62500
62500;62500;62500;62500;62500;62500;62500;62500;62500;62500;62500
62500;62500;62500;62500;62500;62500;62500;62500;62500;62500;62500
62500;62500;62500;62500;62500;62500;62500;62500;62500;62500;62500
62500;62500;62500;62500;62500;62500;62500;62500;62500;62500;62500
62500;62500;62500;62500;62500;62500;62500;62500;62500;62500;62500
62500;62500;62500;62500;62500;62500;62500;62500;62500;62500;62500
62500;62500;62500;62500;62500;62500;62500;62500;62500;62500;62500
62500;62500;62500;62500;62500;62500;62500;62500;62500;62500;62500
62500;62500;62500;62500;62500;62500;62500;62500;62500;62500;62500
62500;62500;62500;62500;62500;62500;62500;62500;62500;62500;62500
62500;62500;62500;62500;62500;62500;62500;62500;62500;62500;62500
62500;62500;62500;62500;62500;62500;62500;62500;62500;62500;62500
62500;62500;62500;62500;62500;62500;62500;62500;62500;62500;62500
62500;62500;62500;62500;62500;62500;62500;62500;62500;62500;62500
62500;62500;62500;62500;62500;62500;62500;62500;62500;62500;62500
62500;62500;62500;62500;62500;62500;62500;62500;62500;62500;62500
62500;62500;62500;62500;62500;62500;62500;62500;62500;62500;62500
62500;62500;62500;62500;62500;62500;62500;62500;62500;62500;62500
62500;62500;62500;62500;62500;62500;62500;62500;62500;62500;62500
62500;62500;62500;62500;62500;62500;62500;62500;62500;62500;62500
62500;62500;62500;62500;62500;62500;62500;62500;62500;62500;62500
62500;62500;62500;62500;62500;62500;62500;62500;62500;62500;62500
62500;62500;62500;62500;62500;62500;62500;62500;62500;62500;62500
62500;62500;62500;62500;62500;62500;62500;62500;62500;62500;62500
62500;62500;62500;62500;62500;62500;62500;62500;62500;62500;62500
62500;62500;62500;62500;62500;62500;62500;62500;62500;62500;62500
62500;62500;62500;62500;62500;62500;62500;62500;62500;62500;62500
62500;62500;62500;62500;62500;62500;62500;62500;62500;62500;62500
62500;62500;62500;62500;62500;62500;62500;62500;62500;62500;62500
62500;62500;62500;62500;62500;62500;62500;62500;62500;62500;62500
62500;62500;62500;62500;62500;62500;62500;62500;62500;62500;62500
62500;62500;62500;62500;62500;62500;62500;62500;62500;62500;62500
62500;62500;62500;62500;62500;62500;62500;62500;62500;62500;62500
62500;62500;62500;62500;62500;62500;62500;62500;62500;62500;62500
62500;62500;62500;62500;62500;62500;62500;62500;62500;62500;62500
62500;62500;62500;62500;62500;62500;62500;62500;62500;62500;62500
62500;62500;62500;62500;62500;62500;62500;62500;62500;62500;62500
62500;62500;62500;62500;62500;62500;62500;62500;62500;62500;62500
62500;62500;62500;62500;62500;62500;62500;62500;62500;62500;62500
62500;62500;62500;62500;62500;62500;62500;62500;62500;62500;62500
62500;62500;62500;62500;62500;62500;62500;62500;62500;62500;62500
62500;62500;62500;62500;62500;62500;62500;62500;62500;62500;62500
62500;62500;62500;62500;62500;62500;62500;62500;62500;62500;62500
62500;62500;62500;62500;62500;62500;62500;62500;62500;62500;62500
62500;62500;62500;62500;62500;62500;62500;62500;62500;62500;62500
62500;62500;62500;62500;62500;62500;62500;62500;62500;62500;62500
62500;62500;62500;62500;62500;62500;62500;62500;62500;62500;62500
62500;62500;62500;62500;62500;62500;62500;62500;62500;62500;62500
62500;62500;62500;62500;62500;62500;62500;62500;62500;62500;62500
62500;62500;62500;62500;62500;62500;62500;62500;62500;62500;62500
62500;62500;62500;62500;62500;62500;62500;62500;62500;62500;62500
62500;62500;62500;62500;62500;62500;62500;62500;62500;62500;62500
62500;62500;62500;62500;62500;62500;62500;62500;62500;62500;62500
62500;62500;62500;62500;62500;62500;62500;62500;62500;62500;62500
62500;62500;62500;62500;62500;62500;62500;62500;62500;62500;62500
62500;62500;62500;62500;62500;62500;62500;62500;62500;62500;62500
62500;62500;62500;62500;62500;62500;62500;62500;62500;62500;62500
62500;62500;62500;62500;62500;62500;62500;62500;62500;62500;62500
62500;62500;62500;62500;62500;62500;62500;62500;62500;62500;62500
62500;62500;62500;62500;62500;62500;62500;62500;62500;62500;62500
62500;62500;62500;62500;62500;62500;62500;62500;62500;62500;62500
62500;62500;62500;62500;62500;62500;62500;62500;62500;62500;62500
62500;62500;62500;62500;62500;62500;62500;62500;62500;62500;62500
62500;62500;62500;62500;62500;62500;62500;62500;62500;62500;62500
62500;62500;62500;62500;62500;62500;62500;62500;62500;62500;62500
62500;62500;62500;62500;62500;62500;62500;62500;62500;62500;62500
62500;62500;62500;62500;62500;62500;62500;62500;62500;62500;62500
62500;62500;62500;62500;62500;62500;62500;62500;62500;62500;62500
62500;62500;62500;62500;62500;62500;62500;62500;62500;62500;62500
62500;62500;62500;62500;62500;62500;62500;62500;62500;62500;62500
62500;62500;62500;62500;62500;62500;62500;62500;62500;62500;62500
62500;62500;62500;62500;62500;62500;62500;62500;62500;62500;62500
62500;62500;62500;62500;62500;62500;62500;62500;62500;62500;62500
62500;62500;62500;62500;62500;62500;62500;62500;62500;62500;62500
62500;62500;62500;62500;62500;62500;62500;62500;62500;62500;62500
62500;62500;62500;62500;62500;62500;62500;62500;62500;62500;62500
62500;62500;62500;62500;62500;62500;62500;62500;62500;62500;62500
62500;62500;62500;62500;62500;62500;62500;62500;62500;62500;62500
62500;62500;62500;62500;62500;62500;62500;62500;62500;62500;62500
62500;62500;62500;62500;62500;62500;62500;62500;62500;62500;62500
62500;62500;62500;62500;62500;62500;62500;62500;62500;62500;62500
62500;62500;62500;62500;62500;62500;62500;62500;62500;62500;62500
62500;62500;62500;62500;62500;62500;62500;62500;62500;62500;62500
62500;62500;62500;62500;62500;62500;62500;62500;62500;62500;62500
62500;62500;62500;62500;62500;62500;62500;62500;62500;62500;62500
62500;62500;62500;62500;62500;62500;62500;62500;62500;62500;62500
62500;62500;62500;62500;62500;62500;62500;62500;62500;62500;62500
62500;62500;62500;62500;62500;62500;62500;62500;62500;62500;62500
62500;62500;62500;62500;62500;62500;62500;62500;62500;62500;62500
62500;62500;62500;62500;62500;62500;62500;62500;62500;62500;62500
62500;62500;62500;62500;62500;62500;62500;62500;62500;62500;62500
62500;62500;62500;62500;62500;62500;62500;62500;62500;62500;62500
62500;62500;62500;62500;62500;62500;62500;62500;62500;62500;62500
62500;62500;62500;62500;62500;62500;62500;62500;62500;62500;62500
62500;62500;62500;62500;62500;62500;62500;62500;62500;62500;62500
62500;62500;62500;62500;62500;62500;62500;62500;62500;62500;62500
62500;62500;62500;62500;62500;62500;62500;62500;62500;62500;62500
62500;62500;62500;62500;62500;62500;62500;62500;62500;62500;62500
62500;62500;62500;62500;62500;62500;62500;62500;62500;62500;62500
62500;62500;62500;62500;62500;62500;62500;62500;62500;62500;62500
62500;62500;62500;62500;62500;62500;62500;62500;62500;62500;62500
62500;62500;62500;62500;62500;62500;62500;62500;62500;62500;62500
62500;62500;62500;62500;62500;62500;62500;62500;62500;62500;62500
62500;62500;62500;62500;62500;62500;62500;62500;62500;62500;62500
62500;62500;62500;62500;62500;62500;62500;62500;62500;62500;62500
62500;62500;62500;62500;62500;62500;62500;62500;62500;62500;62500
62500;62500;62500;62500;62500;62500;62500;62500;62500;62500;62500
62500;44765.2332;62500;62500;62500;62500;62500;62500;62500;62500;62500
62500;62500;62500;62500;62500;62500;62500;62500;62500;62500;62500
62500;62500;62500;62500;62500;62500;62500;62500;62500;62500;62500
62500;62500;62500;62500;62500;62500;62500;62500;62500;62500;62500
62500;62500;62500;62500;62500;62500;62500;62500;62500;62500;62500
62500;62500;62500;62500;62500;62500;62500;62500;62500;62500;62500
62500;62500;62500;62500;62500;62500;62500;62500;62500;62500;62500
62500;62500;62500;62500;62500;62500;62500;62500;62500;62500;62500
62500;62500;62500;62500;62500;62500;62500;62500;62500;62500;62500
62500;62500;62500;62500;62500;62500;62500;62500;62500;62500;62500
62500;62500;62500;62500;62500;62500;62500;62500;62500;62500;62500
62500;62500;62500;62500;62500;62500;62500;62500;62500;62500;62500
62500;62500;62500;62500;62500;62500;62500;62500;62500;62500;62500
62500;55870.3456416;62500;62500;62500;62500;62500;62500;62500;62500;62500
62500;62500;62500;62500;62500;62500;62500;62500;62500;62500;62500
62500;62500;62500;62500;62500;62500;62500;62500;62500;62500;62500
62500;62500;62500;62500;62500;62500;62500;62500;62500;62500;62500
62500;62500;62500;62500;62500;62500;62500;62500;62500;62500;62500
62500;62500;62500;62500;62500;62500;62500;62500;62500;62500;62500
62500;62500;62500;62500;62500;62500;62500;62500;62500;62500;62500
62500;62500;62500;62500;62500;62500;62500;62500;62500;62500;62500
62500;54532.616774400005;62500;62500;62500;62500;62500;62500;62500;62500;62500
62500;41296.33844480001;62500;62500;62500;56289.899203199995;61074.416688;50735.5065504;62500;62500;62500
62500;44442.161392;62500;62500;62500;62500;62500;59341.905920000005;62500;62500;62500
62500;62500;62500;62500;62500;62500;62500;62500;62500;62500;62500
62500;62500;62500;62500;62500;62500;62500;62500;62500;62500;62500
62500;62500;62500;62500;62500;62500;62500;62500;62500;62500;62500
62500;62500;62500;62500;62500;62500;62500;62500;62500;62500;62500
62500;62500;62500;62500;62500;62500;62500;62500;62500;62500;62500
62500;62500;62500;62500;62500;62500;62500;62500;62500;62500;62500
62500;62500;62500;62500;62500;62500;62500;62500;62500;62500;62500
62500;62500;62500;62500;62500;62500;62500;62500;62500;62500;62500
62500;62500;62500;62500;62500;62500;62500;62500;62500;62500;62500
62500;62225.404761599995;62500;62500;62500;62500;62500;62500;62500;62500;62500
62500;55808.5770816;62500;62500;62500;62500;62500;62500;62500;62500;62500
62500;61113.3687424;62500;62500;62500;62500;62500;62500;62500;62500;62500
62500;43683.4394688;62500;62500;62500;58756.9300704;62500;62500;62500;62500;62500
62500;62500;62500;62500;62500;62500;62500;62500;62500;62500;62500
62500;62008.7842368;62500;62500;62500;62500;62500;62500;62500;62500;62500
62500;49277.257075199996;62500;62500;62500;62500;62500;60254.5853376;62500;62500;62500
47427.6726848;28731.27967359999;62500;62500;62500;41986.0876032;48042.021856;40402.705936000006;62500;62500;55608.070195199994
52013.3983328;35019.18694719999;62500;62500;62500;44428.36353280001;47569.273980800004;48096.284000000014;62500;62500;62500
59730.3181856;45204.37890559999;62500;62500;62500;54138.11592320001;50642.27297280001;57573.930368000016;62500;62500;62500
49005.9465632;35351.46649599999;62500;62500;62500;41637.18740800001;42791.879830400016;40396.75074560002;62500;62500;62500
52745.555846400006;32133.402364799986;62500;62500;62500;20900.597465600018;44262.98822720002;34410.83480000001;62500;62500;62500
49903.80208000001;19708.682863999984;62500;62500;62500;16967.23326720002;52699.61106240002;19293.36302400001;62500;62500;60184.2255264
62500;42383.619417599984;62500;62500;62500;47067.91243520002;62500;50190.24954560002;62500;62500;62500
62500;45900.170617599986;62500;62500;62500;58296.99919040003;62500;52687.839523200026;62500;62500;62500
62500;62500;62500;62500;62500;62500;62500;62500;62500;62500;62500
62500;62500;62500;62500;62500;62500;62500;62500;62500;62500;62500
62500;57467.8889856;62500;62500;62500;62500;62500;62500;62500;62500;62500
62500;62500;62500;62500;62500;62500;62500;62500;62500;62500;62500
62500;43336.0310112;62500;62500;62500;49361.111683200004;62500;49145.1496128;62500;62500;62500
62500;27005.9194304;62500;62500;62500;32134.651017600005;54426.5730528;26351.699865600003;62500;62500;57842.2168736
62500;36015.4435872;62500;62500;62500;41876.122268800005;62500;32605.182758400002;62500;62500;62500
62500;26910.0432128;62500;62500;62500;31327.618816000006;60072.284262400004;23191.4256576;62500;62500;62500
62500;36149.72916799999;62500;62500;62500;46060.430179200004;62500;32911.870403199995;62500;62500;62500
62500;62500;62500;62500;62500;62500;62500;62500;62500;62500;62500
62500;62500;62500;62500;62500;62500;62500;62500;62500;62500;62500
62500;43937.880192;62500;62500;62500;62500;62500;43647.8106816;62500;62500;62500
62500;34236.0653824;62500;62500;62500;58400.176694400005;53325.943391999994;33827.712966399995;62500;62500;62500
62500;33848.2104768;62500;62500;62500;51916.643475200006;46128.011183999995;32304.094019199998;62500;62500;62500
62500;51382.8703232;62500;62500;62500;62500;53360.596271999995;44503.068883199994;62500;62500;62500
59110.7043072;31196.126204799995;62500;62500;62500;47346.2493408;41418.815235199996;28591.582335999996;62500;62500;62500
59072.427392;27037.715353599997;62500;62500;62500;39820.287491200004;34794.23406399999;23425.587465599998;62500;62500;62500
55868.1883616;24747.689004799995;62500;62500;62500;33002.088700800006;32344.019017599992;21338.279100800002;62500;62500;62500
62500;25168.369484799998;62500;62500;62500;30794.83999680001;33355.437945599995;22278.726614400002;62500;62500;62500
62500;22666.1898944;62500;62500;62500;25800.73732160001;30904.566284799996;19549.3753184;62500;62500;62500
61701.6913696;25930.0218848;62500;62500;62500;29671.728188800007;36461.632492799996;22658.470185600003;62500;62500;62500
62500;37809.3240544;62500;62500;62500;42551.31625280001;48984.08974079999;32076.737936000005;62500;62500;62500
61443.69700479999;34745.518201599996;62500;62500;62500;41051.05627200001;50239.262537599985;28221.928336000004;62500;62500;62500
55602.651542399995;24752.3984064;62500;62500;62500;27191.69912640001;40902.79035199998;18360.043801600004;62500;62500;62500
58091.1104;33421.406851199994;62500;62500;62500;36458.919062400004;46971.36001279998;20962.828768000003;62500;62500;62500
55272.481651199996;32625.78784959999;62500;62500;62500;28824.838384000002;46122.232569599975;23199.312380800002;62500;62500;62500
58686.892847999996;39830.1031616;62500;62500;62500;39435.68257280001;61684.03427519998;32967.838191999996;62500;62500;62500
41852.7130912;22836.871519999997;62500;62500;62500;25385.167609600016;55178.90283199998;17964.31366399999;62500;60132.2795296;62500
37144.0368992;19564.168841599996;62500;62500;62500;21000.449587200015;56117.287564799975;16046.17561279999;62500;62500;62500
34846.9211264;19148.916963199998;62500;62500;62500;14744.501619200013;56198.67668799998;15403.180297599989;62500;62500;62500
