709041.662208;837063.484128;1057984.809984;615376.577376;759181.758624;992930.4699840001;824923.668096;1054796.097888;752089.751136;760584.445344;381545.67888
795310.2474240001;837946.025856;1711561.7238399999;1093859.18144;1377240.833312;1035105.7815040002;959006.006624;1355269.281536;1449809.5912640002;1199240.800608;500967.90604800003
1199834.184256;1129497.161984;2814561.781728;1957855.670304;2380847.724672;1416027.8541440004;1444471.651104;1952915.7611520002;2497071.8097600006;2125550.517056;961101.42992
3116359.485056;2328522.8243839997;5833590.514111999;4585518.002688;5181141.298048;3490580.3768960005;3399350.03296;4118749.473504;5234138.815200001;4858609.70848;2556259.7307200003
8842960.76448;6018743.205184;13512544.275071999;11069094.87648;12854907.934048;8973584.77296;8502460.89872;9401666.780416;12690551.6712;12057416.884544;6084065.123712
18153200.653408;11394415.705568;25651332.32784;22433659.811871998;25801245.161792003;15443869.91552;15707479.821728;16473487.049120001;25478238.268384002;23612049.78272;11501077.82528
22981030.608;12194755.28704;34903906.539584;34046668.651264;35979630.467904;15777911.038176;19040886.788704;16705203.341248;37675869.008992;32352997.994656;14994102.740959998
25182626.756991997;10454264.294016;41753795.586496;43495196.420095995;44603959.65936001;14032704.16512;20631775.5432;13972811.327872;48265043.757056;38384077.670784;16215446.077695997
26744199.544992;8653239.939136;46921818.854368;51362616.600031994;51776600.227424;11919954.994624;20960253.508608;11951553.660736;57130938.000319995;43655499.403392;16771223.287967997
25500847.533664;5506375.229472;48851189.956416;55733040.021248;54751235.108896;7599524.477856001;18721426.896416;7329589.215776;61926446.316319995;45807652.648832;14849934.915615998
22965976.418047998;2290409.7827520003;48520154.75033601;56875033.159743994;55996437.877152;3000744.490208001;15747076.915264001;3117147.718464;63466488.10479999;45336538.21744;12428990.852255998
22046354.360095996;1199927.6371200003;48693598.177728005;57477376.35891199;56718961.228992;1507354.767936001;14791035.576512001;1216000.9805760002;64062292.18303999;45247680.086144;11678090.677503997
