543481.946784;732170.88432;869243.6125439999;675279.307008;648125.68608;706542.1032959999;655527.963744;794520.5137919999;711133.051104;651713.589504;405311.50656
1095097.141152;710323.199808;1694586.184128;1376417.5905599976;1298387.77632;648265.8066239998;1386777.17952;815926.813856;1406946.143231995;1364889.2480640002;809674.7921280001
2414495.055168;1183830.0960320001;3033073.7219519997;2787861.1544639976;2693284.328448;1173700.884832;2603914.376832;1439249.1744;2912364.367487995;2548470.05568;1484661.786336
5531292.91728;2533925.2422080003;5686412.6088;6221488.681439994;5962278.328992;3212470.203072;5886729.06912;3377848.1988480003;6282766.350431988;5446975.159872;3935587.6529280003
13298983.214111999;6073960.730944;13790903.821632;14404663.019519994;13913646.571584;7639216.0603519995;13354486.674336;8317466.563392;14122483.638335988;12349645.93584;10539944.384256
26327791.348128;10382637.853440002;28425380.68656;28008895.16908799;27533756.323008;13114576.519968;26084540.097792;14076541.89024;27308665.664063983;24392167.774559997;22782051.275328
39720808.133568;10208598.99568;43884737.72064;39055752.27590399;41580763.674048;13432901.064511998;39101734.853568;14893357.883968001;41183752.18694398;36942250.693536;35225732.923488
50606052.06528;8778325.685984;57494711.088;48940019.889695995;53702508.520512;11925551.109087998;49750503.689088;12900944.894624;53096713.54329598;47978079.25248;45504951.648768
59138126.503199995;6822785.3791040005;68469353.646624;57203079.59001599;62867285.122176;8337869.451615998;57257919.200160004;9889043.621216001;62330795.86262398;55829204.642592;52945800.201216
64135231.055999994;4067475.0417280006;75576228.926976;61949279.28931198;68502721.80528;5267611.013439997;62418133.079712;6204359.822880001;67912918.30166396;60852426.309216;57199620.713759996
66276477.582623996;2058759.8463680006;79213117.936896;64225315.24099198;71163966.597984;2596938.651615997;64824508.199808;2827664.921664001;70563494.05689597;63350747.821152;59190909.01660799
67159350.060768;847266.0982720006;80588805.11740799;64998398.99980798;72071088.79651201;1035194.0584639969;65740970.618496;1132709.108288001;71497243.28303997;64305709.13808;59731411.977791995
