543481.946784;732170.88432;869243.6125439999;675279.307008;648125.68608;706542.1032959999;655527.963744;794520.5137919999;711133.051104;651713.589504;405311.50656
551615.141152;710323.199808;1351937.184128;1237788.59056;1112426.77632;648265.8066239998;884255.17952;1001116.813856;1268317.143232;1022240.248064;404362.79212800006
1348379.055168;1183830.0960320001;2362840.7219519997;2516698.154464;2305371.328448;1173700.884832;1648176.376832;1840953.1744;2641201.367488;1878237.0556800002;674986.7863360001
3566174.91728;2533925.2422080003;4452690.6088;5722348.6814399995;5285575.328992;3212470.203072;4092803.06912;4208302.198848;5783626.350432;4213253.159872;2450925.6529280003
8903735.214112;6073960.730944;11033991.821632;13289270.01952;12496095.571584;7639216.0603519995;9255030.674336;9167910.563392;13007090.638336;9592733.93584;6604352.384256
15909333.348128;10382637.853440002;21893158.68656;25366082.169088;23956895.323008;13114576.519968;16593764.097791998;14392205.89024;24665852.664063998;17859945.774559997;12242109.275328
19188850.133568;10208598.99568;31013415.72064;33848269.275904;34665852.674048;13432901.064511998;20270808.853568;14893321.883968001;35976269.18694399;24070928.693536;14067990.923487999
19788294.065279998;8778325.685984;38176309.088;41124176.889696;43487627.520512;11925551.109087998;21325397.689087998;12901008.894624;45280870.543295994;28659677.25248;13292609.648767998
19350478.5032;6822785.3791040005;43528681.646624;47112576.590016;49985794.122176;8337869.451615998;20254873.200159997;9889007.621216001;52240292.862624;30888532.642591998;11180058.201215997
17661273.055999998;4067475.0417280006;46444616.926975995;50163206.289312;53081850.80528;5267611.013439997;19572587.079711996;6204353.822880001;56126845.301663995;31720814.309216;8040238.713759997
15654699.582623998;2058759.8463680006;47481675.936896;51387402.240991995;54263055.597984;2596938.651615997;18259342.199807994;2827668.921664001;57725581.05689599;31619305.821152;5375167.016607997
14540092.060767997;847266.0982720006;47605353.11740799;51653948.999808;54517633.796512;1035194.0584639969;17324334.618495993;1132703.108288001;58152793.283039995;31322257.13808;3833469.977791997
