62500;62500;62500;62500;62500;62500;62500;62500;62500;62500;62500
62500;62500;62500;62500;62500;62500;62500;62500;62500;62500;62500
62500;62500;62500;62500;62500;62500;62500;62500;62500;62500;62500
62500;62500;62500;62500;62500;62500;62500;62500;62500;62500;62500
62500;62500;62500;62500;62500;62500;62500;62500;62500;62500;62500
62500;62500;62500;62500;62500;62500;62500;62500;62500;62500;62500
62500;62500;62500;62500;62500;62500;62500;62500;62500;62500;62500
62500;62500;62500;62500;62500;62500;62500;62500;62500;62500;62500
62500;62500;62500;62500;62500;62500;62500;62500;62500;62500;62500
62500;62500;62500;62500;62500;62500;62500;62500;62500;62500;62500
62500;62500;62500;62500;62500;62500;62500;62500;62500;62500;62500
62500;62500;62500;62500;62500;62500;62500;62500;62500;62500;62500
62500;62500;62500;62500;62500;62500;62500;62500;62500;62500;62500
62500;62500;62500;62500;62500;62500;62500;62500;62500;62500;62500
62500;62500;62500;62500;62500;62500;62500;62500;62500;62500;62500
62500;62500;62500;62500;62500;62500;62500;62500;62500;62500;62500
62500;62500;62500;62500;62500;62500;62500;62500;62500;62500;62500
62500;62500;62500;62500;62500;62500;62500;62500;62500;62500;62500
62500;62500;62500;62500;62500;62500;62500;62500;62500;62500;62500
62500;62500;62500;62500;62500;62500;62500;62500;62500;62500;62500
62500;62500;62500;62500;62500;62500;62500;62500;62500;62500;62500
62500;62500;62500;62500;62500;62500;62500;62500;62500;62500;62500
62500;62500;62500;62500;62500;62500;62500;62500;62500;62500;62500
62500;62500;62500;62500;62500;62500;62500;62500;62500;62500;62500
62500;62500;62500;62500;62500;62500;62500;62500;62500;62500;62500
62500;62500;62500;62500;62500;62500;62500;62500;62500;62500;62500
62500;62500;62500;62500;62500;62500;62500;62500;62500;62500;62500
62500;62500;62500;62500;62500;62500;62500;62500;62500;62500;62500
62500;62500;62500;62500;62500;62500;62500;62500;62500;62500;62500
62500;62500;62500;62500;62500;62500;62500;62500;62500;62500;62500
62500;62500;62500;62500;62500;62500;62500;62500;62500;62500;62500
62500;62500;62500;62500;62500;62500;62500;62500;62500;62500;62500
62500;62500;62500;62500;62500;62500;62500;62500;62500;62500;62500
62500;62500;62500;62500;62500;62500;62500;62500;62500;62500;62500
62500;62500;62500;62500;62500;62500;62500;62500;62500;62500;62500
62500;62500;62500;62500;62500;62500;62500;62500;62500;62500;62500
62500;62500;62500;62500;62500;62500;62500;62500;62500;62500;62500
62500;62500;62500;62500;62500;62500;62500;62500;62500;62500;62500
62500;62500;62500;62500;62500;62500;62500;62500;62500;62500;62500
62500;62500;62500;62500;62500;62500;62500;62500;62500;62500;62500
62500;62500;62500;62500;62500;62500;62500;62500;62500;62500;62500
62500;62500;62500;62500;62500;62500;62500;62500;62500;62500;62500
62500;62500;62500;62500;62500;62500;62500;62500;62500;62500;62500
62500;62500;62500;62500;62500;62500;62500;62500;62500;62500;62500
62500;62500;62500;62500;62500;62500;62500;62500;62500;62500;62500
62500;62500;62500;62500;62500;62500;62500;62500;62500;62500;62500
62500;62500;62500;62500;62500;62500;62500;62500;62500;62500;62500
62500;62500;62500;62500;62500;62500;62500;62500;62500;62500;62500
62500;62500;62500;62500;62500;62500;62500;62500;62500;62500;62500
62500;62500;62500;62500;62500;62500;62500;62500;62500;62500;62500
62500;62500;62500;62500;62500;62500;62500;62500;62500;62500;62500
62500;62500;62500;62500;62500;62500;62500;62500;62500;62500;62500
