125209.5056352;156154.9437504;201667.08300480002;140462.060256;140739.6834144;172689.478416;139550.511744;167130.21971520002;147381.22445759998;142279.4642976;96395.6869344
165870.99502719997;181069.9095712;363927.76832000003;300460.760672;295138.8594816;208327.2567456;197075.9735584;254503.3702624;326741.5021856;240721.402016;114711.4915008
144026.03616639995;162840.4098944;449462.33772480005;408399.111056;398133.3714528;158347.8805184;193392.8010624;250325.12393280002;443632.9349792;295310.39359680004;98832.7416384
122495.80567999995;185605.59008;572094.4803648001;535080.4696384;498716.2581984;131532.466128;224201.576048;294756.51442880003;573225.6906880001;363358.54636800004;76374.20499199998
87012.88729279995;167883.3376448;666032.3714304001;643313.264416;585004.9889344;137254.8250368;281841.23807039997;337342.29052160005;685107.2843872;432800.81876160007;75146.23867199999
132863.63186239995;213935.84897919997;798392.3560256001;771641.429376;689650.6413248;146253.5777056;354422.88906879997;432705.22205760004;808551.774624;522240.9781664001;123098.34535999999
139446.08111359994;201217.74192319997;917368.6065952001;913365.9297247999;775631.4064928;150836.2102368;433325.89860159997;454334.2110016;937944.0763808;611826.0625120001;87655.58123519999
157684.31730559992;177224.2666592;1038929.7909696002;1071675.7000992;915986.3704992;154833.4530976;490483.4346463999;521663.95464320004;1092096.473328;723427.4446368001;96969.25686079999
164352.12951039991;234822.8914848;1186288.5096288002;1195272.0738848;1033159.3800096;186516.2764096;554552.9612256;578359.1340448001;1242377.8442047997;825960.9449952;82284.50825599997
211098.65543679992;233942.5521472;1363013.1044224002;1392790.1527744;1217370.7412288;193317.30735999998;620846.2572576;695533.4068768001;1463123.9311647997;954837.8423264;109696.59528959998
334484.1383135999;231222.56583039998;1558769.2204768003;1661195.2483680001;1482306.6089184;202316.39822079998;713266.3146879999;844098.6385920001;1755214.1172671998;1106965.8122528;135368.25553599995
583407.8877727999;342933.7426464;1832208.5564640004;2092211.2181472003;1858107.2031008;372577.0150976;955725.3667999998;1084709.4123328002;2167458.3330719997;1368094.8222400001;199239.10585279996
659133.1895904;303398.62790719996;1968935.5623680004;2383564.5938784005;2158384.4911328;356029.655968;1022873.5689343999;1146888.8365536002;2526111.2630495997;1494133.7444832001;217432.45542079996
769463.3654080001;326193.5279839999;2138024.9391328003;2700820.3609952005;2442260.2664096;386361.6776192;1088033.027296;1261485.9235552002;2899184.8295743996;1668800.7084128;254935.21314879996
1188484.195008;512762.2868895999;2574134.4419776006;3346663.1377312005;3068775.0405568006;688427.3295424001;1516363.107776;1664739.2668480002;3555694.2975903996;2107707.757808;534761.2118592
1656606.7184735998;770823.4371392;3037163.998886401;4324420.7488032;3923350.4240192007;957615.2304032001;2047661.1532927998;2026199.514416;4461331.7155776;2663533.1552416;746069.5555264
1766418.5814143997;734293.3244672001;3318836.7452960005;5109895.8761472;4657481.537622401;968530.0639136002;2353141.94904;1882659.0238272003;5215282.062652799;3061959.6591744;743790.2831392
2506473.3696127995;1132104.5994304002;3976601.7366720005;6447925.874956801;5928132.837315201;1422866.9508544002;3086909.1355744;2411346.15864;6456712.186185599;3942346.3740256;1114610.0455647998
3109829.7286687996;1265479.3836992;5051011.056486401;7962602.565036801;7289150.800121601;1684060.8356416;3665811.3431647997;2720273.6899776002;7862641.105519999;4654552.7619968;1407346.0650175996
3650543.947136;1451441.5029984;6313208.885257601;9620030.100499202;8774381.5003264;1879612.7823744;4306519.1137408;2799054.4252736;9448622.459999999;5546575.2899552;1649252.7929279997
3997200.1155808;1488899.4040064;7450774.845971201;11195253.488006402;10146446.7668992;1805739.8388544;4711878.84128;2568416.7871455997;10961992.891631998;6260628.2907008;1593560.1207071997
5356272.1491072;2157795.5488352003;9619000.7584384;13715470.827936001;12447338.5532864;2630189.6011776;6085942.284320001;3386112.8885536;13238016.951052798;7779767.723168001;2511788.549910399
6602883.131260799;2580875.4089280004;12080025.277798401;16722653.364620801;15079560.5556832;3587738.4584928;7539511.8302624;3690837.8252064;16105690.650947198;9558300.0929664;3220524.5758751994
6838360.5878655985;2506098.4175456003;13803532.110758401;19245910.3024352;17580251.5991328;3080131.2570944;7885157.172448;3247096.9850592003;18511161.9220832;10713242.0440288;3367843.4958047997
7523991.089763198;2417121.83856;15724059.042211201;21847457.2665696;19965778.145039998;2984374.7229919997;8630642.985955201;3297684.4697536;20988325.665599998;12053287.3236448;3790318.4441472
8600484.028140798;2708124.1971520004;18031123.014518403;24123187.6955584;22619917.526918396;3183707.8462975994;9794012.649264;3607743.2242112;23868722.105382398;13713823.736848;4460474.0750752
10152194.658220798;2902624.276649601;20989353.611689605;26633668.2468832;25848142.426067196;4007166.9932351992;11458667.768723201;4522174.9518176;27367882.8174496;15892914.903747201;5550608.944032
8949705.658710398;1239294.2739488008;21181196.892585605;27371948.6466784;26772329.086156797;1675253.3879071993;10271568.969420802;1991312.4608672;28483020.5371552;15637430.6700736;3793202.3832064
10304961.326083198;2319811.1970048007;23788121.929670405;29466038.6899168;29312922.002595197;2961079.638470399;11903479.993104002;3173729.8654016;31097019.414784;17508261.2627584;4909262.8126528
11477147.230975999;2647433.9990496;26204191.820812806;31905878.4734848;32224689.076726396;3454015.063302399;13094992.653395202;3737300.8856095998;34033878.3909184;19269716.9905984;5770583.7215008
12217567.503155198;2496300.8179648;28402069.713772807;34107984.2394272;34930432.7288128;3383415.9689727994;13853766.641120002;3789933.8311103997;36804556.7312096;20869559.4856768;6077524.5261152
13215076.431123197;2968201.9862944;31276855.290528007;37008844.2075712;38198944.037024;4117906.078236799;15261600.998115202;4473207.9968736;40187622.0936928;23184380.641561598;6876997.989894399
12177718.515641596;1539108.8440864;31874335.832182407;38024067.424732804;39473151.8427136;2083402.9951679993;14120554.247264002;2244665.2936896;41510719.8334464;23163747.553891197;5330161.271984
11853852.160291197;1192208.507744;32773689.304572806;38802461.704272;40582903.4476576;1664857.0638975992;13862449.0497568;1646003.8694144003;42760081.7028;23503517.374185596;4885632.9783296
12446100.922940796;1572111.1080736;34428830.00740161;40035415.4041984;42293661.5508224;1948679.2971071992;14034439.5538304;2131465.2786048003;44436121.7972128;24444010.475049596;5321589.3377696
12295619.349023996;1155933.1706624;35354940.21864641;40893560.0661632;43226782.0551264;1450158.2721215992;13816160.3156512;1617300.9244992004;45617536.6780352;24769446.212163195;4935545.095187199
13159281.559135996;1588285.3354688;37150498.329001606;42561201.1512768;44912061.9732384;1914525.5351391993;14490402.969555201;2289287.3939328007;47478590.2551264;25787446.974655993;5446551.2184064
14408267.499695996;2160361.8222367996;39651422.38818881;44950238.8392768;47328495.5019968;2689663.5139999995;15787758.7940128;3188736.9335968005;50017045.7717088;27462458.997612793;6149879.7371168
14252274.827827197;1510765.4435071996;40841619.535916805;46330428.2500896;48714994.4324448;1759156.7703807997;15743604.377078399;2268250.7778336005;51566768.1698208;27941662.777635194;5488182.995638399
13969474.647977596;941260.2628159996;41589164.08524161;47059339.3630528;49477289.795184;1238311.1393983995;15710322.167631999;1446980.9210240005;52498935.11128;28244709.208918393;4722071.674521599
14417694.845167996;1147942.5799263995;42922697.60778881;48161416.6442272;50735294.1669856;1517200.6576159995;16338972.167548798;1763323.6788864005;53863742.5873312;29123061.933046393;4836046.156700799
14189649.928649597;801837.2426911995;43581938.51382081;48765468.970582396;51407543.8335968;998021.9283519994;16287162.024502398;1237505.6140160006;54604339.5295136;29278584.04587839;4322807.251151999
14217402.724175997;729056.2799167995;44447488.33809921;49420080.704214394;52035081.3677664;930881.6918559994;16509762.006131198;1109434.5916672007;55413467.658544;29675543.915462393;4202757.448515199
14194290.700841596;705335.1575711995;45230379.46590721;50015771.345071994;52684354.289664;900364.5773151994;16657655.572575998;1016069.8780768007;56147660.727219194;30064807.719491195;4044518.513433599
14103026.343894396;563177.8723743994;45867595.807555206;50517956.24179839;53220801.3617824;737977.0840543994;16712806.916031998;783747.1138336007;56745494.26857279;30289306.011865593;3884455.7466463987
13969856.796611195;399355.8139743994;46235444.728652805;50799890.04017279;53551581.929769605;531626.7388191994;16667141.814438397;513523.45712320064;57099184.69600319;30453627.044863995;3689592.700550399
13802297.315964796;230847.3333439994;46323020.7015392;50914529.153990395;53706670.20850561;239165.99551359937;16507809.655516798;271641.8163264006;57251264.49390719;30478786.990051195;3496568.6150463987
13778068.071430396;196850.1250783994;46465822.11097281;51028690.4633376;53815685.25238721;196829.83973439937;16526415.182947198;248535.7682816006;57378704.90454719;30550359.418511994;3430083.9949407987
13768615.073702397;181228.0664735994;46608002.56329281;51118678.5266848;53893837.647139214;206928.1771263994;16571174.811721599;214389.2396224006;57510672.585865594;30607539.834569596;3365862.6361215985
13863751.721644796;258806.8650847994;46901707.85106881;51291184.5124672;54103701.60987201;363316.85058879945;16694478.342534399;340327.8137152006;57740710.155318394;30791444.308313597;3356395.4486975987
13861819.100470396;177405.39911359941;47151336.01569601;51453543.5134624;54291059.65719682;231010.82562559948;16671733.677199999;288961.66695680056;57942738.168543994;30904143.411155198;3241506.0667071985
13818530.604787195;158136.70274239942;47239463.30509121;51540200.971360005;54358416.05866562;166930.8508319995;16669870.442111999;180223.16497920055;58053362.743052796;30936640.217984;3120481.4696959984
