145272.8704896;166530.7988064;185681.2652352;115223.27604479999;126308.6371008;165623.75605439997;133548.4868256;189390.0530592;124063.03828800001;127554.56864639999;87531.8669568
156035.2921792;207409.29512000002;355640.5313152;213044.66988159998;258937.2413472;230576.27240639998;203191.4543712;289697.39153280004;267974.47955200006;213095.2392736;72004.41765120001
238529.09882880002;223876.15001920002;580833.92712;355628.753728;446461.92784320004;276241.442848;268004.93379519996;473236.65170560003;449901.40759360004;328334.0870624;107507.2698112
203339.9272736;184997.40036480004;705696.1759136;459018.5334432;586735.4506784;253977.7967328;258224.00437759995;540810.0091712;589313.0880096001;394643.5885184;90170.9680736
282536.5333568;236068.95189760003;925783.5848128;598483.84832;779105.1490144;285965.16474559996;317217.8072544;711815.0078783999;774430.4729024;548770.517936;118442.16632
258376.54727039998;166686.5115008;1049307.5947072;712871.5085952;907297.6741087999;222994.17044159997;305323.4919296;715934.6738016;927095.6022144;618959.8836768;99093.37253760001
293715.21515199996;201728.422;1189187.4713952001;827137.2104480001;1045455.3540352;251345.50851199994;352468.7808;767936.3463456;1093683.2856896;729638.4112255999;135888.84182720003
219513.94688319997;169392.2459552;1276400.5349216;893464.5638016001;1144133.1327968;192977.65550719993;325387.21009279997;716959.8679776;1205329.232016;777130.8065535999;96728.74695040003
286243.25658239995;218213.1758048;1483755.9280832;1027686.9724608001;1330908.533696;251357.34903679995;406203.7857312;835412.5412192;1409502.9616896;937094.7230848;125715.92743360004
301334.5046304;195582.9677856;1661369.6678272001;1133575.0806752;1481429.6305792;281908.8644063999;458745.0925056;877786.9552736001;1599809.1591392;1068669.522816;110561.72441280005
325759.982192;218601.1719776;1837763.146896;1282258.5549728;1656158.9783584;243906.0566367999;480420.51877120003;948584.673056;1780580.3131616001;1205207.8049984002;173885.45731200004
399387.663392;273378.5107328;2061928.8928544;1485424.6148128;1856780.4234240002;322936.86376959994;604541.4861312001;997393.4138208;2007615.9541216001;1396312.1698432001;264380.8852768
548321.6470912;388703.8042432;2452602.1059616;1830976.4224351998;2212217.87232;549304.2413215999;803882.1411808;1165054.9426848;2371779.6483296;1746791.1484896;413056.54090240004
704203.2120192;424011.10973439994;2907578.904112;2238962.8410592;2659985.0471328003;656617.4562592;939167.373184;1235146.3089983999;2850384.3390304004;2112904.876176;496224.57845120004
921718.4443327999;522953.77343679994;3431005.6600864;2783871.9386336002;3222041.0097376006;824423.1404352;1135370.4172576;1401224.8289151997;3377156.1214592005;2584399.7810016;579462.5257312001
1067499.5749599999;595855.8519327999;3978044.785136;3338874.4317824002;3844270.1370016006;877496.0246848;1272879.1256608;1489177.024144;3982776.9701888002;3080277.3638656;628363.6985760002
1264211.1319008;638513.4390848;4606540.4750848;4010764.0540928002;4567031.434768001;900562.0259552;1460827.0161632001;1573996.9476031999;4660292.2298144;3630728.6729664;694239.7192096002
1714185.8684608;896185.8831744001;5598065.1958464;4917510.6302912;5585500.1064416;1292318.6737600002;1991531.9252000002;1896219.311568;5676408.8137472;4461085.5923936;890040.4340064002
1972522.4477312;958650.9999712001;6509933.2132768;5850268.7420352;6608997.7362912;1409202.7603776;2230774.4529344;2081657.8226751997;6681502.714656;5219903.1256416;896952.3864960001
2988510.6141312;1495573.3767456003;8171801.0400864;7388987.7099072;8462175.0777408;2220561.0823232;3039480.803456;2964611.7745471997;8404540.9254624;6778138.742796801;1466944.8954336
3643304.3934624;1494695.2780832003;9504820.938675199;8749880.697824;10091862.3240224;2212225.900752;3267453.0328512;3130887.6530047995;10037424.9050432;8050443.555625601;1539298.5680832
5519599.4036352;2315990.9892256;12140820.920547199;11075863.3366176;12983416.843737599;3546153.6113664;4664671.723968;4392727.1049983995;12876942.3105888;10531226.13112;2458385.2674336005
5043313.8462304;1326796.9861856;12831278.216950398;11982757.472284801;14185030.8364896;2016445.6812576002;3777269.6526944004;2961668.8773087994;14084220.4948416;11018058.6891712;1284435.0138752006
7778296.381500799;3124046.6019551996;16144752.473779198;15034689.307683202;17708857.255596798;3999334.3162752;5969809.4973376;5274129.2878624;17569042.112432;14352827.8590464;2979815.1528576007
8772062.1792576;2912187.0003647995;18346172.174348798;17635893.361913603;20542007.9631104;3962991.4279392003;6660575.121712;5145411.161481599;20509521.132319998;16328938.5131808;2878914.5234912005
11020934.114227198;3918738.229228799;21609703.649779197;21505515.648057602;24675838.3630848;5093462.887638401;8346887.5981824;6341504.273859199;24428942.2464576;19546612.7897888;4444814.9972928
11479039.152732797;3395797.6424223995;23705948.298899196;24410819.534832;27287081.809328;4397018.994265601;8733472.7181632;4833269.198022399;27571421.2117248;21424740.2210784;4139284.262432
13168052.548268797;3928557.5809535994;26685403.162803195;28080507.3813568;30450734.945472002;4969841.891664001;10277849.620848;4974194.830134399;31419727.525936;24223199.0595904;5265089.6765632
12673362.847369596;2317090.492435199;27603018.139004797;29972623.1817504;31691142.6479424;3013625.9301632014;9561142.3793632;3074018.783068799;33491184.554208;25114308.0322848;4560067.1769344
12696433.604889596;1624094.2877311993;28457537.038028795;31438602.852214403;32570515.067385603;2208648.0377440015;9309916.786025599;2314582.339433599;35067803.2122752;25899140.19336;4441765.338108799
14081491.524876796;2232304.0474911993;30438942.768415995;33687919.434950404;34477853.272556804;3056811.2198240017;10508354.6707328;2969624.579107199;37458654.2455008;27831976.7956768;5580948.6462496
15220663.119231995;2424348.034182399;32441503.271251194;36006916.71769281;36590151.60221761;3290309.1459936015;11372077.9691264;3263752.647353599;40073071.42016;29495195.3367392;6640463.973708799
16829964.257820796;3060942.213756799;35030306.86921919;38966683.85961921;39569347.42353921;4128497.5584096014;12652987.158;4054642.7773247985;43461701.178243205;31781201.726864003;8095895.3349375995
16982899.144870397;2317801.270969599;36402693.66145279;41097742.73809281;41873353.97983041;2952657.413382401;12490140.016848;3105518.9738655984;45779804.102672;33034364.417872004;8242352.875369599
17961564.372505598;2330639.045564799;38201311.562531196;43284530.77550081;44269007.72126081;3266315.859856001;13153998.174048;3153341.9615135984;48296285.8369216;34666845.3398976;8769763.345017599
19845447.7992352;3066224.220198399;40830818.6856064;46469794.62663041;47432104.55588801;4228963.431148801;14559004.8855296;4227349.346787198;51787220.754899204;37373104.9619904;10328729.6134784
19319677.568566397;1782281.1887039987;41379196.310448;48045540.809590414;48541411.93679361;2519907.8923040014;13776777.1562816;2598778.9717055983;53512308.593091205;38089257.3812192;9486973.4173024
18679640.7076896;911641.7046943987;41412880.4484448;48591317.79325762;48832119.41393281;1232141.6568704015;12948940.7927456;1238847.4232735983;54221241.38351361;38123832.9351456;8680939.4278624
20176435.8226784;1845585.9886847986;43227344.4320608;50452315.390800014;50384064.68864961;2381518.2949696016;14184953.015856;2484396.8591135982;56268844.265174404;39985913.397926405;10016398.9914656
20878097.6432288;1806754.6255455986;44540012.6244544;52211949.898361616;51436198.68455041;2644319.8757824018;14674147.973423999;2369740.931551998;58148843.997296005;41512148.890492804;10461191.1810496
20618656.788672;1095642.9447615985;44919033.6137408;53064363.982857615;52215922.71344321;1657050.109110402;14035509.275750399;1506498.6649695982;59139679.228118405;41938556.15271041;10160549.715744
20777829.449536;1028177.8899743984;45522596.417833604;53857364.335011214;52839442.459420815;1324429.368841602;13920811.125292799;1300709.604060798;60086847.0357056;42502518.020256005;10403670.9046432
20806959.6192096;767502.5751999984;45943164.5092736;54612676.89638721;53177198.57433282;952251.667164802;13838948.662873598;1060067.999897598;60790201.2145664;42889840.2423904;10354121.6514336
20831680.8741888;566292.9619583985;46267335.27530561;55111995.808300816;53442004.57078722;753591.489040002;13808902.791161599;775176.8840639981;61338831.673766404;43180080.535152;10331906.4036704
21026150.7758016;617561.9604607985;46733530.650278404;55641990.51260482;54012601.58923842;850812.259206402;13962080.261305599;825993.987420798;61964940.3007808;43620423.229721606;10489169.120531201
21275021.795744;643157.0671423984;47217723.213334404;56190617.19215682;54676239.21648962;782836.089788802;14083438.3748832;888739.813705598;62644573.7377024;44077495.567091204;10738204.9039584
21076533.1960352;362327.38941119844;47307939.83851521;56362473.49506882;54921286.38340482;476392.33885440195;13931641.111606399;490381.76838079805;62948709.0328864;44125665.50440001;10497384.5306624
20996691.073103998;288937.54806399846;47431968.5430368;56514528.19939201;55130926.54945602;328098.55817600194;13856771.6302752;329594.65239359805;63156810.8465376;44189981.18785601;10488737.2341728
21152174.597545598;337250.45980159845;47715326.787372805;56839032.397222415;55475935.84472002;409836.6801472019;13964646.6702688;384675.28903679806;63449306.309792;44440126.89946241;10657476.4068544
21276111.907747198;331469.8984319985;48011395.7459904;57107620.38617921;55810645.23031362;469863.9490464019;14019566.2087104;321843.415766398;63690489.336851195;44653624.28130561;10797570.9069792
21161561.7458944;194555.3523359985;48070122.032444805;57207501.90620801;55923485.00584002;248987.0654720019;13860460.30192;169919.28481919802;63784504.89139839;44663325.32614081;10871073.442496
21145191.582793597;207776.5969503985;48215549.32439361;57303908.6476192;56046414.20373762;219347.89889280192;13858392.699744001;157722.522409598;63907178.11918719;44716782.15054401;11036285.550255999
