0.137446151,0.199347573,0.296677057,0.181709069,0.182200465,0.232611228,0.175049778,0.220550047,0.179308331,0.168653578,0.124624483
0.1282817,0.185702957,0.260229574,0.152625677,0.156660553,0.201084388,0.154591342,0.180640863,0.177178818,0.164781595,0.120917682
0.206993787,0.294361048,0.352392973,0.232804193,0.240809634,0.351892587,0.272821653,0.276412263,0.2683499,0.283650424,0.180903742
0.171763222,0.226895762,0.291927051,0.188674976,0.201316906,0.269212381,0.196850147,0.240232531,0.215432708,0.193973759,0.126923146
0.242991081,0.299769687,0.376044788,0.281578655,0.25717455,0.293345152,0.269719142,0.314254869,0.289465404,0.261735795,0.200491221
0.236136701,0.254279435,0.28430369,0.25038437,0.239027167,0.253084109,0.224551862,0.267075847,0.237787563,0.224294067,0.164153609
0.32557145,0.346992424,0.472534626,0.337941347,0.351742246,0.39749097,0.321584034,0.435211123,0.338278483,0.349663841,0.197676941
0.235362392,0.237992016,0.323707975,0.237508197,0.223386624,0.279260282,0.245077232,0.300464701,0.254943738,0.224872082,0.168247086
0.322947709,0.350287708,0.445328083,0.345845082,0.327485406,0.390676389,0.34885452,0.439347383,0.363881725,0.346644789,0.208898904
0.34195088,0.367196169,0.515192847,0.434690239,0.386224814,0.484451794,0.410841278,0.553640785,0.496171435,0.409877664,0.158457449
0.216816535,0.250438661,0.35834847,0.315331282,0.282980375,0.307506355,0.282519348,0.332551537,0.335190534,0.270686738,0.148042171
0.270101114,0.340401291,0.524204763,0.370127374,0.393258975,0.38882491,0.316287487,0.458297652,0.430053033,0.314163567,0.184819804
0.286426788,0.304536589,0.364536259,0.286542157,0.309219597,0.312383294,0.282458089,0.338075665,0.324125363,0.264168964,0.253906987
0.246203487,0.244864761,0.261238147,0.231797108,0.249256428,0.248086543,0.23395582,0.249117076,0.241567943,0.223499823,0.205307046
0.224202934,0.210535832,0.222034666,0.179973782,0.210941238,0.207365529,0.200986956,0.210534635,0.185465329,0.205332778,0.174455592
0.120723319,0.166884783,0.179989221,0.152775765,0.132122287,0.176370711,0.153332968,0.165237759,0.159537039,0.153645109,0.112701077
0.183725313,0.212080974,0.230896889,0.187738278,0.170350413,0.231311659,0.194704017,0.202533837,0.204604032,0.188718463,0.133877451
0.250694918,0.307894045,0.338634765,0.262882518,0.254129489,0.32734264,0.288480812,0.317009448,0.293622248,0.292242299,0.154166218
0.299532541,0.403923884,0.445141578,0.37106307,0.358263765,0.368473229,0.363514588,0.417503404,0.388578018,0.361293719,0.247786942
0.246068486,0.306205849,0.334865811,0.281037433,0.276689703,0.283294121,0.273879476,0.315004814,0.292962329,0.273884501,0.211437807
0.151904822,0.277202646,0.322579077,0.252444089,0.228197686,0.23856924,0.248143167,0.297022785,0.266769576,0.240858727,0.109466699
0.184132744,0.257787974,0.291239557,0.234516019,0.225156355,0.231890669,0.228579085,0.271064035,0.245901441,0.226337227,0.150661193
0.132273807,0.187382712,0.221223825,0.186189204,0.16970566,0.169538817,0.17881092,0.210863531,0.185323446,0.175430771,0.099471654
0.209824076,0.299616354,0.324120108,0.268300202,0.258292572,0.193915611,0.200559691,0.312033119,0.275963655,0.245153377,0.127398169
0.191650911,0.489051512,0.488831015,0.410491861,0.353378435,0.304105565,0.309657656,0.462092291,0.42529805,0.350431633,0.130652121
0.208961687,0.308278395,0.297765433,0.255045534,0.244214617,0.240459592,0.232991236,0.287646237,0.270462144,0.237677895,0.195848277
0.108406147,0.27587234,0.287717374,0.22365114,0.196271357,0.161803272,0.221772102,0.31196977,0.212497532,0.214248248,0.077023738
0.156727125,0.330218813,0.411772163,0.253488428,0.228888255,0.220654366,0.279085041,0.340330904,0.249932845,0.241631181,0.102905074
0.156526212,0.256486614,0.2689772,0.20983328,0.195230942,0.189028935,0.205842611,0.239415187,0.200729413,0.206582751,0.132238619
0.095952257,0.281711236,0.268234984,0.238742381,0.198878182,0.223536302,0.271627168,0.22970518,0.221324542,0.228846005,0.087644501
0.102965928,0.173453715,0.19877125,0.169352033,0.1540246,0.173779326,0.225555224,0.16881897,0.170129789,0.172112375,0.082986211
0.125124105,0.206846145,0.252756041,0.219259069,0.191485839,0.218655689,0.270497532,0.238322669,0.211170003,0.209335937,0.098425984
0.165376402,0.26691322,0.279952337,0.253609286,0.233553109,0.259983135,0.294605845,0.328502853,0.271703996,0.250977025,0.129377738
0.189592054,0.27269822,0.312125692,0.257189556,0.226407604,0.270180197,0.309058466,0.334560761,0.277269911,0.275984824,0.178644663
0.171558892,0.230279131,0.305402301,0.22795878,0.207366839,0.25342853,0.279649522,0.313252809,0.2658482,0.258866784,0.160430359
0.182732678,0.227334638,0.247297763,0.203020476,0.204339471,0.213769525,0.234819781,0.267738009,0.232521757,0.211776165,0.182660213
0.226421447,0.290419363,0.307908409,0.255570314,0.238304818,0.262192307,0.312744103,0.337089017,0.278898211,0.280180754,0.212208521
0.226215596,0.300253577,0.318936884,0.251834529,0.249548109,0.253249329,0.303550544,0.379102171,0.259948587,0.266535699,0.217173694
0.252340176,0.358990129,0.395965955,0.333255128,0.304406345,0.307807817,0.345788057,0.477545909,0.287501764,0.292988161,0.258073492
0.251359274,0.296629882,0.333028475,0.292021187,0.251076673,0.252400015,0.296905155,0.364745471,0.236635669,0.246537824,0.214581328
0.162873181,0.217092273,0.255632269,0.204640244,0.17074198,0.147291351,0.206266084,0.22914928,0.159021887,0.184776994,0.140961001
0.235831309,0.280501336,0.397213865,0.23786952,0.231400338,0.256041421,0.297480105,0.349224261,0.267159515,0.278774537,0.199090669
0.316034361,0.301584997,0.444320548,0.281368707,0.284528979,0.311663871,0.358772452,0.368532245,0.311155557,0.346210951,0.238272513
0.203788105,0.20753823,0.258580109,0.206134828,0.199041835,0.202360391,0.244438396,0.242476002,0.209982671,0.240845627,0.137070811
0.210273292,0.239223886,0.260651625,0.236166989,0.22081216,0.211816285,0.255592399,0.269089426,0.248284795,0.248953073,0.123867927
0.203572766,0.287180629,0.290349157,0.304811393,0.237127524,0.175370774,0.263329662,0.269886423,0.243157144,0.24889783,0.13297867
0.208545783,0.2951907,0.298041424,0.285933807,0.241425551,0.20876724,0.251586774,0.285622236,0.26370651,0.24601978,0.109837354
0.234526156,0.358229516,0.421968626,0.396526024,0.348440458,0.329809031,0.350320921,0.429873493,0.329105734,0.364977559,0.129578256
0.23722307,0.280749875,0.375761552,0.32289622,0.309396241,0.306006767,0.302813673,0.388733011,0.285711777,0.313592685,0.142922665
0.296349753,0.337594496,0.419453274,0.383806145,0.345689019,0.27506261,0.317992592,0.463289614,0.331280048,0.328033987,0.186784294
0.340863244,0.297520535,0.396181064,0.418637702,0.344670684,0.316048764,0.391887591,0.475497122,0.376741436,0.383288998,0.163093388
0.371608927,0.32500648,0.423972475,0.451702784,0.430508596,0.351471927,0.396724945,0.451517208,0.41265479,0.406257504,0.215250658
0.205084638,0.201229902,0.24708813,0.246094647,0.253869319,0.188562934,0.21798294,0.237917005,0.25239534,0.251830577,0.149016322
0.18418787,0.195408326,0.230126776,0.212850293,0.21650576,0.183821441,0.193558085,0.203831444,0.232530904,0.256847494,0.12295814
0.263082222,0.321479187,0.347185619,0.305192141,0.31598188,0.296142473,0.308758438,0.315304731,0.33073359,0.346678897,0.176841105
0.163872376,0.202183814,0.256875586,0.183761086,0.187616916,0.180941269,0.19212939,0.190626018,0.217590939,0.232669973,0.108385673
0.171089085,0.248115955,0.301737018,0.230593378,0.21579309,0.240629672,0.24503328,0.224591377,0.267737253,0.277361901,0.133098106
0.141271541,0.236858653,0.266924267,0.209787896,0.195417343,0.203227057,0.209319481,0.204263854,0.22475149,0.231090102,0.105367145
0.158217301,0.397913644,0.377339139,0.28842609,0.274746451,0.356637709,0.32169612,0.330022259,0.32835174,0.357462106,0.132763828
0.182453586,0.366914218,0.331028445,0.244756171,0.241954073,0.295956411,0.264675048,0.304477361,0.269711273,0.244481775,0.097429896
0.304271377,0.530625358,0.4521526,0.319473575,0.335259096,0.383179764,0.335342601,0.459163606,0.352441586,0.363005079,0.203757268
0.352580054,0.53968867,0.467700994,0.275600311,0.350777046,0.388611469,0.365802771,0.460769321,0.366546972,0.344934801,0.152432504
0.269107939,0.397737956,0.431342291,0.235175934,0.315166439,0.29050587,0.27209513,0.344619386,0.303127176,0.291078595,0.127518743
0.26419303,0.326105536,0.335112701,0.24488807,0.281062851,0.226657539,0.251530517,0.296116142,0.284161067,0.264366845,0.17408282
0.225551242,0.289087508,0.314785092,0.24821379,0.246252148,0.223304187,0.204112633,0.257413061,0.289989912,0.262773369,0.151833686
0.308081271,0.350972012,0.395505506,0.33134988,0.329543636,0.288301014,0.322753259,0.332557787,0.387470837,0.340508689,0.126774591
0.471611029,0.490958626,0.615703916,0.57093306,0.514803557,0.445390799,0.518473292,0.581696653,0.562708286,0.503216556,0.251269029
0.384332302,0.385677205,0.544968115,0.473827099,0.420288373,0.365737945,0.466979006,0.474724063,0.499666257,0.415535437,0.257810255
0.34062442,0.35181282,0.485102123,0.443605744,0.37130891,0.342750178,0.325039511,0.474421644,0.473745807,0.381232706,0.186174888
0.44887668,0.321088385,0.496769249,0.397046695,0.392591925,0.345323977,0.349506412,0.515296028,0.480964857,0.37144276,0.121691158
0.712862733,0.516788186,0.761082465,0.62965988,0.701081016,0.464465069,0.500746719,0.750576774,0.777513031,0.529821657,0.242850095
0.359511399,0.249106475,0.471934967,0.378020077,0.419890342,0.227580695,0.249033169,0.44000902,0.451147535,0.286687359,0.108707438
0.508124332,0.371399973,0.508999781,0.534596277,0.562691367,0.343470774,0.376094406,0.530956501,0.530716852,0.442623966,0.25396798
0.536810661,0.409672916,0.488023604,0.575861319,0.556525602,0.330946131,0.397147192,0.5375692,0.544431614,0.427003322,0.22836161
0.448904499,0.345137065,0.394985347,0.513382023,0.465993769,0.306965166,0.414153667,0.445185896,0.496874072,0.405835678,0.218520904
0.529291202,0.434429569,0.461344242,0.540357167,0.525501543,0.371316393,0.4645572,0.528438,0.588187664,0.439177071,0.300294755
0.35264891,0.349658106,0.334127468,0.401873209,0.416747701,0.296877191,0.395502108,0.444003405,0.459012172,0.384393426,0.214064121
0.541802321,0.525161547,0.526924904,0.683606181,0.639051891,0.43274336,0.540337955,0.727309564,0.605161462,0.554728171,0.308949481
0.897904011,0.763804307,0.868426869,0.951785982,0.874481334,0.664510711,0.813655593,0.99459674,0.881379511,0.79787554,0.414856917
0.801795082,0.581375245,0.70892861,0.825352367,0.800416309,0.660894847,0.701116189,0.827250743,0.776600656,0.681184272,0.386289871
0.614874771,0.456749816,0.518290895,0.70539515,0.654973492,0.537659698,0.501055815,0.586186724,0.630626001,0.440575491,0.28912041
0.382845319,0.3313924,0.336983875,0.472385961,0.433733236,0.372138531,0.370891257,0.39857388,0.47203917,0.312772016,0.184428777
0.739857404,0.597492767,0.664157483,0.850448471,0.82173281,0.750337487,0.73393741,0.70783621,0.910281941,0.709693906,0.280588568
0.854008468,0.713169484,0.764613011,0.994647065,0.959069197,0.893944727,0.758358235,0.838359262,0.990266768,0.749015624,0.441771187
0.636144422,0.542636536,0.566519293,0.706620151,0.732927237,0.688290254,0.58061954,0.661264062,0.841875198,0.564420462,0.403944226
0.451737394,0.359896068,0.38462139,0.467404947,0.420004229,0.466898485,0.446935413,0.467544447,0.596836629,0.403876998,0.291546689
0.690182497,0.571166059,0.609983,0.663986622,0.684794859,0.668804548,0.627751174,0.729372026,0.71368134,0.554317697,0.363991054
0.682445585,0.573897468,0.588310271,0.698816802,0.676660642,0.673761331,0.674851879,0.707054949,0.789690544,0.542988876,0.359511607
0.647349658,0.565966754,0.557773492,0.693786597,0.694088863,0.667087204,0.618185384,0.635627652,0.760498055,0.535892794,0.43241105
0.512479175,0.459080107,0.436580364,0.508051951,0.5472166,0.466047881,0.510670635,0.503485976,0.606179079,0.397872767,0.334827782
0.394780502,0.438918181,0.406003926,0.429409038,0.515669697,0.489823734,0.459032294,0.492692834,0.638245293,0.426717472,0.33034571
0.49604078,0.497640375,0.46226371,0.500594148,0.55253695,0.601478479,0.496142605,0.591118316,0.779479015,0.507166685,0.421585152
0.684402231,0.593581849,0.587749127,0.659347722,0.526727946,0.737927297,0.528551589,0.748267137,0.791701268,0.536844183,0.298115504
0.818312811,0.688883138,0.718833673,0.830789815,0.631945617,0.872229917,0.646288394,0.875793771,0.938527823,0.666975761,0.570133
0.61551067,0.512573936,0.539307748,0.645884172,0.553131613,0.670280259,0.542531241,0.68540523,0.797814078,0.539827866,0.496820339
0.359574331,0.290167627,0.29945879,0.369065162,0.356747559,0.414207591,0.340180853,0.431121718,0.420812816,0.367798646,0.268241384
0.460745806,0.409342556,0.42135481,0.483140151,0.530847809,0.535524422,0.39527867,0.56887444,0.512221702,0.491323315,0.298515262
0.85105198,0.783202878,0.813895299,0.946083541,0.907429115,0.640134691,0.80304584,1.065207435,0.840387357,0.797482105,0.597223131
1.217612208,1.08144025,1.157933516,1.375684165,1.186490744,1.125922715,1.091717907,1.287635487,1.212345811,0.955685412,0.932667698
1.132998366,0.654795247,1.034329976,1.013786671,1.124479572,0.997109705,1.183620825,1.12194087,1.13010874,0.945825608,0.736477557
1.240527456,0.831935955,1.052281308,1.288520021,1.204705273,1.042329136,1.265889631,1.18316412,1.245299382,0.91445751,0.94041473
1.450406999,1.10504475,1.223352701,1.48790717,1.448460533,1.259117749,1.385442062,1.496347562,1.381859411,1.161923386,1.150059218
1.345658028,1.037518804,1.173538374,1.414453972,1.410822224,1.470680785,1.392633577,1.480544976,1.440767398,1.352581444,1.129179352
0.864502166,0.612320739,0.738734386,0.884916221,0.914219417,1.196856022,0.959390407,1.173566088,1.004561691,1.071831053,0.641537827
0.917702526,0.611698405,0.748122595,0.851584518,0.890731662,0.875896526,0.911700044,1.113633571,1.025367382,0.758367455,0.659027028
1.220596568,0.885735808,1.044775238,1.183713151,1.214285818,1.067461197,1.20525708,1.294120634,1.372127243,1.072804156,0.903852565
1.350360256,1.067293481,1.159776251,1.413932154,1.412450853,1.597664864,1.658285798,1.623322823,1.532032687,1.163661308,1.078336154
2.008965526,1.521518653,1.551078316,1.934837028,1.916490358,1.890828253,2.107841591,2.071093505,1.992108008,1.645691131,1.461064106
2.316668677,1.769506238,1.740206283,2.484551577,2.259740263,1.954846731,2.110503295,2.537550969,2.248879596,2.112053762,1.677165762
1.983744973,1.605935748,1.562259491,2.477112382,2.100328551,1.775863237,2.035067343,2.118845202,2.101693891,1.718824558,1.551915335
1.413258332,1.172463786,1.149156451,1.970561183,1.540917017,1.414125397,1.520463291,1.641510885,1.508003697,1.347726796,1.102427811
1.080844598,0.899110525,0.885300715,1.362394503,1.168569358,1.382716117,1.256829814,1.309438476,1.237532402,1.105816963,0.860300118
0.84227886,0.651879146,0.658105112,0.98244629,0.846852972,1.098280684,1.026331695,0.897268675,0.985872125,0.881637498,0.625160707
1.533927584,1.114807035,1.266676778,1.562671779,1.520270241,1.751253455,1.65319691,1.441610217,1.656376234,1.180279456,1.250670755
1.391275601,1.066200832,1.214151547,1.516081689,1.678099196,1.539334919,1.560809966,1.512134945,1.587567466,1.452215222,1.191510067
1.498439655,1.325043275,1.298318456,1.586538747,1.691907337,1.572371737,1.758850845,1.753658826,1.726682518,1.629781391,1.323213201
1.35652633,1.330740232,1.228927094,1.488973342,1.647700681,1.452475763,1.723018967,1.621697359,1.550761442,1.398041296,1.299432802
1.365830793,1.341374812,1.312366665,1.83464564,1.710316717,1.822927782,1.702062634,1.426792171,1.589455825,1.517368362,1.293173758
1.773177921,1.668714938,1.60333799,2.272880097,2.13050232,1.973191694,2.026201156,1.489193241,1.782651833,1.873877054,1.625527688
2.088326782,1.758448142,1.658344483,2.488553288,2.242201311,1.958496982,2.249374099,2.041923345,1.978038072,1.952925912,1.653103811
2.061544176,1.56792335,1.480762664,2.224840853,2.075355864,1.929103966,2.098652703,2.149152799,1.879073888,2.063611339,1.453333524
2.114440389,1.558277897,1.475455665,2.173392383,2.043687263,2.059706107,1.943099154,1.973845781,2.101791268,2.055409167,1.489030009
2.311692284,1.718675632,1.632122596,2.352732854,2.285154049,2.366300035,2.21666845,2.437585391,2.332130339,2.138049689,1.877740503
2.612907367,1.925536689,1.817309147,2.569697204,2.533468521,2.610926025,2.518755739,2.833789047,2.535340388,2.303067037,2.072905774
2.95012498,2.249540161,2.046519866,2.890100749,3.033642336,2.936836098,2.791331986,3.2411685,2.858094895,2.540598439,2.063319278
2.821181479,2.324656867,2.764300298,2.915960434,2.939827456,2.606997533,2.751657062,3.183265864,2.812754802,2.39779345,2.291143058
2.838588682,2.350033602,3.179031203,3.131506476,3.181524236,2.423973263,2.945996194,3.141804528,2.89558807,2.411631913,2.402576157
3.544318877,2.750634758,3.471482377,3.609889939,3.544441889,3.42681883,3.362782956,3.737997261,3.507060218,2.902937196,2.927295929
3.454370158,2.528919487,3.198138319,3.396138278,3.170724016,3.458410224,3.098017197,3.605921852,3.338900864,2.616274348,2.77778888
3.004494462,2.109994908,2.846034654,3.020622653,2.83229658,2.988166354,2.578419133,3.172999332,2.723291701,2.305761993,2.442815055
2.494972791,1.85556252,2.722979573,2.788092073,2.565823748,2.787254023,2.371177919,2.634512949,2.541314027,2.26385521,2.174234365
2.30717616,1.639933333,2.502445166,2.649967479,2.493726913,2.571332465,2.17905357,2.648545395,2.417335844,2.035915774,1.979581195
1.930342288,1.411620283,2.407149353,2.127691548,1.978568669,1.835524984,1.934138769,2.233421591,2.041762969,1.598720649,1.584435495
1.333099684,0.93639569,1.530223106,1.520607938,1.338037268,1.466790392,1.301596169,1.550393991,1.501391163,0.998555745,0.99904833
1.732484479,1.315799547,1.956567387,1.897708417,1.707636815,1.952876492,1.66180752,1.846198393,1.80768975,1.572452794,1.373499975
2.459683162,1.97996484,2.627411226,2.621048255,2.541672029,2.796556941,2.480454957,2.721308479,2.566329687,2.368232606,2.104014272
3.536547828,2.85911942,3.768558494,3.808331287,3.718779958,3.428249932,3.653749521,3.703393296,3.590361334,3.327332889,3.15691878
4.615345706,3.529736841,5.020059599,4.858458233,4.709924026,4.617807868,4.561589236,4.821628089,4.602638181,4.268747056,4.160497357
4.066866813,3.243628696,4.693301788,4.476261068,4.260196676,4.159457021,4.113504249,4.339090255,4.385077078,3.914974902,3.858546291
3.463544302,2.93445357,4.382753732,3.791734518,3.74185161,3.333029256,3.555166065,3.797625634,3.693739131,3.244142989,3.436094533
2.867096467,2.576508077,3.478327559,3.204901833,3.083028828,2.855742184,2.851888548,3.194831108,3.080967821,2.649138767,2.737240344
3.472580185,2.73606117,3.683541131,3.603926503,3.466700715,3.382795549,3.156207437,3.548824626,3.600679766,3.062795443,3.012476715
3.980781693,3.066714207,4.122420134,4.013267829,3.944257219,4.129742526,3.62491365,4.078748671,4.049771619,3.439061473,3.356744905
3.15368627,2.499152397,3.391334355,3.356470844,3.287907354,3.298272775,3.044816025,3.32305484,3.139272957,2.728630343,2.724317134
2.52537261,2.17216525,3.034443766,2.871715024,2.814864325,2.338260848,2.560836418,2.948722029,2.775596852,2.371127081,2.288107484
2.369650078,1.991331735,2.934072336,2.654409017,2.602609216,2.13400872,2.277869648,2.78837186,2.544647545,2.287322993,2.093940021
2.731367054,2.19068176,3.233001468,2.860463899,2.725427096,2.76091185,2.552446601,2.914117723,2.658327693,2.437294278,2.231123948
4.185486558,3.368826601,4.701963845,4.279559437,4.17975726,3.896075813,3.885263136,4.386810762,4.058702164,3.682353709,3.551186158
4.471313563,3.452172327,4.71815319,4.412932418,4.421185625,3.884983044,4.180344205,4.642009289,4.286215352,3.914159828,3.835441527
4.492762327,3.456504873,4.982117643,4.630236508,4.807647454,3.979939067,4.18017546,4.667855635,4.411621237,3.992073761,3.983917016
5.120835447,3.889677315,5.387769528,5.284572973,5.388807922,4.550618584,4.925009395,5.190827836,5.086417342,4.483146809,4.526323047
4.935979334,3.541199796,5.362592441,5.202247825,4.946716352,4.771241863,4.610523246,5.462291119,4.849167134,4.102331191,4.33819776
4.619122975,3.474072965,4.960985721,4.713383271,4.432258478,4.488882333,4.237190897,4.812226219,4.132721415,3.903859866,4.28792856
4.676838144,3.792038543,5.494402727,4.899513629,4.839619806,4.870270435,4.52528351,5.005526613,3.771290301,4.017484931,4.54863127
5.09662615,4.039961541,5.734711863,5.462872875,5.382697448,5.2351458,4.973051645,5.436670336,5.070391811,4.691924223,4.977830523
5.686859473,3.996112585,5.977343341,5.70917601,5.516438928,5.849090634,5.158052707,5.712645088,5.40186706,4.949506214,5.14870766
6.742394802,4.80722859,7.104663508,6.77029752,6.605811186,6.940108841,6.172486226,6.923174464,6.412126329,6.5072223,6.084243477
6.885695491,4.857646925,7.551510763,6.908883578,6.759474325,7.316790674,6.264003202,7.376988074,6.550577592,5.961341185,6.171100319
4.783235452,3.4930125,5.48157509,4.82698259,4.995871067,5.060493436,4.630245507,4.818273048,4.855685497,4.196341016,4.540266986
5.402754271,4.497375397,6.315136652,6.034600138,6.050717463,6.074860147,5.663994573,6.308818282,5.879593021,5.219833872,5.428608034
4.87767721,4.179957136,6.018328681,5.444126368,5.458561366,5.048265761,5.056332178,5.369552659,5.372012158,4.757886392,4.923849786
3.892579633,3.377394988,4.648818283,4.307065546,4.43826,4.2267283,4.060261364,4.446402803,4.279083893,3.802371112,3.922430983
3.595014314,3.302914378,4.449506791,4.031905645,4.073870535,3.639946601,3.704227209,4.089008125,3.866472801,3.342297214,3.635574609
3.966405997,3.658711175,4.683039309,4.405319755,4.490016218,4.36108264,4.066329777,4.200152339,4.296979161,3.855712899,4.066596417
4.934985676,4.269534579,5.653085986,5.520063806,5.50454412,5.436452623,5.166315319,5.675316923,5.294233018,4.933103482,4.992705327
4.515622271,3.829680991,5.167329055,4.993347121,5.194738689,5.140226589,4.819882096,5.144469686,4.720466639,4.578659287,4.550834453
6.214916888,5.42576765,7.365126713,6.936914302,6.800753129,6.791980012,6.316363345,7.360589631,6.629797162,6.00986591,6.194316893
6.065515227,5.141818096,7.072987761,6.733936345,6.467678922,6.053268402,6.024205868,6.666226697,6.478259817,5.937271938,5.692968635
6.514310362,5.123553468,7.13824158,6.879587262,6.877947664,6.307911061,6.427663745,7.192807748,6.4605606,6.070405895,5.975390218
5.738689637,4.50472086,6.31659083,6.045081915,5.876685501,5.209356413,5.52772251,6.193505987,5.870774967,5.405354163,5.183946845
7.023227324,5.816228895,8.175435385,7.391526497,7.397676921,6.789951412,6.726865377,7.567069722,7.366237645,6.660385494,6.550154188
4.810480144,3.728784086,5.176614307,5.091952623,4.866142792,4.767929533,4.525381949,5.288586069,4.666600641,4.284982843,4.435907164
3.41040272,2.611002857,3.702355022,3.56668464,3.453017193,3.28371451,3.287427502,3.589571957,3.364729225,3.145386909,3.068074855
4.212774576,3.416395463,4.738403246,4.395137256,4.25884023,4.462469794,4.110394389,4.509056458,4.219688956,3.910085215,3.850218771
3.515121046,2.775279889,4.085541708,3.660828004,3.624638147,3.720026834,3.487898855,3.827081282,3.642585554,3.138043926,3.223633749
4.376614676,3.544536407,4.882795533,4.514793643,4.460307896,4.264317258,4.294387948,4.699182715,4.483348114,4.075163163,3.991257816
4.321623806,3.421057999,4.658905472,4.323536569,4.352812696,3.812041197,4.230559215,4.526396379,4.462643781,3.897450707,3.926069596
4.823280687,3.822894681,5.209668313,4.941237959,4.943901234,4.107187463,4.747756928,5.024139283,4.899562412,4.434296942,4.373384281
5.44721744,4.298968231,6.10450564,5.228388162,5.5281998,5.051016631,5.177027342,5.745249395,5.470532535,4.834894512,4.949117793
4.589589279,3.53188316,4.762548009,3.232426791,4.653153134,4.15774991,4.421737467,4.761171388,4.763440945,4.274430181,4.132781959
6.786471514,5.363094814,7.850784361,4.52427064,6.862905646,6.386892125,6.456743316,7.157478483,7.05018515,6.034349512,6.182833694
8.989611604,7.361573488,10.07806087,6.390015556,9.096710122,9.069211195,8.648172779,9.842617944,9.023405577,8.513725321,8.338717258
7.744077354,6.085075293,7.685405685,5.37147016,8.14165625,7.351605818,7.68141379,8.291879469,7.899378969,7.756694016,7.161695413
6.396229731,4.708173011,7.110578454,4.241966967,6.588709173,5.906348143,6.197636949,6.942730166,6.37162388,6.112047024,5.854336772
7.33909076,5.450925096,8.510041857,5.01695176,7.550102872,7.228303505,6.925868533,8.173425987,7.475083718,6.594249162,6.756843771
6.987416782,4.879415435,7.336621402,5.441389229,7.071402127,7.088867783,6.668275549,8.028028089,7.080135994,6.553527483,6.416791636
6.982080108,4.753309264,7.750163468,6.126385665,6.994439829,7.040313625,6.673960939,7.742254843,7.132596176,6.261672093,6.414623844
5.722428965,3.706861676,6.876087882,4.959841178,5.846138907,5.52893706,5.313429442,6.207077272,5.730641681,5.011667836,5.220586032
6.136091003,4.011380036,7.364904459,5.340739849,6.06555893,6.234896601,5.701974048,6.954554724,6.252341807,5.326128117,5.596012219
4.408008917,2.713856855,4.967314159,3.725077198,4.422597703,4.378505326,3.804474589,4.724855556,4.509738547,3.919356699,3.979568133
2.467394193,1.295170926,3.103839014,1.943917122,2.485097786,2.44243569,2.122243703,2.713117141,2.577766989,2.175873633,2.101113512
3.165803269,1.889871814,3.914953797,2.56785836,3.043463769,2.77507784,2.986983801,3.488637927,3.192101404,2.842671796,2.75626563
2.147762766,1.22480691,2.581400096,1.691037335,2.248487696,2.163628887,1.952862334,2.501784635,2.29047967,1.951077264,1.823024017
3.157026687,2.237412934,3.053306519,2.566171727,3.111480305,2.873696741,2.84446837,3.242604383,3.172329112,2.871920341,2.743838322
2.993011734,2.425184839,2.951320633,2.472587505,3.151275205,2.247964041,2.859757345,3.132513866,3.059508443,2.670848377,2.688672855
3.060888273,2.557329947,3.785195418,2.53440862,3.309491749,2.50823308,2.888135793,3.244027108,3.060908238,2.748179742,2.726423076
2.778698999,2.561188155,3.781018927,2.524717491,3.241194622,3.127062556,2.970324724,3.334687767,3.196362307,2.799339694,2.701897415
3.011819715,2.931708718,4.206911334,2.987757456,3.667915127,3.689878251,3.550372671,3.955271066,3.808272244,3.357044797,3.207831665
3.984061607,3.54330144,5.373619489,3.651972483,4.477361638,4.3466139,4.125781158,4.811428964,4.623533504,4.173427841,3.895427079
5.761053489,5.036064922,7.288255636,5.24027089,6.366986846,6.144842766,5.974040209,6.949793031,6.245399501,5.804583056,5.643683715
4.454679365,3.834961389,5.772974358,3.695654165,4.973673182,4.900919641,4.681559918,5.198520234,4.604291105,4.25400237,4.365270667
4.758292026,3.986517867,5.920825215,4.353276344,5.316997911,5.199091494,5.000555368,5.483825432,5.262988532,4.882574729,4.631119136
6.093242804,4.955874672,7.328860751,5.62690723,6.627142854,6.863307254,6.318442617,6.99942958,6.357172221,5.881881595,5.863455852
4.304038032,3.247848536,4.884174772,3.74941198,4.558120517,4.570407652,4.136003483,4.857823201,4.537398498,4.135192675,3.973073831
4.065976693,3.035834258,4.592177147,3.436702466,4.226866981,3.692803514,3.889950607,4.421292013,4.176123733,3.792466231,3.694341947
5.662145281,4.430137096,6.574456485,4.909051145,5.950642318,5.421605461,5.428126789,5.911633076,5.659851137,5.369557194,5.235732531
5.723901816,4.504188166,6.468543351,5.058297015,6.212790976,5.673343077,5.408687283,5.938945633,5.96235926,5.295210903,5.31806632
5.11759144,3.808161853,5.594765016,4.45311921,5.385139787,5.190838978,4.925253389,5.312933859,5.237266946,4.516954913,4.75736474
7.040795432,5.33988031,7.628417696,6.277126294,7.390485522,7.523773445,6.843598057,8.05355892,7.210175501,6.221910709,6.526181945
7.772077983,6.275533134,8.592765199,6.978789387,8.196267256,7.904258253,7.682878775,8.759612142,7.831859368,7.427454225,7.44930013
6.951414949,5.349347972,7.679035198,6.024666184,7.254688949,7.165644417,6.813559145,7.739417373,7.247007202,6.881989935,6.427001707
6.260374628,4.682872106,7.276273252,5.291046516,6.524566949,6.654803627,6.164269257,7.329328601,6.336779594,6.36215884,5.747914557
7.273259991,5.453388552,8.725269728,6.338307016,7.748768544,6.77940413,6.942363756,8.135135174,7.495158748,7.012490133,6.675740292
5.764807254,4.185839656,6.572037228,4.944004263,6.109298234,5.854040555,5.499279949,6.459370679,5.82392545,5.334940037,5.221370105
5.025076994,3.546096975,5.775619584,4.275383455,5.136853942,4.896601736,4.750608352,5.779548137,5.067218107,4.61506366,4.565575908
3.837839047,2.714706114,4.261135187,3.148712924,3.989098323,3.865061734,3.578490845,4.179324132,3.825229816,3.751948174,3.402140111
3.852508066,2.960072916,4.20076747,3.173189436,4.023561313,3.944407985,3.666752626,4.242840552,3.980691968,3.609840879,3.424849968
6.392997575,4.866203494,6.901238894,5.385929463,6.497367094,6.287398942,6.045498709,6.943770648,6.543425851,6.193643345,5.661191699
7.888392838,6.242553627,9.464403339,7.242074809,8.474848938,8.770896255,8.081888736,8.781694415,8.447773695,8.27099303,7.526542167
7.565662709,6.449794468,9.396347525,7.729724636,8.773606487,8.433878159,8.180939124,9.515177272,8.6958964,8.831461233,7.835392067
6.847628093,5.725976267,8.688823514,7.018120289,7.852301946,7.999064362,7.342613189,8.663882179,7.696601203,7.425978817,7.083984243
4.497725548,3.632424842,5.97335218,4.66380036,5.241617726,5.390176941,4.996718441,5.963317015,4.990161558,4.879845745,4.690485097
4.617940757,3.904861336,6.067616392,4.886438935,5.538141791,5.92132937,5.175469445,6.276875724,5.570296011,5.141267068,4.910159849
3.608042849,3.532366158,5.505504926,4.22417734,4.889735323,4.858252605,4.4823626,5.628479108,4.787192067,4.773027844,4.261497934
3.773864628,2.881215012,4.557789854,3.465858862,4.140392519,3.933903941,3.627795958,4.407560956,3.934501381,3.994658887,3.519016046
4.426229352,3.211382445,5.405191949,3.801945152,4.565135236,4.360775422,3.856123015,4.69986033,4.332988138,4.143454635,3.884164746
4.242095463,3.008493261,5.306738195,3.628149792,4.379145515,4.259391027,3.441957143,4.287050403,3.943653284,3.825961619,3.635705851
2.964399087,2.099587664,3.698914156,2.599971265,3.229578858,3.124736012,2.356458783,3.223681786,3.080506159,2.617170141,2.605897225
2.472520051,1.782997071,2.902765705,2.078241029,2.612277771,2.453957451,2.201331787,2.612925264,2.671513425,2.252846011,2.06613889
2.79388505,2.19194897,3.483770315,2.449056815,2.96105576,2.674263599,2.575912931,3.155677755,3.090743473,2.571235498,2.220192592
3.031660128,2.638112355,3.943562944,2.782960156,3.293812559,3.306478528,3.067194102,3.593189073,3.315639737,2.7393134,2.611399491
1.436844782,1.350893801,2.231550493,1.489548643,1.924855397,2.188391153,1.529390898,1.952973573,2.052523493,1.399241395,1.384000344
1.516700631,1.491766933,2.446340647,1.611943176,2.065191755,2.274065669,1.667592899,2.084829302,2.159344446,1.631264158,1.530652301
2.498993391,2.446820397,3.843633063,2.612972988,3.135610171,3.221574559,2.610463976,3.335899617,3.333790508,2.600127482,2.445579152
2.532616728,2.446677819,3.873815719,2.532794739,3.180453546,3.32940851,2.53928047,3.334224761,3.219261246,2.641230628,2.549283314
1.936580277,1.813516108,3.108322102,1.685250734,2.41257001,2.719126529,1.826346461,2.625612675,2.570178641,2.088045364,1.950965881
1.337452404,1.221416222,2.158866936,1.104896662,1.789524624,1.837302791,1.220314207,1.987994136,1.866741335,1.434158458,1.265668442
3.118284526,3.02763168,4.107870029,2.568313885,3.709822332,3.699275103,2.968009268,3.729491117,3.854894928,3.499668859,2.944124945
3.670857991,3.511617585,4.990611587,2.748278842,4.619413633,3.91577602,3.293697552,4.37261367,4.163729428,3.719081019,3.489484956
3.849963784,3.230421557,4.975671803,2.895487159,4.224677501,3.90781247,2.746955663,4.27523385,3.784129889,3.48739091,3.436319073
3.341882937,2.83639843,4.385617243,3.057763769,3.675906393,3.644737796,2.450942621,3.873610936,3.579745107,3.043619325,3.086648192
2.683725119,2.381159839,3.784562682,2.577409248,3.03669621,3.006189478,1.957727652,3.320320787,2.984791808,2.743814492,2.506372569
2.873714163,2.305781557,3.650991144,2.481837453,2.928439148,2.845102281,1.993309193,3.245138906,3.100761544,2.474665147,2.425789566
2.19256081,1.956303634,3.06454111,2.035286196,2.424279232,2.68552258,1.775723167,2.822678546,2.699819825,1.993473793,1.960522768
2.153716063,1.97406509,3.024482476,2.002070435,2.418864543,2.549051892,1.849589803,2.760095539,2.613470253,2.143049071,1.999681853
2.39176549,2.132504116,3.395484485,2.2312409,2.681721685,2.767700706,2.215597206,3.05681924,2.981029832,2.38219675,2.24468611
2.668977555,2.370358723,3.812276042,2.473944773,2.965629241,2.981143805,2.451721042,3.20466706,3.169456798,2.585341026,2.462802188
2.259063871,2.016375437,3.334124895,2.096079408,2.486916448,2.595456096,1.933498092,2.831464531,2.573703669,1.958156371,2.039048844
2.153586119,1.812462786,3.032574721,1.897427086,2.252033611,2.3337957,1.745871343,2.634286144,2.413039805,1.87397498,1.812280138
1.760163966,1.363132564,2.502159953,1.504917625,1.757400854,1.756434614,1.342741069,1.868249657,1.941983011,1.617966032,1.41265049
2.037430874,1.678419354,2.718551484,1.787709652,2.034385494,2.001256265,1.730500993,2.232704321,2.306626292,1.993430165,1.718659434
2.449248535,2.005590339,2.868742902,2.36905859,2.474754152,2.348460214,2.090958699,2.890624394,2.716092081,2.300598299,1.994661655
3.060636732,2.449591033,3.860749954,2.943698708,3.142859337,2.75631523,2.520394491,3.497432229,3.360277633,2.735661277,2.597136828
2.822722198,2.255198739,3.96897737,2.83672529,2.94572007,2.479332028,2.203932511,3.158965162,2.96823905,2.475388791,2.414022333
4.000933755,3.345579787,5.158490283,3.793187676,4.08445014,3.905909359,3.215154143,4.332844201,4.308556936,3.633451361,3.467260745
4.450935904,3.546513114,5.338444606,4.409743735,4.543325678,4.411845112,3.616756092,5.169262379,4.760086189,3.810616497,3.902417671
3.380256935,2.582881274,3.877658436,3.109566789,3.474676729,3.351919053,3.076719986,3.938975586,3.587493754,2.465527863,2.916291931
3.103797504,2.44104676,3.778682723,3.121871967,3.317438647,2.878795655,2.974664017,3.737774522,3.367039324,2.718985997,2.642331754
2.224492552,1.762084717,2.97711365,2.395345709,2.438681231,2.374763921,2.110927994,2.661117095,2.497017497,2.120978894,1.824267014
2.752775627,2.237961561,3.627146683,2.594555456,2.806115823,3.030711979,2.633844444,3.191920658,2.986223839,2.904873195,2.303170788
3.388105525,2.727497478,4.405525051,3.208503177,3.403043018,3.685430686,3.142058229,3.627481912,3.637299137,3.14912127,2.821974856
5.224698678,4.053314344,6.320493529,5.339218603,5.718107761,5.05902331,4.781009288,5.842264823,5.521575262,4.773748416,4.545949538
5.594886228,4.150028539,7.026399299,6.045373219,6.094078533,5.024982962,5.271829105,6.524956535,5.771820382,5.288198888,4.880742081
5.281653682,3.897918437,5.943387505,5.120790905,5.977041226,5.409800391,5.084932741,6.098685383,5.480243496,5.069990719,4.61513417
5.364733511,4.212591609,6.818925844,5.227460005,5.828399481,4.903397345,5.160762232,6.212214828,5.612470392,4.97433256,4.684362129
4.742984027,3.724929775,6.019835738,4.652706134,5.092143892,4.017069748,4.421927671,5.409183496,4.908348008,4.442281512,4.10732985
4.632815976,3.52393303,5.602817335,4.801286141,4.996743664,3.686530896,4.236713615,5.383278135,4.740436935,4.372273804,4.08090718
4.131620179,3.092788769,5.228022439,4.221553618,4.696533498,2.50352583,3.739650739,4.490055587,4.17156299,3.96905207,3.762082361
2.84810626,2.057856276,3.738710964,2.715291104,3.232607067,2.609322355,2.570982313,3.176455883,3.123374376,2.494153676,2.404063084
2.778870784,2.073206186,3.755835374,2.585641666,3.144810453,2.900157239,2.590942753,3.262475315,2.99336754,2.360584595,2.487684194
2.817534346,2.108879372,3.536231406,2.796250502,3.027672573,2.861854209,2.622990914,3.335109316,2.962804838,2.537530974,2.363273308
2.900465784,2.238738375,3.673223401,2.665258004,3.011871391,2.9300974,2.792747985,3.209861567,3.119973069,2.676387536,2.423178954
2.919838151,2.39028805,3.806908476,2.486945944,3.207885549,2.869082168,2.796846482,3.395702207,3.122894584,2.702676838,2.458478261
2.581251866,2.037618567,3.242784649,2.532485074,2.939941202,2.470722278,2.418430077,3.068468791,2.732993626,2.49535814,2.058743965
2.242557639,1.759644639,2.905947432,2.061133787,2.671513214,2.503448706,2.153114166,2.78525018,2.5204403,2.23136959,1.774182543
1.516725092,1.161082197,2.220005723,1.413096937,1.940894327,1.704923134,1.51083041,2.004072189,1.764829957,1.665238902,1.15494938
1.500810862,1.111939274,2.290969257,1.371450539,1.819366348,1.601250568,1.599862532,1.765461874,1.825145562,1.578028981,1.079616245
1.776610424,1.387981171,2.675647808,1.680796197,2.101669388,1.841782353,1.886065666,2.100520215,1.907354249,1.862004416,1.413110779
2.245543212,1.839362504,3.182972139,1.870715742,2.511496478,2.27036389,2.181250897,2.598864537,2.298803005,2.400985759,1.887849882
1.972841414,1.596640392,2.857940922,1.845566086,2.31100287,1.939851306,1.840466976,2.424817577,2.078175675,1.998627997,1.632110618
2.120247529,1.768205818,3.021491026,1.943661236,2.451985528,2.278341638,2.062750263,2.442038179,2.286151759,2.148239169,1.840420966
1.314157,1.126728191,2.205674482,1.577870267,1.818237075,1.625539595,1.343822278,1.665551298,1.566080898,1.302912257,1.193074108
1.864787927,1.597081435,2.752335978,1.695021425,2.277267952,2.197710305,2.04418523,2.451606632,2.297665158,2.011609936,1.501395111
2.405065754,1.983141281,3.317822425,2.135560345,2.560255198,2.634096833,2.646754923,3.049595011,2.635287727,2.555631278,2.005962817
3.23649391,2.484585632,4.066034334,2.869547407,3.377109697,3.418806152,3.542179018,3.887336305,3.593253963,3.457946022,2.666593526
2.658693823,2.00836902,3.419241269,2.499661084,2.917614215,2.664271786,2.804641474,3.354188299,3.065313361,2.797439494,2.279293242
2.792072542,2.318258033,3.674281535,2.875348159,3.051712881,2.741413299,2.982692275,3.558512495,3.19377579,2.914806613,2.398613033
2.26571151,1.863934571,3.084706995,2.042766158,2.749114768,2.342915602,2.454998354,2.791327971,2.62603324,2.334989885,1.938369671
1.742419214,1.404274329,2.569781582,1.679615145,2.142301542,1.731183819,1.888426335,2.08713805,1.888663143,1.686314313,1.486317277
1.371246807,1.163434733,2.223194587,1.293159357,1.597298881,1.274710627,1.445944317,1.90376618,1.489876254,1.205490339,1.239492339
1.381368785,1.246966965,2.22275596,1.274386134,1.497937594,1.240850754,1.474573693,1.965579757,1.369290797,1.17691562,1.172195011
1.358528272,1.189454538,1.809923216,1.389527733,1.318071073,1.395472699,1.516926313,1.874608106,1.38323734,1.175897591,1.126252197
1.63238774,1.364675991,2.256894993,1.554443155,1.824104487,1.960733325,1.66050723,2.116280332,1.812704103,1.534372283,1.354221007
1.290178919,1.047752655,2.038146674,1.226846838,1.348146965,1.605305288,1.41325173,1.584238664,1.471317138,1.261345352,1.045780907
1.384829045,1.138802562,2.163387308,1.135616263,1.342644008,1.672921157,1.403902557,1.710048055,1.494234436,1.211884208,1.153267055
1.309758817,1.101930349,2.141233775,1.507081456,1.542791701,1.515610972,1.443624504,1.573931937,1.505721293,1.378381418,1.354349044
1.113020197,0.991215989,1.990174048,1.182079228,1.292892097,1.239043992,1.299206483,1.463957097,1.380734582,1.296264082,1.13847358
1.20013271,1.027232373,2.088752513,1.288631464,1.289770232,1.302652095,1.382636183,1.691099881,1.499288022,1.358091241,1.152633602
1.331565872,1.186745161,2.298292337,1.532841377,1.497615938,1.337712332,1.422314184,1.787659401,1.683037339,1.395978604,1.320359478
1.590013076,1.432346733,2.518744685,1.505503847,1.784776446,1.795058124,1.688754219,2.163086145,2.032817385,1.786420818,1.621475803
1.775458008,1.559875411,2.698915616,1.804331246,2.226622244,1.911095817,1.985128788,2.450946391,2.148636028,2.048985062,1.690959923
1.248765164,1.140512473,2.154245571,1.109172678,1.64532846,1.370975317,1.444207932,1.815019523,1.556193392,1.495232992,1.153847365
1.364598074,1.298666916,2.331891673,1.482612873,1.721096183,1.466369306,1.484614405,1.969726916,1.687703271,1.628642964,1.352580417
1.004134265,0.954674243,1.78869771,1.160356922,1.323287953,1.236157074,1.151130171,1.33870036,1.279225356,1.180820048,0.910879939
0.697280915,0.700540193,1.333484186,0.864551328,0.954756184,0.927660317,0.811364979,1.094554325,0.995271927,0.870650898,0.606345048
1.409820327,1.423908095,2.478377116,1.57495848,1.765022405,2.013713578,1.484439603,1.989844892,1.774023621,1.54228613,1.255907538
0.894606121,0.936864851,1.646156949,1.240149465,1.168296611,1.242752934,0.962707716,1.392337723,1.197130295,1.085029154,0.875118424
1.668931436,1.708431354,2.691014016,1.632372341,2.081111762,2.163261351,1.954342675,2.159831152,2.177663583,2.065333234,1.661514149
1.709112552,1.70052019,2.991723717,1.844760854,2.191363146,2.12167096,2.071982196,2.352001031,2.192351098,2.073386528,1.659694424
1.809491415,1.674519923,3.053444641,2.073715477,2.305138544,2.029855239,2.078036977,2.400937709,2.296102319,2.042726269,1.812968783
1.551321739,1.384074676,2.618371154,1.795238116,2.008784037,1.838298496,1.707092467,2.079262425,1.970989149,1.614301364,1.515691543
0.479991879,0.411055202,1.089307466,0.583806949,0.700999013,0.664402563,0.585432707,0.717645665,0.699260165,0.490099389,0.464428496
0.590773765,0.4834408,1.149802922,0.543969233,0.725960548,0.720742767,0.657565366,0.68141853,0.738600534,0.57582765,0.5534411
0.580476659,0.53504646,1.002792952,0.605958399,0.654309911,0.769994574,0.596373927,0.550247957,0.673050455,0.556417472,0.560318816
0.322161192,0.329603335,0.546551844,0.418846075,0.37786693,0.39644173,0.33989765,0.289635242,0.402985878,0.322406752,0.318112317
0.459864757,0.456915409,0.718053761,0.446605436,0.486976231,0.519894557,0.466889351,0.552454061,0.532658021,0.502052068,0.431980445
1.096943728,1.040537654,1.754356806,0.935258166,1.091274852,1.280988196,1.134443634,1.276087303,1.191892543,1.167934334,0.895124031
0.926228748,0.906258898,1.644003463,1.030353731,1.142550017,1.217469694,1.10080752,1.180495426,1.044665999,1.227861701,0.931625161
0.712131005,0.643832962,1.168629573,0.687685203,0.915149714,0.911768167,0.857561598,0.881955979,0.829265738,0.918211266,0.718788878
0.842983952,0.746331421,1.481378031,0.858741101,1.053207051,1.108231073,1.018341104,0.999725302,1.046444344,1.000691058,0.728684312
0.586258909,0.522598945,1.007081983,0.622283487,0.704247249,0.738575132,0.667873761,0.680381283,0.695370055,0.736349415,0.459953465
0.27531636,0.305699959,0.521217695,0.315575174,0.371925537,0.376159465,0.363121206,0.372457857,0.386722134,0.385974617,0.245799195
0.355098634,0.385113752,0.646240291,0.328626792,0.454361643,0.37606357,0.42912905,0.506817018,0.4471673,0.498650287,0.335611253
0.520762563,0.526047421,0.786068735,0.524663641,0.625838372,0.58266205,0.542110488,0.658325231,0.629454656,0.624477809,0.305786507
0.466330389,0.465800677,0.675941181,0.501608884,0.542772062,0.529381385,0.459554536,0.566643163,0.519862077,0.57475248,0.377772822
0.402724027,0.410914831,0.57948212,0.35780953,0.435587223,0.461243873,0.409272934,0.496946987,0.445243718,0.499235589,0.347168858
0.288986089,0.315147902,0.426315893,0.273195685,0.314358767,0.326195017,0.30514598,0.332603267,0.323627429,0.35372523,0.246588666
0.273661279,0.312092029,0.381535153,0.255818382,0.312936077,0.279675153,0.273851906,0.31232433,0.290834423,0.30234665,0.242197449
0.215718491,0.256729678,0.315168629,0.216788819,0.240819217,0.21290692,0.224428638,0.270337218,0.235663386,0.235156228,0.188878081
0.253013472,0.292540694,0.413371942,0.253194231,0.259496417,0.262542329,0.284714635,0.357941036,0.26990123,0.296193619,0.199550916
0.283333446,0.281605942,0.487534065,0.2473138,0.285726976,0.301240969,0.328014587,0.398538337,0.306981034,0.294527665,0.152657179
0.253133045,0.281588761,0.393636528,0.289531313,0.279937571,0.301982746,0.263794949,0.361764027,0.272063146,0.263785474,0.187754695
0.246233367,0.293442333,0.371935238,0.265862206,0.282408056,0.272292863,0.233995208,0.343038704,0.262630697,0.312631434,0.221739097
0.260646526,0.351843969,0.442601997,0.276882433,0.336527695,0.336039564,0.305084117,0.400744311,0.316542224,0.374882697,0.254838706
0.397924286,0.449722062,0.570532164,0.324748222,0.445239037,0.46342839,0.406012477,0.547874153,0.362420161,0.422247229,0.284788791
0.316534788,0.32761031,0.409327991,0.244813972,0.331682115,0.340596335,0.306746612,0.466672946,0.265500984,0.300262302,0.218061588
0.325617252,0.342333349,0.450595579,0.258694978,0.328687204,0.358012633,0.331200598,0.443792667,0.312938568,0.354707372,0.232512715
0.278083178,0.324833007,0.508706582,0.246876691,0.284611856,0.346703114,0.317621379,0.380948629,0.309355981,0.315298934,0.226244391
0.32753819,0.368490028,0.538906725,0.264291041,0.301683964,0.394206062,0.351125472,0.411213032,0.37342662,0.315855748,0.254277422
0.25602565,0.281530034,0.397334182,0.216302429,0.238024749,0.324602877,0.287015558,0.316011128,0.290919539,0.26740067,0.175345274
0.208432045,0.228945029,0.297924296,0.144586641,0.200072081,0.269140676,0.247416598,0.262890286,0.236117483,0.218422194,0.145059986
0.252132949,0.288665006,0.367484247,0.206887184,0.266642354,0.370488365,0.278748366,0.349689519,0.272293102,0.238541765,0.184415418
0.226811968,0.262749167,0.328243438,0.207020335,0.234330973,0.331850181,0.242585323,0.316814357,0.235483212,0.195171652,0.174953142
0.348360262,0.384280722,0.424016105,0.321745187,0.340603335,0.471638432,0.35512243,0.41450664,0.340963429,0.32402243,0.293226019
0.207716728,0.255540464,0.29715419,0.194040939,0.211575073,0.352785606,0.214089809,0.268825778,0.208489004,0.194868789,0.158732291
0.277993524,0.409749746,0.501018084,0.286949663,0.358966132,0.557701041,0.358954151,0.433362772,0.308620817,0.322731432,0.258705093
0.294288098,0.422609705,0.520010373,0.228252917,0.349462919,0.575037921,0.342118726,0.430229281,0.305639159,0.360078348,0.179560466
0.284126778,0.374672044,0.489886282,0.253425813,0.321065377,0.507543792,0.324528279,0.447002607,0.32909443,0.361252928,0.181974176
0.6604057,0.615775461,1.018409227,0.449660447,0.654021741,0.878715225,0.724155691,0.891203671,0.743657386,0.76746509,0.247306558
0.889720574,0.532820917,1.315643332,0.734574179,0.826544574,0.861632075,0.808432889,1.053845802,0.898059729,0.964875819,0.357564991
0.785114983,0.424573025,1.191202839,0.665543347,0.775530079,0.678821747,0.736855165,0.87480835,0.846522657,0.84700989,0.456315927
0.548146402,0.291594456,0.873989034,0.591233387,0.572536799,0.456135551,0.496529568,0.625584278,0.592168298,0.593354666,0.272169829
0.326456494,0.22339424,0.584796908,0.37264348,0.357457514,0.280823954,0.314313977,0.318194702,0.356333436,0.335320628,0.129079814
0.251862022,0.199623251,0.400163835,0.252589347,0.240460189,0.202735908,0.231670851,0.230990054,0.254445084,0.243632683,0.122430364
0.329083846,0.290523939,0.503777293,0.245528218,0.286631071,0.29670455,0.31740803,0.387640985,0.317396007,0.350951032,0.216182912
0.47414535,0.415187828,0.73323038,0.261882672,0.426449928,0.510280813,0.478666564,0.600717486,0.468652901,0.546576936,0.213386887
0.236202235,0.208408052,0.465746711,0.243748545,0.263444228,0.248235612,0.256677772,0.306530038,0.256782696,0.251234059,0.089990033
0.229626704,0.222493202,0.400651984,0.238543593,0.252559704,0.23887962,0.260587939,0.30488937,0.269944726,0.259691673,0.128333268
0.270387683,0.249887505,0.379838621,0.243085798,0.256344999,0.249411021,0.274010398,0.301683905,0.285072239,0.261716154,0.104236921
0.172347397,0.2018288,0.258007103,0.170469921,0.189871219,0.203760687,0.213720429,0.219994356,0.208767974,0.194275325,0.133977357
0.246670255,0.248158016,0.278600822,0.218895966,0.228932825,0.228575399,0.25386473,0.259186906,0.246836868,0.218964928,0.19271152
0.230423415,0.265381567,0.299069611,0.208061762,0.22498549,0.300398427,0.259787305,0.278945893,0.275285809,0.226825934,0.191997537
0.200002913,0.277304538,0.317054672,0.203338715,0.194228019,0.316941867,0.25526333,0.303579753,0.231696755,0.217646364,0.152788855
0.303984973,0.365227664,0.437174058,0.266931302,0.263796509,0.394105032,0.330876576,0.417639935,0.309119869,0.347405161,0.235611985
0.391581106,0.437110153,0.528249289,0.275885416,0.330684404,0.43525035,0.426787581,0.525059666,0.389877496,0.427713238,0.290736763