[True, True, True, True, True, True, True, True, True, True, True]
[True, True, True, True, True, True, True, True, True, True, True]
[True, True, True, True, True, True, True, True, True, True, True]
[True, True, True, True, True, True, True, True, True, True, True]
[True, True, True, True, True, True, True, True, True, True, True]
[True, True, True, True, True, True, True, True, True, True, True]
[True, True, True, True, True, True, True, True, True, True, True]
[True, True, True, True, True, True, True, True, True, True, True]
[True, True, True, True, True, True, True, True, True, True, True]
[True, True, True, True, True, True, True, True, True, True, True]
[True, True, True, True, True, True, True, True, True, True, True]
[True, True, True, True, True, True, True, True, True, True, True]
[True, True, True, True, True, True, True, True, True, True, True]
[True, True, True, True, True, True, True, True, True, True, True]
[True, True, True, True, True, True, True, True, True, True, True]
[True, True, True, True, True, True, True, True, True, True, True]
[True, True, True, True, True, True, True, True, True, True, True]
[True, True, True, True, True, True, True, True, True, True, True]
[True, True, True, True, True, True, True, True, True, True, True]
[True, True, True, True, True, True, True, True, True, True, True]
[True, True, True, True, True, True, True, True, True, True, True]
[True, True, True, True, True, True, True, True, True, True, True]
[True, True, True, True, True, True, True, True, True, True, True]
[True, True, True, True, True, True, True, True, True, True, True]
[True, True, True, True, True, True, True, True, True, True, True]
[True, True, True, True, True, True, True, True, True, True, True]
[True, True, True, True, True, True, True, True, True, True, True]
[True, True, True, True, True, True, True, True, True, True, True]
[True, True, True, True, True, True, True, True, True, True, True]
[True, True, True, True, True, True, True, True, True, True, True]
[True, True, True, True, True, True, True, True, True, True, True]
[True, True, True, True, True, True, True, True, True, True, True]
[True, True, True, True, True, True, True, True, True, True, True]
[True, True, True, True, True, True, True, True, True, True, True]
[True, True, True, True, True, True, True, True, True, True, True]
[True, True, True, True, True, True, True, True, True, True, True]
[True, True, True, True, True, True, True, True, True, True, True]
[True, True, True, True, True, True, True, True, True, True, True]
[True, True, True, True, True, True, True, True, True, True, True]
[True, True, True, True, True, True, True, True, True, True, True]
[True, True, True, True, True, True, True, True, True, True, True]
[True, True, True, True, True, True, True, True, True, True, True]
[True, True, True, True, True, True, True, True, True, True, True]
[True, True, True, True, True, True, True, True, True, True, True]
[True, True, True, True, True, True, True, True, True, True, True]
[True, True, True, True, True, True, True, True, True, True, True]
[True, True, True, True, True, True, True, True, True, True, True]
[True, True, True, True, True, True, True, True, True, True, True]
[True, True, True, True, True, True, True, True, True, True, True]
[True, True, True, True, True, True, True, True, True, True, True]
[True, True, True, True, True, True, True, True, True, True, True]
[True, True, True, True, True, True, True, True, True, True, True]
[True, True, True, True, True, True, True, True, True, True, True]
[True, True, True, True, True, True, True, True, True, True, True]
[True, True, True, True, True, True, True, True, True, True, True]
[True, True, True, True, True, True, True, True, True, True, True]
[True, True, True, True, True, True, True, True, True, True, True]
[True, True, True, True, True, True, True, True, True, True, True]
[True, True, True, True, True, True, True, True, True, True, True]
[True, True, True, True, True, True, True, True, True, True, True]
[True, True, True, True, True, True, True, True, True, True, True]
[True, True, True, True, True, True, True, True, True, True, True]
[True, True, True, True, True, True, True, True, True, True, True]
[True, True, True, True, True, True, True, True, True, True, True]
[True, True, True, True, True, True, True, True, True, True, True]
[True, True, True, True, True, True, True, True, True, True, True]
[True, True, True, True, True, True, True, True, True, True, True]
[True, True, True, True, True, True, True, True, True, True, True]
[True, True, True, True, True, True, True, True, True, True, True]
[True, True, True, True, True, True, True, True, True, True, True]
[True, True, True, True, True, True, True, True, True, True, True]
[True, True, True, True, True, True, True, True, True, True, True]
[True, True, True, True, True, True, True, True, True, True, True]
[True, True, True, True, True, True, True, True, True, True, True]
[True, True, True, True, True, True, True, True, True, True, True]
[True, True, True, True, True, True, True, True, True, True, True]
[True, True, True, True, True, True, True, True, True, True, True]
[True, True, True, True, True, True, True, True, True, True, True]
[True, True, True, True, True, True, True, True, True, True, True]
[True, True, True, True, True, True, True, True, True, True, True]
[True, True, True, True, True, True, True, True, True, True, True]
[True, True, True, True, True, True, True, True, True, True, True]
[True, True, True, True, True, True, True, True, True, True, True]
[True, True, True, True, True, True, True, True, True, True, True]
[True, True, True, True, True, True, True, True, True, True, True]
[True, True, True, True, True, True, True, True, True, True, True]
[True, True, True, True, True, True, True, True, True, True, True]
[True, True, True, True, True, True, True, True, True, True, True]
[True, True, True, True, True, True, True, True, True, True, True]
[True, True, True, True, True, True, True, True, True, True, True]
[True, True, True, True, True, True, True, True, True, True, True]
[True, True, True, True, True, True, True, True, True, True, True]
[True, True, True, True, True, True, True, True, True, True, True]
[True, True, True, True, True, True, True, True, True, True, True]
[True, True, True, True, True, True, True, True, True, True, True]
[True, True, True, True, True, True, True, True, True, True, True]
[True, True, True, True, True, True, True, True, True, True, True]
[True, True, True, True, True, True, True, True, True, True, True]
[True, True, True, True, True, True, True, True, True, True, True]
[True, True, True, True, True, True, True, True, True, True, True]
[True, True, True, True, True, True, True, True, True, True, True]
[True, True, True, True, True, True, True, True, True, True, True]
[True, True, True, True, True, True, True, True, True, True, True]
[True, True, True, True, True, True, True, True, True, True, True]
[True, True, True, True, True, True, True, True, True, True, True]
[True, True, True, True, True, True, True, True, True, True, True]
[True, True, True, True, True, True, True, True, True, True, True]
[True, True, True, True, True, True, True, True, True, True, True]
[True, True, True, True, True, True, True, True, True, True, True]
[True, True, True, True, True, True, True, True, True, True, True]
[True, True, True, True, True, True, True, True, True, True, True]
[True, True, True, True, True, True, True, True, True, True, True]
[True, True, True, True, True, True, True, True, True, True, True]
[True, True, True, True, True, True, True, True, True, True, True]
[True, True, True, True, True, True, True, True, True, True, True]
[True, True, True, True, True, True, True, True, True, True, True]
[True, True, True, True, True, True, True, True, True, True, True]
[True, True, True, True, True, True, True, True, True, True, True]
[True, True, True, True, True, True, True, True, True, True, True]
[True, True, True, True, True, True, True, True, True, True, True]
[True, True, True, True, True, True, True, True, True, True, True]
[True, True, True, True, True, True, True, True, True, True, True]
[True, True, True, True, True, True, True, True, True, True, True]
[True, True, True, True, True, True, True, True, True, True, True]
[True, True, True, True, True, True, True, True, True, True, True]
[True, True, True, True, True, True, True, True, True, True, True]
[True, True, True, True, True, True, True, True, True, True, True]
[True, True, True, True, True, True, True, True, True, True, True]
[True, True, True, True, True, True, True, True, True, True, True]
[True, True, True, True, True, True, True, True, True, True, True]
[True, True, True, True, True, True, True, True, True, True, True]
[True, True, True, True, True, True, True, True, True, True, True]
[True, True, True, True, True, True, True, True, True, True, True]
[True, True, True, True, True, True, True, True, True, True, True]
[True, True, True, True, True, True, True, True, True, True, True]
[True, True, True, True, True, True, True, True, True, True, True]
[True, True, True, True, True, True, True, True, True, True, True]
[True, True, True, True, True, True, True, True, True, True, True]
[True, True, True, True, True, True, True, True, True, True, True]
[True, True, True, True, True, True, True, True, True, True, True]
[True, True, True, True, True, True, True, True, True, True, True]
[True, True, True, True, True, True, True, True, True, True, True]
[True, True, True, True, True, True, True, True, True, True, True]
[True, True, True, True, True, True, True, True, True, True, True]
[True, True, True, True, True, True, True, True, True, True, True]
[True, True, True, True, True, True, True, True, True, True, True]
[True, True, True, True, True, True, True, True, True, True, True]
[True, True, True, True, True, True, True, True, True, True, True]
[True, True, True, True, True, True, True, True, True, True, True]
[True, True, True, True, True, True, True, True, True, True, True]
[True, True, True, True, True, True, True, True, True, True, True]
[True, True, True, True, True, True, True, True, True, True, True]
[True, True, True, True, True, True, True, True, True, True, True]
[True, True, True, True, True, True, True, True, True, True, True]
[True, True, True, True, True, True, True, True, True, True, True]
[True, True, True, True, True, True, True, True, True, True, True]
[True, True, True, True, True, True, True, True, True, True, True]
[True, True, True, True, True, True, True, True, True, True, True]
[True, True, True, True, True, True, True, True, True, True, True]
[True, True, True, True, True, True, True, True, True, True, True]
[True, True, True, True, True, True, True, True, True, True, True]
[True, True, True, True, True, True, True, True, True, True, True]
[True, True, True, True, True, True, True, True, True, True, True]
[True, True, True, True, True, True, True, True, True, True, True]
[True, True, True, True, True, True, True, True, True, True, True]
[True, True, True, True, True, True, True, True, True, True, True]
[True, True, True, True, True, True, True, True, True, True, True]
[True, True, True, True, True, True, True, True, True, True, True]
[True, True, True, True, True, True, True, True, True, True, True]
[True, True, True, True, True, True, True, True, True, True, True]
[True, True, True, True, True, True, True, True, True, True, True]
[True, True, True, True, True, True, True, True, True, True, True]
[True, True, True, True, True, True, True, True, True, True, True]
[True, True, True, True, True, True, True, True, True, True, True]
[True, True, True, True, True, True, True, True, True, True, True]
[True, True, True, True, True, True, True, True, True, True, True]
[True, True, True, True, True, True, True, True, True, True, True]
[True, True, True, True, True, True, True, True, True, True, True]
[True, True, True, True, True, True, True, True, True, True, True]
[True, True, True, True, True, True, True, True, True, True, True]
[True, True, True, True, True, True, True, True, True, True, True]
[True, True, True, True, True, True, True, True, True, True, True]
[True, True, True, True, True, True, True, True, True, True, True]
[True, True, True, True, True, True, True, True, True, True, True]
[True, True, True, True, True, True, True, True, True, True, True]
[True, True, True, True, True, True, True, True, True, True, True]
[True, True, True, True, True, True, True, True, True, True, True]
[True, True, True, True, True, True, True, True, True, True, True]
[True, True, True, True, True, True, True, True, True, True, True]
[True, True, True, True, True, True, True, True, True, True, True]
[True, True, True, True, True, True, True, True, True, True, True]
[True, True, True, True, True, True, True, True, True, True, True]
[True, True, True, True, True, True, True, True, True, True, True]
[True, True, True, True, True, True, True, True, True, True, True]
[True, True, True, True, True, True, True, True, True, True, True]
[True, True, True, True, True, True, True, True, True, True, True]
[True, True, True, True, True, True, True, True, True, True, True]
[True, True, True, True, True, True, True, True, True, True, True]
[True, True, True, True, True, True, True, True, True, True, True]
[True, True, True, True, True, True, True, True, True, True, True]
[True, True, True, True, True, True, True, True, True, True, True]
[True, True, True, True, True, True, True, True, True, True, True]
[True, True, True, True, True, True, True, True, True, True, True]
[True, True, True, True, True, True, True, True, True, True, True]
[True, True, True, True, True, True, True, True, True, True, True]
[True, True, True, True, True, True, True, True, True, True, True]
[True, True, True, True, True, True, True, True, True, True, True]
[True, True, True, True, True, True, True, True, True, True, True]
[True, True, True, True, True, True, True, True, True, True, True]
[True, True, True, True, True, True, True, True, True, True, True]
[True, True, True, True, True, True, True, True, True, True, True]
[True, True, True, True, True, True, True, True, True, True, True]
[True, True, True, True, True, True, True, True, True, True, True]
[True, True, True, True, True, True, True, True, True, True, True]
[True, True, True, True, True, True, True, True, True, True, True]
[True, True, True, True, True, True, True, True, True, True, True]
[True, True, True, True, True, True, True, True, True, True, True]
[True, True, True, True, True, True, True, True, True, True, True]
[True, True, True, True, True, True, True, True, True, True, True]
[True, True, True, True, True, True, True, True, True, True, True]
[True, True, True, True, True, True, True, True, True, True, True]
[True, True, True, True, True, True, True, True, True, True, True]
[True, True, True, True, True, True, True, True, True, True, True]
[True, True, True, True, True, True, True, True, True, True, True]
[True, True, True, True, True, True, True, True, True, True, True]
[True, True, True, True, True, True, True, True, True, True, True]
[True, True, True, True, True, True, True, True, True, True, True]
[True, True, True, True, True, True, True, True, True, True, True]
[True, True, True, True, True, True, True, True, True, True, True]
[True, True, True, True, True, True, True, True, True, True, True]
[True, True, True, True, True, True, True, True, True, True, True]
[True, True, True, True, True, True, True, True, True, True, True]
[True, True, True, True, True, True, True, True, True, True, True]
[True, True, True, True, True, True, True, True, True, True, True]
[True, True, True, True, True, True, True, True, True, True, True]
[True, True, True, True, True, True, True, True, True, True, True]
[True, True, True, True, True, True, True, True, True, True, True]
[True, True, True, True, True, True, True, True, True, True, True]
[True, True, True, True, True, True, True, True, True, True, True]
[True, True, True, True, True, True, True, True, True, True, True]
[True, True, True, True, True, True, True, True, True, True, True]
[True, True, True, True, True, True, True, True, True, True, True]
[True, True, True, True, True, True, True, True, True, True, True]
[True, True, True, True, True, True, True, True, True, True, True]
[True, True, True, True, True, True, True, True, True, True, True]
[True, True, True, True, True, True, True, True, True, True, True]
[True, True, True, True, True, True, True, True, True, True, True]
[True, True, True, True, True, True, True, True, True, True, True]
[True, True, True, True, True, True, True, True, True, True, True]
[True, True, True, True, True, True, True, True, True, True, True]
[True, True, True, True, True, True, True, True, True, True, True]
[True, True, True, True, True, True, True, True, True, True, True]
[True, True, True, True, True, True, True, True, True, True, True]
[True, True, True, True, True, True, True, True, True, True, True]
[True, True, True, True, True, True, True, True, True, True, True]
[True, True, True, True, True, True, True, True, True, True, True]
[True, True, True, True, True, True, True, True, True, True, True]
[True, True, True, True, True, True, True, True, True, True, True]
[True, True, True, True, True, True, True, True, True, True, True]
[True, True, True, True, True, True, True, True, True, True, True]
[True, True, True, True, True, True, True, True, True, True, True]
[True, True, True, True, True, True, True, True, True, True, True]
[True, True, True, True, True, True, True, True, True, True, True]
[True, True, True, True, True, True, True, True, True, True, True]
[True, True, True, True, True, True, True, True, True, True, True]
[True, True, True, True, True, True, True, True, True, True, True]
[True, True, True, True, True, True, True, True, True, True, True]
[True, True, True, True, True, True, True, True, True, True, True]
[True, True, True, True, True, True, True, True, True, True, True]
[True, True, True, True, True, True, True, True, True, True, True]
[True, True, True, True, True, True, True, True, True, True, True]
[True, True, True, True, True, True, True, True, True, True, True]
[True, True, True, True, True, True, True, True, True, True, True]
[True, True, True, True, True, True, True, True, True, True, True]
[True, True, True, True, True, True, True, True, True, True, True]
[True, True, True, True, True, True, True, True, True, True, True]
[True, True, True, True, True, True, True, True, True, True, True]
[True, True, True, True, True, True, True, True, True, True, True]
[True, True, True, True, True, True, True, True, True, True, True]
[True, True, True, True, True, True, True, True, True, True, True]
[True, True, True, True, True, True, True, True, True, True, True]
[True, True, True, True, True, True, True, True, True, True, True]
[True, True, True, True, True, True, True, True, True, True, True]
[True, True, True, True, True, True, True, True, True, True, True]
[True, True, True, True, True, True, True, True, True, True, True]
[True, True, True, True, True, True, True, True, True, True, True]
[True, True, True, True, True, True, True, True, True, True, True]
[True, True, True, True, True, True, True, True, True, True, True]
[True, True, True, True, True, True, True, True, True, True, True]
[True, True, True, True, True, True, True, True, True, True, True]
[True, True, True, True, True, True, True, True, True, True, True]
[True, True, True, True, True, True, True, True, True, True, True]
[True, True, True, True, True, True, True, True, True, True, True]
[True, True, True, True, True, True, True, True, True, True, True]
[True, True, True, True, True, True, True, True, True, True, True]
[True, True, True, True, True, True, True, True, True, True, True]
[True, True, True, True, True, True, True, True, True, True, True]
[True, True, True, True, True, True, True, True, True, True, True]
[True, True, True, True, True, True, True, True, True, True, True]
[True, True, True, True, True, True, True, True, True, True, True]
[True, True, True, True, True, True, True, True, True, True, True]
[True, True, True, True, True, True, True, True, True, True, True]
[True, True, True, True, True, True, True, True, True, True, True]
[True, True, True, True, True, True, True, True, True, True, True]
[True, True, True, True, True, True, True, True, True, True, True]
[True, True, True, True, True, True, True, True, True, True, True]
[True, True, True, True, True, True, True, True, True, True, True]
[True, True, True, True, True, True, True, True, True, True, True]
[True, True, True, True, True, True, True, True, True, True, True]
[True, True, True, True, True, True, True, True, True, True, True]
[True, True, True, True, True, True, True, True, True, True, True]
[True, True, True, True, True, True, True, True, True, True, True]
[True, True, True, True, True, True, True, True, True, True, True]
[True, True, True, True, True, True, True, True, True, True, True]
[True, True, True, True, True, True, True, True, True, True, True]
[True, True, True, True, True, True, True, True, True, True, True]
[True, True, True, True, True, True, True, True, True, True, True]
[True, True, True, True, True, True, True, True, True, True, True]
[True, True, True, True, True, True, True, True, True, True, True]
[True, True, True, True, True, True, True, True, True, True, True]
[True, True, True, True, True, True, True, True, True, True, True]
[True, True, True, True, True, True, True, True, True, True, True]
[True, True, True, True, True, True, True, True, True, True, True]
[True, True, True, True, True, True, True, True, True, True, True]
[True, True, True, True, True, True, True, True, True, True, True]
[True, True, True, True, True, True, True, True, True, True, True]
[True, True, True, True, True, True, True, True, True, True, True]
[True, True, True, True, True, True, True, True, True, True, True]
[True, True, True, True, True, True, True, True, True, True, True]
[True, True, True, True, True, True, True, True, True, True, True]
[True, True, True, True, True, True, True, True, True, True, True]
[True, True, True, True, True, True, True, True, True, True, True]
[True, True, True, True, True, True, True, True, True, True, True]
[True, True, True, True, True, True, True, True, True, True, True]
[True, True, True, True, True, True, True, True, True, True, True]
[True, True, True, True, True, True, True, True, True, True, True]
[True, True, True, True, True, True, True, True, True, True, True]
[True, True, True, True, True, True, True, True, True, True, True]
[True, True, True, True, True, True, True, True, True, True, True]
[True, True, True, True, True, True, True, True, True, True, True]
[True, True, True, True, True, True, True, True, True, True, True]
[True, True, True, True, True, True, True, True, True, True, True]
[True, True, True, True, True, True, True, True, True, True, True]
[True, True, True, True, True, True, True, True, True, True, True]
[True, True, True, True, True, True, True, True, True, True, True]
[True, True, True, True, True, True, True, True, True, True, True]
[True, True, True, True, True, True, True, True, True, True, True]
[True, True, True, True, True, True, True, True, True, True, True]
[True, True, True, True, True, True, True, True, True, True, True]
[True, True, True, True, True, True, True, True, True, True, True]
[True, True, True, True, True, True, True, True, True, True, True]
[True, True, True, True, True, True, True, True, True, True, True]
[True, True, True, True, True, True, True, True, True, True, True]
[True, True, True, True, True, True, True, True, True, True, True]
[True, True, True, True, True, True, True, True, True, True, True]
[True, True, True, True, True, True, True, True, True, True, True]
[True, True, True, True, True, True, True, True, True, True, True]
[True, True, True, True, True, True, True, True, True, True, True]
[True, True, True, True, True, True, True, True, True, True, True]
[True, True, True, True, True, True, True, True, True, True, True]
[True, True, True, True, True, True, True, True, True, True, True]
[True, True, True, True, True, True, True, True, True, True, True]
[True, True, True, True, True, True, True, True, True, True, True]
[True, True, True, True, True, True, True, True, True, True, True]
[True, True, True, True, True, True, True, True, True, True, True]
[True, True, True, True, True, True, True, True, True, True, True]
[True, True, True, True, True, True, True, True, True, True, True]
[True, True, True, True, True, True, True, True, True, True, True]
[True, True, True, True, True, True, True, True, True, True, True]
[True, True, True, True, True, True, True, True, True, True, True]
[True, True, True, True, True, True, True, True, True, True, True]
[True, True, True, True, True, True, True, True, True, True, True]
[True, True, True, True, True, True, True, True, True, True, True]
[True, True, True, True, True, True, True, True, True, True, True]
[True, True, True, True, True, True, True, True, True, True, True]
[True, True, True, True, True, True, True, True, True, True, True]
[True, True, True, True, True, True, True, True, True, True, True]
[True, True, True, True, True, True, True, True, True, True, True]
[True, True, True, True, True, True, True, True, True, True, True]
[True, True, True, True, True, True, True, True, True, True, True]
[True, True, True, True, True, True, True, True, True, True, True]
[True, True, True, True, True, True, True, True, True, True, True]
[True, True, True, True, True, True, True, True, True, True, True]
[True, True, True, True, True, True, True, True, True, True, True]
[True, True, True, True, True, True, True, True, True, True, True]
[True, True, True, True, True, True, True, True, True, True, True]
[True, True, True, True, True, True, True, True, True, True, True]
[True, True, True, True, True, True, True, True, True, True, True]
[True, True, True, True, True, True, True, True, True, True, True]
[True, True, True, True, True, True, True, True, True, True, True]
[True, True, True, True, True, True, True, True, True, True, True]
[True, True, True, True, True, True, True, True, True, True, True]
[True, True, True, True, True, True, True, True, True, True, True]
[True, True, True, True, True, True, True, True, True, True, True]
[True, True, True, True, True, True, True, True, True, True, True]
[True, True, True, True, True, True, True, True, True, True, True]
[True, True, True, True, True, True, True, True, True, True, True]
[True, True, True, True, True, True, True, True, True, True, True]
[True, True, True, True, True, True, True, True, True, True, True]
[True, True, True, True, True, True, True, True, True, True, True]
[True, True, True, True, True, True, True, True, True, True, True]
[True, True, True, True, True, True, True, True, True, True, True]
[True, True, True, True, True, True, True, True, True, True, True]
[True, True, True, True, True, True, True, True, True, True, True]
[True, True, True, True, True, True, True, True, True, True, True]
[True, True, True, True, True, True, True, True, True, True, True]
[True, True, True, True, True, True, True, True, True, True, True]
[True, True, True, True, True, True, True, True, True, True, True]
[True, True, True, True, True, True, True, True, True, True, True]
[True, True, True, True, True, True, True, True, True, True, True]
[True, True, True, True, True, True, True, True, True, True, True]
[True, True, True, True, True, True, True, True, True, True, True]
[True, True, True, True, True, True, True, True, True, True, True]
[True, True, True, True, True, True, True, True, True, True, True]
[True, True, True, True, True, True, True, True, True, True, True]
[True, True, True, True, True, True, True, True, True, True, True]
[True, True, True, True, True, True, True, True, True, True, True]
[True, True, True, True, True, True, True, True, True, True, True]
[True, True, True, True, True, True, True, True, True, True, True]
[True, True, True, True, True, True, True, True, True, True, True]
[True, True, True, True, True, True, True, True, True, True, True]
[True, True, True, True, True, True, True, True, True, True, True]
[True, True, True, True, True, True, True, True, True, True, True]
[True, True, True, True, True, True, True, True, True, True, True]
[True, True, True, True, True, True, True, True, True, True, True]
[True, True, True, True, True, True, True, True, True, True, True]
[True, True, True, True, True, True, True, True, True, True, True]
[True, True, True, True, True, True, True, True, True, True, True]
[True, True, True, True, True, True, True, True, True, True, True]
[True, True, True, True, True, True, True, True, True, True, True]
[True, True, True, True, True, True, True, True, True, True, True]
[True, True, True, True, True, True, True, True, True, True, True]
[True, True, True, True, True, True, True, True, True, True, True]
[True, True, True, True, True, True, True, True, True, True, True]
[True, True, True, True, True, True, True, True, True, True, True]
[True, True, True, True, True, True, True, True, True, True, True]
[True, True, True, True, True, True, True, True, True, True, True]
[True, True, True, True, True, True, True, True, True, True, True]
[True, True, True, True, True, True, True, True, True, True, True]
[True, True, True, True, True, True, True, True, True, True, True]
[True, True, True, True, True, True, True, True, True, True, True]
[True, True, True, True, True, True, True, True, True, True, True]
[True, True, True, True, True, True, True, True, True, True, True]
[True, True, True, True, True, True, True, True, True, True, True]
[True, True, True, True, True, True, True, True, True, True, True]
[True, True, True, True, True, True, True, True, True, True, True]
[True, True, True, True, True, True, True, True, True, True, True]
[True, True, True, True, True, True, True, True, True, True, True]
[True, True, True, True, True, True, True, True, True, True, True]
[True, True, True, True, True, True, True, True, True, True, True]
[True, True, True, True, True, True, True, True, True, True, True]
[True, True, True, True, True, True, True, True, True, True, True]
[True, True, True, True, True, True, True, True, True, True, True]
[True, True, True, True, True, True, True, True, True, True, True]
[True, True, True, True, True, True, True, True, True, True, True]
[True, True, True, True, True, True, True, True, True, True, True]
[True, True, True, True, True, True, True, True, True, True, True]
[True, True, True, True, True, True, True, True, True, True, True]
[True, True, True, True, True, True, True, True, True, True, True]
[True, True, True, True, True, True, True, True, True, True, True]
[True, True, True, True, True, True, True, True, True, True, True]
[True, True, True, True, True, True, True, True, True, True, True]
[True, True, True, True, True, True, True, True, True, True, True]
[True, True, True, True, True, True, True, True, True, True, True]
[True, True, True, True, True, True, True, True, True, True, True]
[True, True, True, True, True, True, True, True, True, True, True]
[True, True, True, True, True, True, True, True, True, True, True]
[True, True, True, True, True, True, True, True, True, True, True]
[True, True, True, True, True, True, True, True, True, True, True]
[True, True, True, True, True, True, True, True, True, True, True]
[True, True, True, True, True, True, True, True, True, True, True]
[True, True, True, True, True, True, True, True, True, True, True]
[True, True, True, True, True, True, True, True, True, True, True]
[True, True, True, True, True, True, True, True, True, True, True]
[True, True, True, True, True, True, True, True, True, True, True]
[True, True, True, True, True, True, True, True, True, True, True]
[True, True, True, True, True, True, True, True, True, True, True]
[True, True, True, True, True, True, True, True, True, True, True]
[True, True, True, True, True, True, True, True, True, True, True]
[True, True, True, True, True, True, True, True, True, True, True]
[True, True, True, True, True, True, True, True, True, True, True]
[True, True, True, True, True, True, True, True, True, True, True]
[True, True, True, True, True, True, True, True, True, True, True]
[True, True, True, True, True, True, True, True, True, True, True]
[True, True, True, True, True, True, True, True, True, True, True]
[True, True, True, True, True, True, True, True, True, True, True]
[True, True, True, True, True, True, True, True, True, True, True]
[True, True, True, True, True, True, True, True, True, True, True]
[True, True, True, True, True, True, True, True, True, True, True]
[True, True, True, True, True, True, True, True, True, True, True]
[True, True, True, True, True, True, True, True, True, True, True]
[True, True, True, True, True, True, True, True, True, True, True]
[True, True, True, True, True, True, True, True, True, True, True]
[True, True, True, True, True, True, True, True, True, True, True]
[True, True, True, True, True, True, True, True, True, True, True]
[True, True, True, True, True, True, True, True, True, True, True]
[True, True, True, True, True, True, True, True, True, True, True]
[True, True, True, True, True, True, True, True, True, True, True]
[True, True, True, True, True, True, True, True, True, True, True]
[True, True, True, True, True, True, True, True, True, True, True]
[True, True, True, True, True, True, True, True, True, True, True]
[True, True, True, True, True, True, True, True, True, True, True]
[True, True, True, True, True, True, True, True, True, True, True]
[True, True, True, True, True, True, True, True, True, True, True]
[True, True, True, True, True, True, True, True, True, True, True]
[True, True, True, True, True, True, True, True, True, True, True]
[True, True, True, True, True, True, True, True, True, True, True]
[True, True, True, True, True, True, True, True, True, True, True]
[True, True, True, True, True, True, True, True, True, True, True]
[True, True, True, True, True, True, True, True, True, True, True]
[True, True, True, True, True, True, True, True, True, True, True]
[True, True, True, True, True, True, True, True, True, True, True]
[True, True, True, True, True, True, True, True, True, True, True]
[True, True, True, True, True, True, True, True, True, True, True]
[True, True, True, True, True, True, True, True, True, True, True]
[True, True, True, True, True, True, True, True, True, True, True]
[True, True, True, True, True, True, True, True, True, True, True]
[True, True, True, True, True, True, True, True, True, True, True]
[True, True, True, True, True, True, True, True, True, True, True]
[True, True, True, True, True, True, True, True, True, True, True]
[True, True, True, True, True, True, True, True, True, True, True]
[True, True, True, True, True, True, True, True, True, True, True]
[True, True, True, True, True, True, True, True, True, True, True]
[True, True, True, True, True, True, True, True, True, True, True]
[True, True, True, True, True, True, True, True, True, True, True]
[True, True, True, True, True, True, True, True, True, True, True]
[True, True, True, True, True, True, True, True, True, True, True]
[True, True, True, True, True, True, True, True, True, True, True]
[True, True, True, True, True, True, True, True, True, True, True]
[True, True, True, True, True, True, True, True, True, True, True]
[True, True, True, True, True, True, True, True, True, True, True]
[True, True, True, True, True, True, True, True, True, True, True]
[True, True, True, True, True, True, True, True, True, True, True]
[True, True, True, True, True, True, True, True, True, True, True]
[True, True, True, True, True, True, True, True, True, True, True]
[True, True, True, True, True, True, True, True, True, True, True]
[True, True, True, True, True, True, True, True, True, True, True]
[True, True, True, True, True, True, True, True, True, True, True]
[True, True, True, True, True, True, True, True, True, True, True]
[True, True, True, True, True, True, True, True, True, True, True]
[True, True, True, True, True, True, True, True, True, True, True]
[True, True, True, True, True, True, True, True, True, True, True]
[True, True, True, True, True, True, True, True, True, True, True]
[True, True, True, True, True, True, True, True, True, True, True]
[True, True, True, True, True, True, True, True, True, True, True]
[True, True, True, True, True, True, True, True, True, True, True]
[True, True, True, True, True, True, True, True, True, True, True]
[True, True, True, True, True, True, True, True, True, True, True]
[True, True, True, True, True, True, True, True, True, True, True]
[True, True, True, True, True, True, True, True, True, True, True]
[True, True, True, True, True, True, True, True, True, True, True]
[True, True, True, True, True, True, True, True, True, True, True]
[True, True, True, True, True, True, True, True, True, True, True]
[True, True, True, True, True, True, True, True, True, True, True]
[True, True, True, True, True, True, True, True, True, True, True]
[True, True, True, True, True, True, True, True, True, True, True]
[True, True, True, True, True, True, True, True, True, True, True]
[True, True, True, True, True, True, True, True, True, True, True]
[True, True, True, True, True, True, True, True, True, True, True]
[True, True, True, True, True, True, True, True, True, True, True]
[True, True, True, True, True, True, True, True, True, True, True]
[True, True, True, True, True, True, True, True, True, True, True]
[True, True, True, True, True, True, True, True, True, True, True]
[True, True, True, True, True, True, True, True, True, True, True]
[True, True, True, True, True, True, True, True, True, True, True]
[True, True, True, True, True, True, True, True, True, True, True]
[True, True, True, True, True, True, True, True, True, True, True]
[True, True, True, True, True, True, True, True, True, True, True]
[True, True, True, True, True, True, True, True, True, True, True]
[True, True, True, True, True, True, True, True, True, True, True]
[True, True, True, True, True, True, True, True, True, True, True]
[True, True, True, True, True, True, True, True, True, True, True]
[True, True, True, True, True, True, True, True, True, True, True]
[True, True, True, True, True, True, True, True, True, True, True]
[True, True, True, True, True, True, True, True, True, True, True]
[True, True, True, True, True, True, True, True, True, True, True]
[True, True, True, True, True, True, True, True, True, True, True]
[True, True, True, True, True, True, True, True, True, True, True]
[True, True, True, True, True, True, True, True, True, True, True]
[True, True, True, True, True, True, True, True, True, True, True]
[True, True, True, True, True, True, True, True, True, True, True]
[True, True, True, True, True, True, True, True, True, True, True]
[True, True, True, True, True, True, True, True, True, True, True]
[True, True, True, True, True, True, True, True, True, True, True]
[True, True, True, True, True, True, True, True, True, True, True]
[True, True, True, True, True, True, True, True, True, True, True]
[True, True, True, True, True, True, True, True, True, True, True]
[True, True, True, True, True, True, True, True, True, True, True]
[True, True, True, True, True, True, True, True, True, True, True]
[True, True, True, True, True, True, True, True, True, True, True]
[True, True, True, True, True, True, True, True, True, True, True]
[True, True, True, True, True, True, True, True, True, True, True]
[True, True, True, True, True, True, True, True, True, True, True]
[True, True, True, True, True, True, True, True, True, True, True]
[True, True, True, True, True, True, True, True, True, True, True]
[True, True, True, True, True, True, True, True, True, True, True]
[True, True, True, True, True, True, True, True, True, True, True]
[True, True, True, True, True, True, True, True, True, True, True]
[True, True, True, True, True, True, True, True, True, True, True]
[True, True, True, True, True, True, True, True, True, True, True]
[True, True, True, True, True, True, True, True, True, True, True]
[True, True, True, True, True, True, True, True, True, True, True]
[True, True, True, True, True, True, True, True, True, True, True]
[True, True, True, True, True, True, True, True, True, True, True]
[True, True, True, True, True, True, True, True, True, True, True]
[True, True, True, True, True, True, True, True, True, True, True]
[True, True, True, True, True, True, True, True, True, True, True]
[True, True, True, True, True, True, True, True, True, True, True]
[True, True, True, True, True, True, True, True, True, True, True]
[True, True, True, True, True, True, True, True, True, True, True]
[True, True, True, True, True, True, True, True, True, True, True]
[True, True, True, True, True, True, True, True, True, True, True]
[True, True, True, True, True, True, True, True, True, True, True]
[True, True, True, True, True, True, True, True, True, True, True]
[True, True, True, True, True, True, True, True, True, True, True]
[True, True, True, True, True, True, True, True, True, True, True]
[True, True, True, True, True, True, True, True, True, True, True]
[True, True, True, True, True, True, True, True, True, True, True]
[True, True, True, True, True, True, True, True, True, True, True]
[True, True, True, True, True, True, True, True, True, True, True]
[True, True, True, True, True, True, True, True, True, True, True]
[True, True, True, True, True, True, True, True, True, True, True]
[True, True, True, True, True, True, True, True, True, True, True]
[True, True, True, True, True, True, True, True, True, True, True]
[True, True, True, True, True, True, True, True, True, True, True]
[True, True, True, True, True, True, True, True, True, True, True]
[True, True, True, True, True, True, True, True, True, True, True]
[True, True, True, True, True, True, True, True, True, True, True]
[True, True, True, True, True, True, True, True, True, True, True]
[True, True, True, True, True, True, True, True, True, True, True]
[True, True, True, True, True, True, True, True, True, True, True]
[True, True, True, True, True, True, True, True, True, True, True]
[True, True, True, True, True, True, True, True, True, True, True]
[True, True, True, True, True, True, True, True, True, True, True]
[True, True, True, True, True, True, True, True, True, True, True]
[True, True, True, True, True, True, True, True, True, True, True]
[True, True, True, True, True, True, True, True, True, True, True]
[True, True, True, True, True, True, True, True, True, True, True]
[True, True, True, True, True, True, True, True, True, True, True]
[True, True, True, True, True, True, True, True, True, True, True]
[True, True, True, True, True, True, True, True, True, True, True]
[True, True, True, True, True, True, True, True, True, True, True]
[True, True, True, True, True, True, True, True, True, True, True]
[True, True, True, True, True, True, True, True, True, True, True]
[True, True, True, True, True, True, True, True, True, True, True]
[True, True, True, True, True, True, True, True, True, True, True]
[True, True, True, True, True, True, True, True, True, True, True]
[True, True, True, True, True, True, True, True, True, True, True]
[True, True, True, True, True, True, True, True, True, True, True]
[True, True, True, True, True, True, True, True, True, True, True]
[True, True, True, True, True, True, True, True, True, True, True]
[True, True, True, True, True, True, True, True, True, True, True]
[True, True, True, True, True, True, True, True, True, True, True]
[True, True, True, True, True, True, True, True, True, True, True]
[True, True, True, True, True, True, True, True, True, True, True]
[True, True, True, True, True, True, True, True, True, True, True]
[True, True, True, True, True, True, True, True, True, True, True]
[True, True, True, True, True, True, True, True, True, True, True]
[True, True, True, True, True, True, True, True, True, True, True]
[True, True, True, True, True, True, True, True, True, True, True]
[True, True, True, True, True, True, True, True, True, True, True]
[True, True, True, True, True, True, True, True, True, True, True]
[True, True, True, True, True, True, True, True, True, True, True]
[True, True, True, True, True, True, True, True, True, True, True]
[True, True, True, True, True, True, True, True, True, True, True]
[True, True, True, True, True, True, True, True, True, True, True]
[True, True, True, True, True, True, True, True, True, True, True]
[True, True, True, True, True, True, True, True, True, True, True]
[True, True, True, True, True, True, True, True, True, True, True]
[True, True, True, True, True, True, True, True, True, True, True]
[True, True, True, True, True, True, True, True, True, True, True]
[True, True, True, True, True, True, True, True, True, True, True]
[True, True, True, True, True, True, True, True, True, True, True]
[True, True, True, True, True, True, True, True, True, True, True]
[True, True, True, True, True, True, True, True, True, True, True]
[True, True, True, True, True, True, True, True, True, True, True]
[True, True, True, True, True, True, True, True, True, True, True]
[True, True, True, True, True, True, True, True, True, True, True]
[True, True, True, True, True, True, True, True, True, True, True]
[True, True, True, True, True, True, True, True, True, True, True]
[True, True, True, True, True, True, True, True, True, True, True]
[True, True, True, True, True, True, True, True, True, True, True]
[True, True, True, True, True, True, True, True, True, True, True]
[True, True, True, True, True, True, True, True, True, True, True]
[True, True, True, True, True, True, True, True, True, True, True]
[True, True, True, True, True, True, True, True, True, True, True]
[True, True, True, True, True, True, True, True, True, True, True]
[True, True, True, True, True, True, True, True, True, True, True]
[True, True, True, True, True, True, True, True, True, True, True]
[True, True, True, True, True, True, True, True, True, True, True]
[True, True, True, True, True, True, True, True, True, True, True]
[True, True, True, True, True, True, True, True, True, True, True]
[True, True, True, True, True, True, True, True, True, True, True]
[True, True, True, True, True, True, True, True, True, True, True]
[True, True, True, True, True, True, True, True, True, True, True]
[True, True, True, True, True, True, True, True, True, True, True]
[True, True, True, True, True, True, True, True, True, True, True]
[True, True, True, True, True, True, True, True, True, True, True]
[True, True, True, True, True, True, True, True, True, True, True]
[True, True, True, True, True, True, True, True, True, True, True]
[True, True, True, True, True, True, True, True, True, True, True]
[True, True, True, True, True, True, True, True, True, True, True]
[True, True, True, True, True, True, True, True, True, True, True]
[True, True, True, True, True, True, True, True, True, True, True]
[True, True, True, True, True, True, True, True, True, True, True]
[True, True, True, True, True, True, True, True, True, True, True]
[True, True, True, True, True, True, True, True, True, True, True]
[True, True, True, True, True, True, True, True, True, True, True]
[True, True, True, True, True, True, True, True, True, True, True]
[True, True, True, True, True, True, True, True, True, True, True]
[True, True, True, True, True, True, True, True, True, True, True]
[True, True, True, True, True, True, True, True, True, True, True]
[True, True, True, True, True, True, True, True, True, True, True]
[True, True, True, True, True, True, True, True, True, True, True]
[True, True, True, True, True, True, True, True, True, True, True]
[True, True, True, True, True, True, True, True, True, True, True]
[True, True, True, True, True, True, True, True, True, True, True]
[True, True, True, True, True, True, True, True, True, True, True]
[True, True, True, True, True, True, True, True, True, True, True]
[True, True, True, True, True, True, True, True, True, True, True]
[True, True, True, True, True, True, True, True, True, True, True]
[True, True, True, True, True, True, True, True, True, True, True]
[True, True, True, True, True, True, True, True, True, True, True]
[True, True, True, True, True, True, True, True, True, True, True]
[True, True, True, True, True, True, True, True, True, True, True]
[True, True, True, True, True, True, True, True, True, True, True]
[True, True, True, True, True, True, True, True, True, True, True]
[True, True, True, True, True, True, True, True, True, True, True]
[True, True, True, True, True, True, True, True, True, True, True]
[True, True, True, True, True, True, True, True, True, True, True]
